﻿// EVENT 7331
Name "Ariadne: Talk"

If(1,834,0,0,0)
 ChangeVariable(834,834,0,0,1)
 0()
EndIf()
241(bytes(0x04,0x08,0x6f,0x3a,0x0d,0x52,0x50,0x47,0x3a,0x3a,0x42,0x47,0x4d,0x08,0x3a,0x0a,0x40,0x6e,0x61,0x6d,0x65,0x49,0x22,0x09,0x65,0x72,0x6f,0x32,0x06,0x3a,0x06,0x45,0x54,0x3a,0x0c,0x40,0x76,0x6f,0x6c,0x75,0x6d,0x65,0x69,0x50,0x3a,0x0b,0x40,0x70,0x69,0x74,0x63,0x68,0x69,0x69))
PictureDisplay(5,"80_mob_kaizoku1_st01",0,0,0,0,100,100,0,0)
PictureMove(5,null,0,0,0,0,100,100,255,0,30,true)
ShowMessageFace("mob_kaizoku1_fc1",0,0,2,1)
ShowMessage("\\n<Ariadne>You're going to battle fuck with me...?\nAll right then, I'll play with you!")
If(1,834,0,2,1)
 ShowMessageFace("mob_kaizoku1_fc1",0,0,2,2)
 ShowMessage("\\n<Ariadne>The bet's 1500G.\nDidn't I already hand you a prize?")
 0()
Else()
 ShowMessageFace("mob_kaizoku1_fc1",0,0,2,3)
 ShowMessage("\\n<Ariadne>The bet's 1500G.\nThe prize will be an accessory that lets you use piracy skills!")
 0()
EndIf()
ShowMessageFace("mob_kaizoku1_fc1",0,0,2,4)
ShowMessage("\\n<Ariadne>Are you ready for a match?\nThen let's get started right away!")
ShowChoices(strings("Battle Fuck Challenge","Reconsider"),2)
IfPlayerPicksChoice(0,"バトルファックを挑む")
 If(7,1500,0)
  RunCommonEvent(7332)
  EndEventProcessing()
  0()
 Else()
  ShowMessageFace("mob_kaizoku1_fc1",0,0,2,5)
  ShowMessage("\\n<Ariadne>Hey, you don't have enough money...")
  If(0,2331,1)
   PictureClear(5)
   241(bytes(0x04,0x08,0x6f,0x3a,0x0d,0x52,0x50,0x47,0x3a,0x3a,0x42,0x47,0x4d,0x08,0x3a,0x0a,0x40,0x6e,0x61,0x6d,0x65,0x49,0x22,0x0a,0x6b,0x69,0x6b,0x69,0x34,0x06,0x3a,0x06,0x45,0x54,0x3a,0x0c,0x40,0x76,0x6f,0x6c,0x75,0x6d,0x65,0x69,0x69,0x3a,0x0b,0x40,0x70,0x69,0x74,0x63,0x68,0x69,0x69))
   0()
  EndIf()
  EndEventProcessing()
  0()
 EndIf()
 0()
IfPlayerPicksChoice(1,"やめておく")
 ShowMessageFace("mob_kaizoku1_fc1",0,0,2,6)
 ShowMessage("\\n<Ariadne>What, you're running away?\nAre you afraid of coming from me?")
 If(0,2331,1)
  PictureClear(5)
  241(bytes(0x04,0x08,0x6f,0x3a,0x0d,0x52,0x50,0x47,0x3a,0x3a,0x42,0x47,0x4d,0x08,0x3a,0x0a,0x40,0x6e,0x61,0x6d,0x65,0x49,0x22,0x0a,0x6b,0x69,0x6b,0x69,0x34,0x06,0x3a,0x06,0x45,0x54,0x3a,0x0c,0x40,0x76,0x6f,0x6c,0x75,0x6d,0x65,0x69,0x69,0x3a,0x0b,0x40,0x70,0x69,0x74,0x63,0x68,0x69,0x69))
  0()
 EndIf()
 EndEventProcessing()
 0()
404()
0()
