// EVENT 7061
Name "Meyrin: Talk"

If(0,25,1)
 ShowMessageFace("",0,0,2,0)
 ShowMessage("You cannot challenge this BF without copying over the pictures from the first chapter.")
 PictureClear(5)
 EndEventProcessing()
 0()
EndIf()
If(1,807,0,0,0)
 ChangeVariable(807,807,0,0,1)
 0()
EndIf()
241(bytes(0x04,0x08,0x6f,0x3a,0x0d,0x52,0x50,0x47,0x3a,0x3a,0x42,0x47,0x4d,0x08,0x3a,0x0a,0x40,0x6e,0x61,0x6d,0x65,0x49,0x22,0x09,0x65,0x72,0x6f,0x32,0x06,0x3a,0x06,0x45,0x54,0x3a,0x0c,0x40,0x76,0x6f,0x6c,0x75,0x6d,0x65,0x69,0x50,0x3a,0x0b,0x40,0x70,0x69,0x74,0x63,0x68,0x69,0x69))
PictureDisplay(5,"80_mob_kakutou_st01",0,0,0,0,100,100,0,0)
PictureMove(5,null,0,0,0,0,100,100,255,0,30,true)
If(0,2331,1)
 ShowMessageFace("mob_kakutou_fc1",0,0,2,1)
 ShowMessage("\\n<Mei-Lin>It feels all hot and humid out here...\nIt doesn't bother me though, so I don't really care.")
 ShowMessageFace("mob_kakutou_fc1",0,0,2,2)
 ShowMessage("\\n<Mei-Lin>Anyway, I'm a Martial Artist and a Battle Fucker.\nI see you know a little bit about both!")
 0()
EndIf()
If(1,807,0,2,1)
 ShowMessageFace("mob_kakutou_fc1",0,0,2,3)
 ShowMessage("\\n<Mei-Lin>The wager is 100G, want to have a bout with me?\nYou already won once, so there's no prize...")
 0()
Else()
 ShowMessageFace("mob_kakutou_fc1",0,0,2,4)
 ShowMessage("\\n<Mei-Lin>The wager is 100G, want to have a bout with me?\nIf you win, I'll give you an accessory for a Martial Artist.")
 0()
EndIf()
PictureDisplay(5,"80_mob_kakutou_st02",0,0,0,0,100,100,255,0)
ShowMessageFace("mob_kakutou_fc1",1,0,2,5)
ShowMessage("\\n<Mei-Lin>So... Gonna accept the match?\nOr run away like a wimp?")
ShowChoices(strings("Battle Fuck Challenge","Reconsider"),2)
IfPlayerPicksChoice(0,"バトルファックを挑む")
 If(7,100,0)
  If(0,2331,1)
   216(1)
   0()
  EndIf()
  RunCommonEvent(7062)
  EndEventProcessing()
  0()
 Else()
  PictureDisplay(5,"80_mob_kakutou_st01",0,0,0,0,100,100,255,0)
  ShowMessageFace("mob_kakutou_fc1",0,0,2,6)
  ShowMessage("\\n<Mei-Lin>...You're short on money.\nTrain and save up some.")
  PictureClear(5)
  EndEventProcessing()
  0()
 EndIf()
 0()
IfPlayerPicksChoice(1,"やめておく")
 ShowMessageFace("mob_kakutou_fc1",1,0,2,7)
 ShowMessage("\\n<Mei-Lin>Ah, running away.\nDon't want to come like a little bitch, huh? Ahaha.")
 PictureClear(5)
 EndEventProcessing()
 0()
404()
0()
