﻿// EVENT 3063
Name "Meia"

If(0,25,1)
 JumpToLabel("反省会")
 0()
EndIf()
PictureDisplay(5,"80_meia_st02",0,0,0,0,100,100,0,0)
PictureMove(5,null,0,0,0,0,100,100,255,0,30,true)
241(bytes(0x04,0x08,0x6f,0x3a,0x0d,0x52,0x50,0x47,0x3a,0x3a,0x42,0x47,0x4d,0x08,0x3a,0x0a,0x40,0x6e,0x61,0x6d,0x65,0x49,0x22,0x09,0x65,0x72,0x6f,0x31,0x06,0x3a,0x06,0x45,0x54,0x3a,0x0c,0x40,0x76,0x6f,0x6c,0x75,0x6d,0x65,0x69,0x69,0x3a,0x0b,0x40,0x70,0x69,0x74,0x63,0x68,0x69,0x69))
ShowMessageFace("",0,0,2,1)
ShowMessage("\\n<Luka>Urhg...")
ShowMessageFace("meia_fc1",1,0,2,2)
ShowMessage("\\n<Meia>Arara, such a cute child to surrender like that... But from now on, your big sister will be nice and gentle with you.")
ShowMessageFace("",0,0,2,3)
ShowMessage("Meia giggles as she pulls my weakened body to her.\nMy body is touching her soft flesh...")
ShowMessageFace("",0,0,2,4)
ShowMessage("\\n<Luka>S-Stop...!")
ShowMessageFace("meia_fc1",1,0,2,5)
ShowMessage("\\n<Meia>Ara, do you really want me to stop?\nEven if I do something like this...?")
ShowMessageFace("",0,0,2,6)
ShowMessage("Meia hugs me close, and pushes her breasts into my face.\nMy face is buried among her soft boobs.")
ShowMessageFace("",0,0,2,7)
ShowMessage("\\n<Luka>Nnnmm... G-get off...")
ShowMessageFace("meia_fc1",1,0,2,8)
ShowMessage("\\n<Meia>Even if you say that, look at how big your penis got...\nNow let me violate you♪")
ShowMessageFace("",0,0,2,9)
ShowMessage("Meia presses her waist against mine.\nThe tip of my penis, already rock hard, presses against her entrance.")
ShowMessageFace("meia_fc1",1,0,2,10)
ShowMessage("\\n<Meia>Here we go♪")
245(bytes(0x04,0x08,0x6f,0x3a,0x0d,0x52,0x50,0x47,0x3a,0x3a,0x42,0x47,0x53,0x08,0x3a,0x0a,0x40,0x6e,0x61,0x6d,0x65,0x49,0x22,0x1e,0x6d,0x6f,0x6e,0x5f,0x68,0x73,0x65,0x61,0x6e,0x30,0x32,0x5f,0x69,0x6e,0x6e,0x65,0x72,0x77,0x6f,0x72,0x6b,0x73,0x5f,0x61,0x32,0x06,0x3a,0x06,0x45,0x54,0x3a,0x0c,0x40,0x76,0x6f,0x6c,0x75,0x6d,0x65,0x69,0x55,0x3a,0x0b,0x40,0x70,0x69,0x74,0x63,0x68,0x69,0x69))
PictureDisplay(5,"ev_meia_hb1",0,0,0,0,100,100,255,0)
ShowMessageFace("",0,0,2,11)
ShowMessage("Pressing against me, Meia takes me inside her!")
ShowMessageFace("",0,0,2,12)
ShowMessage("My penis sinks deep into her warm body.\nAs if welcoming me into her, her vaginal flesh squeezes and rubs my penis as I sink inside.")
ShowMessageFace("",0,0,2,13)
ShowMessage("\\n<Luka>Ah... A-aaah!")
ShowMessageFace("",0,0,2,14)
ShowMessage("The captivating touch makes me moan right from insertion.")
ShowMessageFace("",0,0,2,15)
ShowMessage("Her soft folds cling to my penis.\nIt feels like countless tongues are licking me with each movement.")
ShowMessageFace("meia_fc1",1,0,2,16)
ShowMessage("\\n<Meia>Ara, you're already moaning.\nSuch a sensitive child... Ufufu.")
ShowMessageFace("",0,0,2,17)
ShowMessage("\\n<Luka>But... It felt too good...\nAuuu...")
ShowMessageFace("meia_fc1",1,0,2,18)
ShowMessage("\\n<Meia>Fufu, I'm so glad...♪")
ShowMessageFace("",0,0,2,19)
ShowMessage("Meia holds my head tightly against her breasts.\nAt the same time, her pussy is completely accepting my penis.")
ShowMessageFace("",0,0,2,20)
ShowMessage("Her sensual touch is too much to take.\nA mermaid's incredible vagina is as amazing as rumored...")
ShowMessageFace("",0,0,2,21)
ShowMessage("\\n<Luka>Auu... I'm coming already...")
ShowMessageFace("meia_fc1",1,0,2,22)
ShowMessage("\\n<Meia>Ara? Are you already satisfied...?\nThe other boys can endure much more than that.... Fufu.")
ShowMessageFace("",0,0,2,23)
ShowMessage("Meia caresses my head as she giggles.")
ShowMessageFace("meia_fc1",1,0,2,24)
ShowMessage("\\n<Meia>I'll make it tighter then.\nI'm sure it will make you come right away...")
ShowMessageFace("meia_fc1",1,0,2,25)
ShowMessage("\\n<Meia>Please come in my pussy♪\nNow to tighten... Ha! ♪")
ShowMessageFace("",0,0,2,26)
ShowMessage("\\n<Luka>Noooo... Ah, aaaah...!")
ShowMessageFace("",0,0,2,27)
ShowMessage("As Meia tightens around me, it feels like I've ascended to heaven. Unable to endure it, I reach an instant climax.")
RunCommonEvent(104)
PictureDisplay(5,"ev_meia_hb2",0,0,0,0,100,100,255,0)
RunCommonEvent(105)
ShowMessageFace("",0,0,2,28)
ShowMessage("\\n<Luka>Unnngh...")
ShowMessageFace("",0,0,2,29)
ShowMessage("I explode inside the vagina of the mermaid I was just fighting as an enemy. The tranquil feeling after my ejaculation leaves me completely exhausted.")
ShowMessageFace("meia_fc1",1,0,2,30)
ShowMessage("\\n<Meia>Ufufu... The face you make when you come is so cute...♪")
ShowMessageFace("",0,0,2,31)
ShowMessage("Meia laughs as she accepts all of the semen I shoot into her. But her hold on me doesn't slacken at all.")
ShowMessageFace("meia_fc1",1,0,2,32)
ShowMessage("\\n<Meia>It's not over yet.")
ShowMessageFace("meia_fc1",1,0,2,33)
ShowMessage("\\n<Meia>More and more...\nI'll make you feel even better with my pussy...")
ShowMessageFace("",0,0,2,34)
ShowMessage("\\n<Luka>Ah... Unnngh...!")
ShowMessageFace("",0,0,2,35)
ShowMessage("Meia starts to gently move her waist.\nHer wet vaginal walls rub against me, in and out, with each stroke.")
ShowMessageFace("",0,0,2,36)
ShowMessage("Every time she skillfully moves her waist, my glans is pulled and pushed in rhythm. The up and down movements bring pure bliss.")
ShowMessageFace("",0,0,2,37)
ShowMessage("\\n<Luka>Unnngh...That feels so good...")
ShowMessageFace("meia_fc1",1,0,2,38)
ShowMessage("\\n<Meia>Ufufu, this is my deathblow technique♪\nNo boy can withstand more than a minute of this...")
ShowMessageFace("meia_fc1",1,0,2,39)
ShowMessage("\\n<Meia>I wonder how long you'll withstand...?")
ShowMessageFace("",0,0,2,40)
ShowMessage("\\n<Luka>Nnngh...")
ShowMessageFace("",0,0,2,41)
ShowMessage("Her slow-motion movements overwhelm me with pleasure.\nThe round-trip movements, rubbing my penis with every stroke...")
ShowMessageFace("",0,0,2,42)
ShowMessage("It's like tongues licking me all over.\nEvery so often she squeezes down on me during her strokes.")
ShowMessageFace("",0,0,2,43)
ShowMessage("My penis trembles in ecstasy at every sensation in her.\nAll too soon, the rising climax makes my waist numb.")
ShowMessageFace("",0,0,2,44)
ShowMessage("\\n<Luka>Unnngh...I'm going to come...")
ShowMessageFace("meia_fc1",1,0,2,45)
ShowMessage("\\n<Meia>Aha...♪ As I thought, you're faster than the other boys...♪ Don't be shy, please come as much as you can♪")
ShowMessageFace("",0,0,2,46)
ShowMessage("Meia smiles as she continues her movements.\nAccepting the stimulus, I entrust my body to the ecstasy.")
RunCommonEvent(104)
PictureDisplay(5,"ev_meia_hb3",0,0,0,0,100,100,255,0)
RunCommonEvent(105)
ShowMessageFace("",0,0,2,47)
ShowMessage("\\n<Luka>Hnnaaa...")
ShowMessageFace("",0,0,2,48)
ShowMessage("Despite the immoral feeling, I come inside the mermaid yet again. Clinging to Meia, I've completely entrusted myself to her care.")
ShowMessageFace("meia_fc1",1,0,2,49)
ShowMessage("\\n<Meia>Ufufu... I wonder if I'll give birth to your baby...?")
ShowMessageFace("",0,0,2,50)
ShowMessage("\\n<Luka>Eh...? N...no way...")
ShowMessageFace("meia_fc1",1,0,2,51)
ShowMessage("\\n<Meia>A technique I haven't used on the other boys...\nShall I show it to you...?")
ShowMessageFace("",0,0,2,52)
ShowMessage("\\n<Luka>Ah... Unnngh...!")
245(bytes(0x04,0x08,0x6f,0x3a,0x0d,0x52,0x50,0x47,0x3a,0x3a,0x42,0x47,0x53,0x08,0x3a,0x0a,0x40,0x6e,0x61,0x6d,0x65,0x49,0x22,0x1e,0x6d,0x6f,0x6e,0x5f,0x68,0x73,0x65,0x61,0x6e,0x30,0x35,0x5f,0x69,0x6e,0x6e,0x65,0x72,0x77,0x6f,0x72,0x6b,0x73,0x5f,0x61,0x35,0x06,0x3a,0x06,0x45,0x54,0x3a,0x0c,0x40,0x76,0x6f,0x6c,0x75,0x6d,0x65,0x69,0x55,0x3a,0x0b,0x40,0x70,0x69,0x74,0x63,0x68,0x69,0x69))
ShowMessageFace("",0,0,2,53)
ShowMessage("Deep inside her vagina, I feel something soft wrap around my glans. It's almost like a set of lips gently pressing against my tip.")
ShowMessageFace("",0,0,2,54)
ShowMessage("\\n<Luka>Nnngh... What...is this!?")
ShowMessageFace("meia_fc1",1,0,2,55)
ShowMessage("\\n<Meia>I took your glans into my cervix.\nI don't use this on the other children, but you're special...")
ShowMessageFace("",0,0,2,56)
ShowMessage("\\n<Luka>N-noooo...Hyaaa...!!")
ShowMessageFace("",0,0,2,57)
ShowMessage("Her inner mouth sucks on my tip.\nThe crazed pleasure is enough to blow away the rest of my reason.")
ShowMessageFace("",0,0,2,58)
ShowMessage("It feels as if my very soul could be sucked out by her... There's no way I could put up with something like this.")
ShowMessageFace("meia_fc1",1,0,2,59)
ShowMessage("\\n<Meia>Shoot your seed into my mermaid womb...\nWhy not try to impregnate me like this? Fufufu...♪")
ShowMessageFace("",0,0,2,60)
ShowMessage("\\n<Luka>D-don't...I can't do that...\nUnnngh...")
ShowMessageFace("",0,0,2,61)
ShowMessage("Nothing I do to try endure it matters.\nOverwhelmed by ecstasy and the immorality of it all, I reach another powerful climax.")
RunCommonEvent(104)
PictureDisplay(5,"ev_meia_hb4",0,0,0,0,100,100,255,0)
RunCommonEvent(105)
ShowMessageFace("",0,0,2,62)
ShowMessage("\\n<Luka>Unnngh...")
ShowMessageFace("",0,0,2,63)
ShowMessage("My semen shoots out straight into Meia's womb.\nThe guilt of possibly impregnating a married woman fills me.")
ShowMessageFace("",0,0,2,64)
ShowMessage("But mixed with the shame is the ecstasy.\nHer womb accepted all of my semen...")
246(2)
ShowMessageFace("",0,0,2,65)
ShowMessage("\\n<Luka>Ah... Aaah...")
ShowMessageFace("meia_fc1",1,0,2,66)
ShowMessage("\\n<Meia>Fufu, are you satisfied...?")
ShowMessageFace("",0,0,2,67)
ShowMessage("Meia continues embracing me as I bask in my climax.\nLike that, my very heart was robbed by the mermaid I was just fighting as an enemy...")
221()
PictureClear(5)
ShowMessageFace("",0,0,2,68)
ShowMessage("After that, I was completely entranced by the mermaid's pussy. Seeking more of that pleasure, I drown in Meia's body.")
ShowMessageFace("",0,0,2,69)
ShowMessage("In this undersea temple, our mating continues every day.\nHaving already forgotten about my adventure, I continue drowning in pleasure.")
DefineLabel("反省会")
ShowMessageFace("",0,0,2,70)
ShowMessage("......")
221()
242(1)
Wait(120)
355("memory_interruption")
ShowMessageFace("",0,0,2,71)
ShowMessage("You hear Ilias' voice calling out to you...\nReceive her evaluation?")
ShowChoices(strings("Receive evaluation","Change difficulty","Reincarnate"),3)
IfPlayerPicksChoice(0,null)
 241(bytes(0x04,0x08,0x6f,0x3a,0x0d,0x52,0x50,0x47,0x3a,0x3a,0x42,0x47,0x4d,0x08,0x3a,0x0a,0x40,0x6e,0x61,0x6d,0x65,0x49,0x22,0x0a,0x69,0x72,0x69,0x61,0x73,0x06,0x3a,0x06,0x45,0x54,0x3a,0x0c,0x40,0x76,0x6f,0x6c,0x75,0x6d,0x65,0x69,0x5f,0x3a,0x0b,0x40,0x70,0x69,0x74,0x63,0x68,0x69,0x6e))
 PictureDisplay(1,"bg001",0,0,0,0,100,100,255,0)
 222()
 PictureDisplay(5,"80_iriasu_st06",0,0,0,0,100,100,0,0)
 PictureMove(5,null,0,0,0,0,100,100,255,0,30,true)
 ShowMessageFace("iriasu_fc1",5,0,2,72)
 ShowMessage("\\n<Ilias>Were you beaten by the Queen of the Southern Seas? Indeed, Kraken is a... Wait, it's not her?")
 PictureDisplay(5,"80_iriasu_st04",0,0,0,0,100,100,255,0)
 ShowMessageFace("iriasu_fc1",3,0,2,73)
 ShowMessage("\\n<Ilias>It's... Meia? That's strange.\nI don't know of a pattern where you fight her...")
 PictureDisplay(5,"80_iriasu_st01",0,0,0,0,100,100,255,0)
 ShowMessageFace("iriasu_fc1",0,0,2,74)
 ShowMessage("\\n<Ilias>Well whatever, Meia seems to be fairly difficult.\nShe uses ice, water, and recovery skills.")
 ShowMessageFace("iriasu_fc1",0,0,2,75)
 ShowMessage("\\n<Ilias>Silence can shut her down, but it's only moderately effective. Ice and water resistant equipment will also help.")
 ShowMessageFace("iriasu_fc1",0,0,2,76)
 ShowMessage("\\n<Ilias>Temptations will only be aimed at Luka.\nIf multiple allies are seduced, Luka should defend.")
 ShowMessageFace("iriasu_fc1",0,0,2,77)
 ShowMessage("\\n<Ilias>Since she's a sea monster, lightning and earth attributes are effective. Hit her weakness and cut down her HP.")
 ShowMessageFace("iriasu_fc1",0,0,2,78)
 ShowMessage("\\n<Ilias>Lastly, poison may work with a low probability.\nYou can expect it to deal a lot of damage, so it may be worth aiming for.")
 PictureDisplay(5,"80_iriasu_st04",0,0,0,0,100,100,255,0)
 ShowMessageFace("iriasu_fc1",3,0,2,79)
 ShowMessage("\\n<Ilias>Now go, oh brave Luka.\nBut, why is she the Queen of the Southern Seas...?")
 242(1)
 221()
 PictureClear(5)
 PictureClear(1)
 Wait(60)
 0()
IfPlayerPicksChoice(1,null)
 ShowMessageFace("",0,0,2,80)
 ShowMessage("Please choose a difficulty level.")
 RunCommonEvent(110)
 0()
IfPlayerPicksChoice(2,null)
 0()
404()
RunCommonEvent(3000)
0()
