﻿// EVENT 0550
Name "RC:アルマエルマ"

If(1,1099,0,3,0)
 If(1,1104,0,0,0)
  RunCommonEvent(545)
  EndEventProcessing()
  0()
 EndIf()
 If(1,1104,0,1,0)
  ShowMessageFace("arumaeruma_fc2",1,0,2,1)
  ShowMessage("【アルマエルマ】")
  ShowMessage("うふふっ、ルカちゃんにはお礼をしなきゃね。")
  ShowMessage("後でご褒美を上げるから……楽しみにね♪")
  ShowMessageFace("",0,0,2,2)
  ShowMessage("アルマエルマが、ご褒美をくれるらしい。")
  ShowMessage("後で会いに行ってみようか……")
  0()
 Else()
  ShowMessageFace("arumaeruma_fc2",3,0,2,3)
  ShowMessage("【アルマエルマ】")
  ShowMessage("私がセクシーさで負けるなんて……")
  ShowMessage("異世界のサキュバス、手強い相手ね。")
  0()
 EndIf()
 0()
EndIf()
If(1,1099,0,4,0)
 ShowMessageFace("arumaeruma_fc2",0,0,2,4)
 ShowMessage("【アルマエルマ】")
 ShowMessage("あら、いらっしゃい♪")
 ShowMessage("私、たまにここでバイトしてるのよ。")
 If(0,2338,0)
  ShowMessageFace("",0,0,2,5)
  ShowMessage("今は、荷物を運んでいる最中だ。")
  ShowMessage("大聖堂に向かうことを優先しよう。")
  EndEventProcessing()
  0()
 EndIf()
 If(0,2350,1)
  If(1,1104,0,1,0)
   ShowMessageFace("arumaeruma_fc2",0,0,2,6)
   ShowMessage("【アルマエルマ】")
   ShowMessage("さっきのセクシー対決では、私に投票してくれたわね。")
   ShowMessage("おかげで、ギリギリ勝てたわ……♪")
   ShowMessageFace("arumaeruma_fc2",6,0,2,7)
   ShowMessage("【アルマエルマ】")
   ShowMessage("言ったわよねぇ……")
   ShowMessage("後で、ご褒美をあげるって。")
   ShowMessageFace("arumaeruma_fc2",6,0,2,8)
   ShowMessage("【アルマエルマ】")
   ShowMessage("うふふっ……さあ、何が欲しい？")
   ShowMessage("それとも、何をしてほしい……？")
   If(0,2364,1)
    ShowChoices(strings("特にいらない","Hなご褒美（時間経過）"),1)
    IfPlayerPicksChoice(0,null)
     ShowMessageFace("arumaeruma_fc2",3,0,2,9)
     ShowMessage("【アルマエルマ】")
     ShowMessage("本当にそれでいいの？")
     ShowMessage("無欲ねぇ……")
     JumpToLabel("メイン")
     0()
    IfPlayerPicksChoice(1,null)
     RunCommonEvent(5836)
     EndEventProcessing()
     0()
    404()
    0()
   EndIf()
   If(0,2364,0)
    ShowChoices(strings("特にいらない","Hなご褒美（時間経過）","髪の毛が欲しい"),1)
    IfPlayerPicksChoice(0,null)
     ShowMessageFace("arumaeruma_fc2",3,0,2,10)
     ShowMessage("【アルマエルマ】")
     ShowMessage("本当にそれでいいの？")
     ShowMessage("無欲ねぇ……")
     JumpToLabel("メイン")
     0()
    IfPlayerPicksChoice(1,null)
     RunCommonEvent(5836)
     EndEventProcessing()
     0()
    IfPlayerPicksChoice(2,null)
     ShowMessageFace("arumaeruma_fc2",3,0,2,11)
     ShowMessage("【アルマエルマ】")
     ShowMessage("あら、髪の毛なんかでいいの？")
     ShowMessage("ちょっと残念ね……")
     250(bytes(0x04,0x08,0x6f,0x3a,0x0c,0x52,0x50,0x47,0x3a,0x3a,0x53,0x45,0x08,0x3a,0x0a,0x40,0x6e,0x61,0x6d,0x65,0x49,0x22,0x0a,0x49,0x74,0x65,0x6d,0x31,0x06,0x3a,0x06,0x45,0x54,0x3a,0x0b,0x40,0x70,0x69,0x74,0x63,0x68,0x69,0x69,0x3a,0x0c,0x40,0x76,0x6f,0x6c,0x75,0x6d,0x65,0x69,0x55))
     ChangeSwitch(2350,2350,0)
     ShowMessageFace("",0,0,2,12)
     ShowMessage("アルマエルマの毛髪を手に入れた！")
     RunCommonEvent(571)
     JumpToLabel("メイン")
     0()
    404()
    0()
   EndIf()
   0()
  EndIf()
  0()
 EndIf()
 0()
EndIf()
DefineLabel("メイン")
If(1,1099,0,4,0)
 355("ex_choice_add(\"飲んでいく（時間経過）\",1,")
 655("\"v[1098] >= 5\",0)")
 0()
EndIf()
355("ex_choice_add(\"異変について相談する\",2,")
655("\"s[2341]\",0)")
655("ex_choice_add(\"後悔していることについて聞く\",3,")
655("\"s[2342]\",0)")
655("ex_choice_add(\"時を繰り返す道具について聞く\",4,")
655("\"s[2343]\",0)")
655("ex_choice_add(\"ピザを注文したか聞く\",5,")
655("\"s[2345]\",0)")
355("ex_choice_add(\"謎のマキナについて聞く\",6,")
655("\"s[2365]\",0)")
655("ex_choice_add(\"作戦に必要な品について聞く\",7,")
655("\"s[2364]\",0)")
655("ex_choice_add(\"お茶会に誘う\",8,")
655("\"s[2378]\",0)")
655("ex_choice_add(\"立ち去る\",10)")
355("ex_choice_show(0,11,[0,0])")
If(1,9,0,1,0)
 TeleportPlayer(0,83,26,21,8,0)
 ShowMessageFace("ruka_fc1",0,0,2,13)
 ShowMessage("【ルカ】")
 ShowMessage("アルマエルマは、クィーンサキュバスなんだよね？")
 ShowMessage("お母さんも淫魔の女王だったの？")
 ShowMessageFace("arumaeruma_fc2",0,0,2,14)
 ShowMessage("【アルマエルマ】")
 ShowMessage("ええ、そうよ。")
 ShowMessage("もういないけどね……")
 ShowMessageFace("ruka_fc1",0,0,2,15)
 ShowMessage("【ルカ】")
 ShowMessage("いないって……")
 ShowMessage("ごめん、悪い事を聞いちゃったね。")
 ShowMessageFace("arumaeruma_fc2",0,0,2,16)
 ShowMessage("【アルマエルマ】")
 ShowMessage("気にする事はないわ。")
 ShowMessage("母は人間になって、サキュバスとしては死んだのよ。")
 ShowMessageFace("arumaeruma_fc2",0,0,2,17)
 ShowMessage("【アルマエルマ】")
 ShowMessage("人間になった母が、どうなったかも知らないわ。")
 ShowMessage("今も生きてるのか、もう死んでるのか……")
 ShowMessageFace("ruka_fc1",0,0,2,18)
 ShowMessage("【ルカ】")
 ShowMessage("……………………")
 ShowMessageFace("",0,0,2,19)
 ShowMessage("母親に対しての、どこか冷たい感情がうかがえる。")
 ShowMessage("あまりこの話題に立ち入らない方が良さそうだ――")
 RunCommonEvent(5796)
 EndEventProcessing()
 0()
EndIf()
If(1,9,0,2,0)
 ShowMessageFace("",0,0,2,20)
 ShowMessage("ルカは、異変について相談した……")
 ShowMessageFace("arumaeruma_fc2",2,0,2,21)
 ShowMessage("【アルマエルマ】")
 ShowMessage("それは災難ね、同乗するわ……")
 ShowMessage("私には、心や体を慰めてあげることしか出来ないわ。")
 ShowMessageFace("",0,0,2,22)
 ShowMessage("アルマエルマは頼れそうにない……")
 JumpToLabel("メイン")
 0()
EndIf()
If(1,9,0,3,0)
 ShowMessageFace("arumaeruma_fc2",3,0,2,23)
 ShowMessage("【アルマエルマ】")
 ShowMessage("……………………")
 ShowMessageFace("arumaeruma_fc2",0,0,2,24)
 ShowMessage("【アルマエルマ】")
 ShowMessage("それなりにはない事もないけれど……")
 ShowMessage("あなたの体験している時空異変には関係ないと思うわわ。")
 ShowMessageFace("",0,0,2,25)
 ShowMessage("有益な情報は得られなかった……")
 JumpToLabel("メイン")
 0()
EndIf()
If(1,9,0,4,0)
 ShowMessageFace("arumaeruma_fc2",3,0,2,26)
 ShowMessage("【アルマエルマ】")
 ShowMessage("心当たりはないわね……")
 ShowMessage("それほどの品なら、イリアスが関わってるんじゃないかしら。")
 ShowMessageFace("",0,0,2,27)
 ShowMessage("有益な情報は得られなかった……")
 JumpToLabel("メイン")
 0()
EndIf()
If(1,9,0,5,0)
 ShowMessageFace("arumaeruma_fc2",0,0,2,28)
 ShowMessage("【アルマエルマ】")
 ShowMessage("私じゃないけど……")
 ShowMessage("なかなか便利なサービスね、私も頼もうかしら。")
 ShowMessageFace("",0,0,2,29)
 ShowMessage("ピザを頼んだのはアルマエルマではないようだ……")
 JumpToLabel("メイン")
 0()
EndIf()
If(1,9,0,6,0)
 ShowMessageFace("arumaeruma_fc2",0,0,2,30)
 ShowMessage("【アルマエルマ】")
 ShowMessage("かなり高度なマキナのようね……")
 ShowMessage("ちょっと私には分からないわ。")
 ShowMessageFace("",0,0,2,31)
 ShowMessage("有益な情報は得られなかった……")
 JumpToLabel("メイン")
 0()
EndIf()
If(1,9,0,7,0)
 If(1,1099,0,3,0)
  ShowMessageFace("arumaeruma_fc2",3,0,2,32)
  ShowMessage("【アルマエルマ】")
  ShowMessage("サキュバスの髪の毛……？")
  ShowMessage("悪用されたら面倒だから、軽はずみには渡せないわ。")
  ShowMessageFace("",0,0,2,33)
  ShowMessage("有益なアイテムは得られなかった……")
  JumpToLabel("メイン")
  0()
 EndIf()
 If(1,1099,0,4,0)
  If(0,2350,1)
   If(1,1104,0,1,0)
    ShowMessageFace("arumaeruma_fc2",3,0,2,34)
    ShowMessage("【アルマエルマ】")
    ShowMessage("サキュバスの髪の毛……？")
    ShowMessage("悪用されたら面倒だから、軽はずみには渡せないわ。")
    ShowMessageFace("",0,0,2,35)
    ShowMessage("有益なアイテムは得られなかった……")
    JumpToLabel("メイン")
    0()
   Else()
    ShowMessageFace("arumaeruma_fc2",3,0,2,36)
    ShowMessage("【アルマエルマ】")
    ShowMessage("どうせ私、セクシー対決で負けたサキュバスだし……")
    ShowMessage("そんな髪の毛、役に立たないわよ。")
    ShowMessageFace("ruka_fc1",0,0,2,37)
    ShowMessage("【ルカ】")
    ShowMessage("すねちゃった……")
    ShowMessageFace("",0,0,2,38)
    ShowMessage("有益なアイテムは得られなかった……")
    JumpToLabel("メイン")
    0()
   EndIf()
   0()
  EndIf()
  If(0,2350,0)
   ShowMessageFace("arumaeruma_fc2",1,0,2,39)
   ShowMessage("【アルマエルマ】")
   ShowMessage("もう、私の髪を渡したでしょう？")
   ShowMessage("色々と使い道はあるわよ、うふふっ……♡")
   JumpToLabel("メイン")
   0()
  EndIf()
  0()
 EndIf()
 0()
EndIf()
If(1,9,0,8,0)
 If(1,1113,0,2,5)
  If(1,1114,0,2,5)
   ShowMessageFace("arumaeruma_fc2",0,0,2,40)
   ShowMessage("【アルマエルマ】")
   ShowMessage("ありがたく、招かせてもらうわ。")
   ShowMessageFace("arumaeruma_fc2",3,0,2,41)
   ShowMessage("【アルマエルマ】")
   ShowMessage("……あら、意外だった？")
   ShowMessage("黒のアリスに、ちょっと尋ねたいことがあるのよね。")
   If(1,1116,0,2,0)
    ChangeVariable(1116,1116,0,0,3)
    ChangeVariable(1115,1115,0,0,2)
    ChangeSwitch(2378,2378,1)
    0()
   EndIf()
   If(1,1116,0,1,0)
    ChangeVariable(1116,1116,0,0,2)
    ChangeVariable(1114,1114,0,0,2)
    0()
   EndIf()
   If(1,1116,0,0,0)
    ChangeVariable(1116,1116,0,0,1)
    ChangeVariable(1113,1113,0,0,2)
    0()
   EndIf()
   249(bytes(0x04,0x08,0x6f,0x3a,0x0c,0x52,0x50,0x47,0x3a,0x3a,0x4d,0x45,0x08,0x3a,0x0a,0x40,0x6e,0x61,0x6d,0x65,0x49,0x22,0x10,0x6d,0x6f,0x6e,0x5f,0x66,0x61,0x6e,0x66,0x61,0x6c,0x65,0x06,0x3a,0x06,0x45,0x54,0x3a,0x0b,0x40,0x70,0x69,0x74,0x63,0x68,0x69,0x69,0x3a,0x0c,0x40,0x76,0x6f,0x6c,0x75,0x6d,0x65,0x69,0x69))
   ShowMessageFace("",0,0,2,42)
   ShowMessage("アルマエルマはお茶会の誘いに乗った！")
   If(1,1116,0,1,0)
    ShowMessageFace("",0,0,2,43)
    ShowMessage("黒のアリスのお茶会に招待したのは、これで一人。")
    ShowMessage("あと二人、参加者を集めよう！")
    0()
   EndIf()
   If(1,1116,0,2,0)
    ShowMessageFace("",0,0,2,44)
    ShowMessage("黒のアリスのお茶会に招待したのは、これで二人。")
    ShowMessage("あと一人、参加者を集めよう！")
    0()
   EndIf()
   If(1,1116,0,3,0)
    ShowMessageFace("",0,0,2,45)
    ShowMessage("黒のアリスのお茶会に招待したのは、これで三人。")
    ShowMessage("四時になったら、黒のアリスの部屋に行こう！")
    0()
   EndIf()
   JumpToLabel("メイン")
   0()
  EndIf()
  0()
 EndIf()
 ShowMessageFace("",0,0,2,46)
 ShowMessage("すでにお茶会に招待している……")
 JumpToLabel("メイン")
 0()
EndIf()
EndEventProcessing()
0()
