// EVENT 4421
Name "XX-7 1"

If(0,25,1)
 221()
 PictureClear(5)
 PictureClear(6)
 ShowMessageFace("",0,0,2,0)
 ShowMessage("......")
 242(2)
 Wait(120)
 241(bytes(0x04,0x08,0x6f,0x3a,0x0d,0x52,0x50,0x47,0x3a,0x3a,0x42,0x47,0x4d,0x08,0x3a,0x0a,0x40,0x6e,0x61,0x6d,0x65,0x49,0x22,0x0c,0x63,0x61,0x73,0x74,0x6c,0x65,0x36,0x06,0x3a,0x06,0x45,0x54,0x3a,0x0c,0x40,0x76,0x6f,0x6c,0x75,0x6d,0x65,0x69,0x69,0x3a,0x0b,0x40,0x70,0x69,0x74,0x63,0x68,0x69,0x69))
 EndEventProcessing()
 0()
EndIf()
PictureDisplay(5,"80_XX-7_st01",0,0,0,0,100,100,255,0)
ShowMessageFace("XX-7_fc1",0,0,2,1)
ShowMessage("\\n<Robin>You want your semen sucked out...\nYou sure you won't regret it later...?")
ShowMessageFace("",0,0,2,2)
ShowMessage("\\n<Luka>P-please...")
ShowMessageFace("XX-7_fc1",0,0,2,3)
ShowMessage("\\n<Robin>It can't be helped, well then...")
241(bytes(0x04,0x08,0x6f,0x3a,0x0d,0x52,0x50,0x47,0x3a,0x3a,0x42,0x47,0x4d,0x08,0x3a,0x0a,0x40,0x6e,0x61,0x6d,0x65,0x49,0x22,0x09,0x65,0x72,0x6f,0x31,0x06,0x3a,0x06,0x45,0x54,0x3a,0x0c,0x40,0x76,0x6f,0x6c,0x75,0x6d,0x65,0x69,0x69,0x3a,0x0b,0x40,0x70,0x69,0x74,0x63,0x68,0x69,0x69))
PictureDisplay(5,"ev_XX-7_hb1",0,0,0,0,100,100,0,0)
PictureMove(5,null,0,0,0,0,100,100,255,0,30,true)
ShowMessageFace("",0,0,2,4)
ShowMessage("Tentacles coil around my body and instantly restrain my movement.")
ShowMessage("The semen sucking tentacle approaches my penis.")
ShowMessageFace("XX-7_fc1",0,0,2,5)
ShowMessage("\\n<Robin>I can guarantee you the best pleasure.\nSo you'll die happy...")
ShowMessageFace("",0,0,2,6)
ShowMessage("\\n<Luka>Die, no way...")
ShowMessageFace("XX-7_fc1",0,0,2,7)
ShowMessage("\\n<Robin>Of course, I'll suck it all out till the last drop...\nThat's what my extractor is for.")
ShowMessageFace("XX-7_fc1",0,0,2,8)
ShowMessage("\\n<Robin>But isn't this what you wanted...?\nSurrender and feed me...")
ShowMessageFace("",0,0,2,9)
ShowMessage("Slowly, her tentacle approaches my penis...")
ShowMessage("It's as if the countdown of my demise started.")
ShowMessageFace("",0,0,2,10)
ShowMessage("\\n<Luka>Stop...Stoop...\nAaah...")
245(bytes(0x04,0x08,0x6f,0x3a,0x0d,0x52,0x50,0x47,0x3a,0x3a,0x42,0x47,0x53,0x08,0x3a,0x0a,0x40,0x6e,0x61,0x6d,0x65,0x49,0x22,0x1a,0x6d,0x6f,0x6e,0x5f,0x68,0x73,0x65,0x61,0x6e,0x32,0x31,0x5f,0x74,0x65,0x6e,0x74,0x61,0x63,0x6c,0x65,0x32,0x06,0x3a,0x06,0x45,0x54,0x3a,0x0c,0x40,0x76,0x6f,0x6c,0x75,0x6d,0x65,0x69,0x55,0x3a,0x0b,0x40,0x70,0x69,0x74,0x63,0x68,0x69,0x69))
PictureDisplay(5,"ev_XX-7_hb2",0,0,0,0,100,100,255,0)
ShowMessageFace("",0,0,2,11)
ShowMessage("And what I was waiting for finally starts.")
ShowMessage("My penis is swallowed by the tentacle.")
ShowMessageFace("",0,0,2,12)
ShowMessage("\\n<Luka>N-no... Aaah...")
ShowMessageFace("",0,0,2,13)
ShowMessage("Tentacle starts its semen squeezing motions.")
ShowMessage("At the same time, my dick is soaked in exquisite pleasure...")
ShowMessageFace("",0,0,2,14)
ShowMessage("The tentacle clings to my penis and sweetly undulates inside.")
ShowMessage("It tightens around my glans and squeezes my whole penis gently.")
ShowMessageFace("",0,0,2,15)
ShowMessage("It felt just like my penis was gently rubbed.")
ShowMessageFace("XX-7_fc1",0,0,2,16)
ShowMessage("\\n<Robin>You can't hold back anymore...\nNow, ejaculate...")
ShowMessageFace("",0,0,2,17)
ShowMessage("\\n<Luka>Augh...Ugh...")
ShowMessageFace("",0,0,2,18)
ShowMessage("If I ejaculate, I'll be squeezed to death.")
ShowMessage("Even though she's just trying to kill me, it's impossible to resist...")
ShowMessageFace("",0,0,2,19)
ShowMessage("My mind rejects the stimulation but my body responds to it honestly.")
ShowMessage("In response to the crazy stimulation, my penis starts pulsating...")
ShowMessageFace("",0,0,2,20)
ShowMessage("\\n<Luka>Ah, aaaaaah!!")
RunCommonEvent(104)
PictureDisplay(5,"ev_XX-7_hb3",0,0,0,0,100,100,255,0)
RunCommonEvent(105)
ShowMessageFace("",0,0,2,21)
ShowMessage("My semen shoots inside this nightmarish semen extraction organ...")
ShowMessage("The walls of the tentacle squeeze me in tandem with my pulsations wringing out every last drop of my semen.")
ShowMessageFace("XX-7_fc1",0,0,2,22)
ShowMessage("\\n<Robin>You came...\nWell then, let me send you to the afterlife...")
ShowMessageFace("",0,0,2,23)
ShowMessage("\\n<Luka>Ahii... Aaaaaah!!")
RunCommonEvent(104)
PictureDisplay(5,"ev_XX-7_hb4",0,0,0,0,100,100,255,0)
RunCommonEvent(105)
ShowMessageFace("",0,0,2,24)
ShowMessage("With the intense pleasure, I feel strength leaving my body as well.")
ShowMessage("Along with my semen, my life itself is sucked out.")
ShowMessageFace("",0,0,2,25)
ShowMessage("Without realizing it, I already surrendered to my fate.")
ShowMessage("If I die because of this pleasure, it's because I want it...")
ShowMessageFace("",0,0,2,26)
ShowMessage("\\n<Luka>Hyaaaa!!")
RunCommonEvent(104)
PictureDisplay(5,"ev_XX-7_hb5",0,0,0,0,100,100,255,0)
RunCommonEvent(105)
ShowMessageFace("",0,0,2,27)
ShowMessage("My semen shoots out.")
ShowMessage("And my consciousness fades, drowned by this sweet pleasure.")
ShowMessageFace("",0,0,2,28)
ShowMessage("Then, my life itself fades away...")
221()
PictureClear(5)
246(2)
ShowMessageFace("",0,0,2,29)
ShowMessage("My body loses all the life it had in it.")
ShowMessage("The nightmarish sucking stops and I traded my life for pleasure.")
ShowMessageFace("XX-7_fc1",0,0,2,30)
ShowMessage("\\n<Robin>Hehe... Thanks for the meal.")
ShowMessageFace("",0,0,2,31)
ShowMessage("Satisfied, Robin leaves.")
ShowMessage("The corpse she abandons had a satisfied smile on its face...")
ShowMessageFace("",0,0,2,32)
ShowMessage("......")
242(2)
Wait(120)
ChangeVariable(1002,1002,0,0,0)
216(1)
355("forced_transfer(154,18,52)")
355("release_temp_actors")
355("$game_map.screen.clear")
0()
