﻿// EVENT 5801
Name "Rナターシャ2"

If(0,443,0)
 205(-1,bytes(0x04,0x08,0x6f,0x3a,0x13,0x52,0x50,0x47,0x3a,0x3a,0x4d,0x6f,0x76,0x65,0x52,0x6f,0x75,0x74,0x65,0x09,0x3a,0x0c,0x40,0x72,0x65,0x70,0x65,0x61,0x74,0x46,0x3a,0x0f,0x40,0x73,0x6b,0x69,0x70,0x70,0x61,0x62,0x6c,0x65,0x46,0x3a,0x0a,0x40,0x77,0x61,0x69,0x74,0x54,0x3a,0x0a,0x40,0x6c,0x69,0x73,0x74,0x5b,0x07,0x6f,0x3a,0x15,0x52,0x50,0x47,0x3a,0x3a,0x4d,0x6f,0x76,0x65,0x43,0x6f,0x6d,0x6d,0x61,0x6e,0x64,0x07,0x3a,0x0a,0x40,0x63,0x6f,0x64,0x65,0x69,0x18,0x3a,0x10,0x40,0x70,0x61,0x72,0x61,0x6d,0x65,0x74,0x65,0x72,0x73,0x5b,0x00,0x6f,0x3b,0x0a,0x07,0x3b,0x0b,0x69,0x00,0x3b,0x0c,0x5b,0x00))
 ChangeSwitch(31,31,0)
 222()
 0()
EndIf()
241(bytes(0x04,0x08,0x6f,0x3a,0x0d,0x52,0x50,0x47,0x3a,0x3a,0x42,0x47,0x4d,0x08,0x3a,0x0a,0x40,0x6e,0x61,0x6d,0x65,0x49,0x22,0x09,0x65,0x72,0x6f,0x31,0x06,0x3a,0x06,0x45,0x54,0x3a,0x0c,0x40,0x76,0x6f,0x6c,0x75,0x6d,0x65,0x69,0x69,0x3a,0x0b,0x40,0x70,0x69,0x74,0x63,0x68,0x69,0x69))
ShowMessageFace("",0,0,2,1)
ShowMessage("【ルカ】")
ShowMessage("いったい、何を……")
ShowMessageFace("d_succubus_fc1",0,0,2,2)
ShowMessage("【ナターシャ】")
ShowMessage("あの……お小遣い、なくなっちゃったんです。")
ShowMessage("だから、少しお金が欲しいなぁって……")
PictureDisplay(5,"ev_d_succubus_hf1",0,0,0,0,100,100,0,0)
PictureMove(5,null,0,0,0,0,100,100,255,0,30,true)
ShowMessageFace("",0,0,2,3)
ShowMessage("不意にナターシャは両足を開き、股間を見せつけた！")
PictureDisplay(5,"ev_d_succubus_hf2",0,0,0,0,100,100,255,0)
ShowMessageFace("d_succubus_fc1",1,0,2,4)
ShowMessage("【ナターシャ】")
ShowMessage("ほら……見抜きしても良いですよ。")
ShowMessage("その代わり、1回イくごとに100G払ってもらいます。")
ShowMessageFace("",0,0,2,5)
ShowMessage("【ルカ】")
ShowMessage("こ、こんな……！　ダメだよ……！")
ShowMessageFace("d_succubus_fc1",1,0,2,6)
ShowMessage("【ナターシャ】")
ShowMessage("あれぇ？")
ShowMessage("イヤなのに、おちんちん大きくなってますよ……♪")
ShowMessageFace("",0,0,2,7)
ShowMessage("【ルカ】")
ShowMessage("違う、これは――")
ShowMessageFace("d_succubus_fc1",1,0,2,8)
ShowMessage("【ナターシャ】")
ShowMessage("ほら、あたしのアソコを見ながら……")
ShowMessage("遠慮なく、シコシコしちゃって下さいよ。")
ShowMessageFace("",0,0,2,9)
ShowMessage("【ルカ】")
ShowMessage("う、うぅ……")
PictureDisplay(5,"ev_d_succubus_hf3",0,0,0,0,100,100,255,0)
ShowMessageFace("",0,0,2,10)
ShowMessage("僕は、頭では抗いながらも――")
ShowMessage("自分のモノを握り、扱き始めてしまった。")
ShowMessageFace("",0,0,2,11)
ShowMessage("【ルカ】")
ShowMessage("あ……あぅぅっ……")
ShowMessageFace("d_succubus_fc1",1,0,2,12)
ShowMessage("【ナターシャ】")
ShowMessage("うふふっ、そんなに興奮しちゃって……")
ShowMessage("早く戻りたいから、さっさとイっちゃって下さいね。")
ShowMessageFace("",0,0,2,13)
ShowMessage("【ルカ】")
ShowMessage("はぁ、はぁ……はぅぅ……")
ShowMessageFace("",0,0,2,14)
ShowMessage("匂いがするほど近くでナターシャの股間を見せてもらい――")
ShowMessage("あっという間に、興奮は頂点に達していた。")
ShowMessageFace("",0,0,2,15)
ShowMessage("そして――")
ShowMessageFace("",0,0,2,16)
ShowMessage("【ルカ】")
ShowMessage("で、出ちゃう……あぁぁっ！！")
RunCommonEvent(104)
PictureDisplay(5,"ev_d_succubus_hf4",0,0,0,0,100,100,255,0)
RunCommonEvent(105)
ShowMessageFace("",0,0,2,17)
ShowMessage("ナターシャの股間を目に焼き付けながら――")
ShowMessage("情けなくも、自分の手でイってしまったのである。")
PictureClear(5)
ShowMessageFace("d_succubus_fc1",1,0,2,18)
ShowMessage("【ナターシャ】")
ShowMessage("……はい、イっちゃいましたね。")
ShowMessage("約束通り、見抜き料として100Gもらいますよ。")
ShowMessageFace("",0,0,2,19)
ShowMessage("【ルカ】")
ShowMessage("う、うぅぅ……")
ShowMessageFace("",0,0,2,20)
ShowMessage("惨めな気分を味わいながら、100Gを支払う。")
ShowMessage("お金を受け取りながら、ナターシャはにんまり笑った。")
ShowMessageFace("d_succubus_fc1",1,0,2,21)
ShowMessage("【ナターシャ】")
ShowMessage("それで、どうします？")
ShowMessage("まだまだ見抜きしたいですかぁ……？")
ShowChoices(strings("続ける","もう無理"),0)
IfPlayerPicksChoice(0,null)
 PictureDisplay(5,"ev_d_succubus_hf4",0,0,0,0,100,100,255,0)
 ShowMessageFace("d_succubus_fc1",1,0,2,22)
 ShowMessage("【ナターシャ】")
 ShowMessage("うふふっ、それじゃあ……")
 ShowMessage("好きなだけ、どうぞ♪")
 ShowMessageFace("",0,0,2,23)
 ShowMessage("【ルカ】")
 ShowMessage("はぁ……はぁ……")
 ShowMessageFace("",0,0,2,24)
 ShowMessage("僕は興奮のままに、自分のモノを扱いていた。")
 ShowMessage("魅惑的な光景に、魂まで奪われながら――")
 ShowMessageFace("",0,0,2,25)
 ShowMessage("【ルカ】")
 ShowMessage("あっ、また出ちゃう……あぁぁっ！！")
 RunCommonEvent(104)
 PictureDisplay(5,"ev_d_succubus_hf5",0,0,0,0,100,100,255,0)
 RunCommonEvent(105)
 ShowMessageFace("",0,0,2,26)
 ShowMessage("そして、あっという間に二度目の射精に至ってしまう。")
 ShowMessage("撒き散らされた精液は、眼前の秘部をも汚してしまった――")
 ShowMessageFace("d_succubus_fc1",1,0,2,27)
 ShowMessage("【ナターシャ】")
 ShowMessage("あ～あ、私のおまんこに精液引っかけちゃって……")
 ShowMessage("これ、300Gの罰金追加ですよ。")
 ShowMessageFace("",0,0,2,28)
 ShowMessage("【ルカ】")
 ShowMessage("そ、そんな……")
 ShowMessageFace("d_succubus_fc1",1,0,2,29)
 ShowMessage("【ナターシャ】")
 ShowMessage("ほらほら、もっと抜いて下さいね。")
 ShowMessage("こんなチャンス、もうないかもしれませんよ……")
 ShowMessageFace("",0,0,2,30)
 ShowMessage("【ルカ】")
 ShowMessage("はぅぅぅ……")
 ShowMessageFace("",0,0,2,31)
 ShowMessage("すっかり魅惑され、ペニスを扱く手を止められない。")
 ShowMessage("ナターシャの膣を目に焼き付けながら、ひたすらに自慰したのだった――")
 221()
 PictureClear(5)
 242(1)
 246(1)
 ShowMessageFace("",0,0,2,32)
 ShowMessage("こうして僕は、何度も見抜きさせてもらい――")
 ShowMessage("最終的に、800Gを支払うことになってしまったのである。")
 ShowMessageFace("",0,0,2,33)
 ShowMessage("・・・・・・・・")
 0()
IfPlayerPicksChoice(1,null)
 ShowMessageFace("d_succubus_fc1",2,0,2,34)
 ShowMessage("【ナターシャ】")
 ShowMessage("はぁ？　これで終わり……？")
 ShowMessage("これくらいじゃ、勝負資金として足りないんですよね……")
 ShowMessageFace("d_succubus_fc1",0,0,2,35)
 ShowMessage("【ナターシャ】")
 ShowMessage("もう少し、稼がせてもらいましょうか。")
 ShowMessage("特別に、サービスしてあげますから。")
 ShowMessageFace("",0,0,2,36)
 ShowMessage("不意にナターシャは、僕の背後からしがみついてきた。")
 ShowMessage("そして、股間に尻尾を伸ばしてくる――")
 ShowMessageFace("",0,0,2,37)
 ShowMessage("【ルカ】")
 ShowMessage("な、何を――")
 ShowMessageFace("d_succubus_fc1",0,0,2,38)
 ShowMessage("【ナターシャ】")
 ShowMessage("大サービスで、私の尻尾を使ってあげます。")
 ShowMessage("中に射精するたび、お金を頂きますけどね……")
 ShowMessageFace("",0,0,2,39)
 ShowMessage("【ルカ】")
 ShowMessage("そ、そんなぁ……")
 ShowMessageFace("d_succubus_fc1",1,0,2,40)
 ShowMessage("【ナターシャ】")
 ShowMessage("お金を払いたくなかったら、我慢すればいいじゃないですか。")
 ShowMessage("それじゃあ、いきますよ……♪")
 245(bytes(0x04,0x08,0x6f,0x3a,0x0d,0x52,0x50,0x47,0x3a,0x3a,0x42,0x47,0x53,0x08,0x3a,0x0a,0x40,0x6e,0x61,0x6d,0x65,0x49,0x22,0x17,0x6d,0x6f,0x6e,0x5f,0x68,0x73,0x65,0x61,0x6e,0x31,0x35,0x5f,0x6b,0x79,0x75,0x69,0x6e,0x32,0x06,0x3a,0x06,0x45,0x54,0x3a,0x0c,0x40,0x76,0x6f,0x6c,0x75,0x6d,0x65,0x69,0x55,0x3a,0x0b,0x40,0x70,0x69,0x74,0x63,0x68,0x69,0x69))
 PictureDisplay(5,"ev_d_succubus_he1",0,0,0,0,100,100,0,0)
 PictureMove(5,null,0,0,0,0,100,100,255,0,30,true)
 ShowMessageFace("",0,0,2,41)
 ShowMessage("ぐぷっ……と、僕のモノを尻尾の搾精腔が咥え込んでくる。")
 ShowMessage("根元までぬめった感触に包まれ、ぎゅっと柔肉で圧迫された――")
 ShowMessageFace("",0,0,2,42)
 ShowMessage("【ルカ】")
 ShowMessage("あ……あぁぁっ……！")
 ShowMessageFace("d_succubus_fc1",1,0,2,43)
 ShowMessage("【ナターシャ】")
 ShowMessage("うふふっ、どうですか……？")
 ShowMessage("中に出しちゃうと、1000Gですよ♪")
 ShowMessageFace("",0,0,2,44)
 ShowMessage("【ルカ】")
 ShowMessage("そ、そんな――はぅぅぅっ！！")
 PictureDisplay(5,"ev_d_succubus_he2",0,0,0,0,100,100,255,0)
 ShowMessageFace("",0,0,2,45)
 ShowMessage("ペニスを包む柔肉が活発にうねり、僕は思わず腰を震わせる。")
 ShowMessage("ナターシャの太い尻尾には、弾力ある淫肉がみっちりと詰まっているのだ。")
 ShowMessageFace("",0,0,2,46)
 ShowMessage("それが力強く収縮し、ペニスを根元からぐにぐに揉みしだく――")
 ShowMessage("その締め付けとうねりは、体が震えるほど極上だった。")
 ShowMessageFace("",0,0,2,47)
 ShowMessage("【ルカ】")
 ShowMessage("あぁぁ……だめぇ……")
 ShowMessageFace("d_succubus_fc1",1,0,2,48)
 ShowMessage("【ナターシャ】")
 ShowMessage("あれぇ、もう出ちゃいます？")
 ShowMessage("それじゃあ、どうぞ……♪")
 ShowMessageFace("",0,0,2,49)
 ShowMessage("【ルカ】")
 ShowMessage("はぅ……あぁぁぁぁっ……！")
 RunCommonEvent(104)
 PictureDisplay(5,"ev_d_succubus_he3",0,0,0,0,100,100,255,0)
 RunCommonEvent(105)
 ShowMessageFace("",0,0,2,50)
 ShowMessage("そのまま、ドクドクと尻尾の中に射精していた。")
 ShowMessage("ポンプのような力強い搾精に、精液が汲み上げられるかのようだ――")
 ShowMessageFace("d_succubus_fc1",1,0,2,51)
 ShowMessage("【ナターシャ】")
 ShowMessage("はい、まいどあり～♪")
 ShowMessage("射精料金、1発1000Gですよ♪")
 ShowMessageFace("",0,0,2,52)
 ShowMessage("【ルカ】")
 ShowMessage("そんなぁ……あぅぅぅ……")
 ShowMessageFace("",0,0,2,53)
 ShowMessage("ナターシャの尻尾で精を吸われながら、僕は放心しそうになる。")
 ShowMessage("だが搾精腔はますますうねりを増し、ペニスを搾り上げてきた。")
 ShowMessageFace("d_succubus_fc1",1,0,2,54)
 ShowMessage("【ナターシャ】")
 ShowMessage("まだまだ、稼がせてもらいますよ。")
 ShowMessage("ほ～ら、またイっちゃえ～♪")
 ShowMessageFace("",0,0,2,55)
 ShowMessage("【ルカ】")
 ShowMessage("やめて……！　あ、はぅぅぅ……！！")
 ShowMessageFace("",0,0,2,56)
 ShowMessage("じゅぼじゅぼ、ぐちゅぐちゅとペニスが力強く扱き上げあられる。")
 ShowMessage("肉厚の柔肉で男の器官が搾り上げられ、あえなく快感に屈し――")
 ShowMessageFace("",0,0,2,57)
 ShowMessage("【ルカ】")
 ShowMessage("うぁぁぁぁぁ……！")
 RunCommonEvent(104)
 RunCommonEvent(105)
 ShowMessageFace("",0,0,2,58)
 ShowMessage("またも、ナターシャの尻尾に精液を搾り上げられてしまった。")
 ShowMessage("大量の白濁液が、どっぷりと中に吸い出されていく――")
 ShowMessageFace("",0,0,2,59)
 ShowMessage("【ルカ】")
 ShowMessage("はぅぅぅぅ……")
 ShowMessageFace("d_succubus_fc1",1,0,2,60)
 ShowMessage("【ナターシャ】")
 ShowMessage("はい、また1発出しちゃいました。")
 ShowMessage("これで1000G追加ですね……♪")
 ShowMessageFace("d_succubus_fc1",1,0,2,61)
 ShowMessage("【ナターシャ】")
 ShowMessage("でも、もう少し稼ぎます。")
 ShowMessage("ほ～ら、また搾っちゃいますよ～♪")
 ShowMessageFace("",0,0,2,62)
 ShowMessage("【ルカ】")
 ShowMessage("やめて――あ、はぅぅぅっ！！")
 RunCommonEvent(104)
 RunCommonEvent(105)
 221()
 PictureClear(5)
 242(1)
 246(1)
 ShowMessageFace("",0,0,2,63)
 ShowMessage("こうして僕は、何度もナターシャの尻尾で搾られ――")
 ShowMessage("最終的に、6100Gを支払うことになってしまったのである。")
 ShowMessageFace("",0,0,2,64)
 ShowMessage("・・・・・・・・")
 0()
404()
221()
ChangeSwitch(31,31,1)
Wait(120)
241(bytes(0x04,0x08,0x6f,0x3a,0x0d,0x52,0x50,0x47,0x3a,0x3a,0x42,0x47,0x4d,0x08,0x3a,0x0a,0x40,0x6e,0x61,0x6d,0x65,0x49,0x22,0x0c,0x63,0x61,0x73,0x74,0x6c,0x65,0x36,0x06,0x3a,0x06,0x45,0x54,0x3a,0x0c,0x40,0x76,0x6f,0x6c,0x75,0x6d,0x65,0x69,0x69,0x3a,0x0b,0x40,0x70,0x69,0x74,0x63,0x68,0x69,0x69))
If(0,443,0)
 EndEventProcessing()
 0()
EndIf()
0()
