﻿// EVENT 3112
Name "Saki"

If(0,25,1)
 JumpToLabel("反省会")
 0()
EndIf()
PictureDisplay(5,"80_saki_st01",0,0,0,0,100,100,0,0)
PictureMove(5,null,0,0,0,0,100,100,255,0,30,true)
241(bytes(0x04,0x08,0x6f,0x3a,0x0d,0x52,0x50,0x47,0x3a,0x3a,0x42,0x47,0x4d,0x08,0x3a,0x0a,0x40,0x6e,0x61,0x6d,0x65,0x49,0x22,0x09,0x65,0x72,0x6f,0x31,0x06,0x3a,0x06,0x45,0x54,0x3a,0x0c,0x40,0x76,0x6f,0x6c,0x75,0x6d,0x65,0x69,0x69,0x3a,0x0b,0x40,0x70,0x69,0x74,0x63,0x68,0x69,0x69))
ShowMessageFace("",0,0,2,1)
ShowMessage("\\n<Luka>Nnngh...")
ShowMessageFace("",0,0,2,2)
ShowMessage("Beaten by Saki, I'm left crawling on the ground.")
ShowMessage("As nausea gnaws at my body, I'm at the verge of fainting.")
ShowMessageFace("saki_fc1",0,0,2,3)
ShowMessage("\\n<Saki>And you're down☆\nSaki will use you for tonight's secret show♪")
ShowMessageFace("",0,0,2,4)
ShowMessage("\\n<Luka>S-Secret show...?\nUrhg...")
ShowMessageFace("",0,0,2,5)
ShowMessage("I can't keep conscious any longer.")
ShowMessage("While looking at Saki's smile, I faint.")
221()
PictureClear(5)
ShowMessageFace("",0,0,2,6)
ShowMessage("......")
PictureDisplay(5,"ev_saki_ha01",0,0,0,0,100,100,255,0)
222()
ShowMessageFace("",0,0,2,7)
ShowMessage("\\n<Luka>W-Where are we...?")
ShowMessageFace("",0,0,2,8)
ShowMessage("As I open my eyes...")
ShowMessage("I'm stripped naked, with Saki on top of me!")
ShowMessageFace("",0,0,2,9)
ShowMessage("I can hear people cheering all around me.")
ShowMessage("No way... Am I on top of the stage!?")
ShowMessageFace("",0,0,2,10)
ShowMessage("\\n<Luka>W-What's going on?")
ShowMessageFace("saki_fc1",0,0,2,11)
ShowMessage("\\n<Saki>Ahaha, did you wake up?\nYou're just in time for tonight's Night Live♪")
ShowMessageFace("",0,0,2,12)
ShowMessage("With a spotlight on us, the audience roars.")
ShowMessage("It can't be... She's planning on...")
ShowMessageFace("saki_fc1",0,0,2,13)
ShowMessage("\\n<Saki>There's a few problems with an Idol's image, so...\nThis isn't a show that can be publicly advertised.")
ShowMessageFace("saki_fc1",0,0,2,14)
ShowMessage("\\n<Saki>But Saki is a Succubus.\nIn the evenings, Saki does lewd shows. ☆")
ShowMessageFace("",0,0,2,15)
ShowMessage("There's no doubt left, she's planning on raping me on this stage...")
ShowMessageFace("saki_fc1",1,0,2,16)
ShowMessage("\\n<Saki>Ahaha, are you ready?\nTo be raped in front of so many people by Saki?")
ShowMessageFace("",0,0,2,17)
ShowMessage("\\n<Luka>Th...that... Stop...")
ShowMessageFace("saki_fc1",0,0,2,18)
ShowMessage("\\n<Saki>It's time to start tonight's show!\nToday's prey is the little Hero who challenged Saki! ♪")
ShowMessageFace("saki_fc1",0,0,2,19)
ShowMessage("\\n<Saki>But he lost so pitifully, and now he'll be raped! ♪\nA lucky Hero who will be honored by Saki~♪")
ShowMessageFace("",0,0,2,20)
ShowMessage("Riding on top of me, Saki appeals to the audience.")
ShowMessage("Getting more and more heated, I can feel the excitement of the crowd surging over us.")
ShowMessageFace("saki_fc1",1,0,2,21)
ShowMessage("\\n<Saki>Saki gets so excited when she's on the stage.\nSaki might even come in front of everyone...☆")
ShowMessageFace("saki_fc1",1,0,2,22)
ShowMessage("\\n<Saki>Aha... So with that said, Saki will rape you.☆\nDon't worry, Saki will make you feel good...")
ShowMessageFace("",0,0,2,23)
ShowMessage("\\n<Luka>Aaah...\nStop, don't...")
ShowMessageFace("saki_fc1",0,0,2,24)
ShowMessage("\\n<Saki>All right, it's time for Saki's pussy to eeeat♪\nWatch closely as this little Hero is raped, everyone! ☆")
ShowMessageFace("",0,0,2,25)
ShowMessage("In full view of the audience, Saki leads me to her entrance...")
ShowMessage("And drops her waist down!")
245(bytes(0x04,0x08,0x6f,0x3a,0x0d,0x52,0x50,0x47,0x3a,0x3a,0x42,0x47,0x53,0x08,0x3a,0x0a,0x40,0x6e,0x61,0x6d,0x65,0x49,0x22,0x1e,0x6d,0x6f,0x6e,0x5f,0x68,0x73,0x65,0x61,0x6e,0x30,0x31,0x5f,0x69,0x6e,0x6e,0x65,0x72,0x77,0x6f,0x72,0x6b,0x73,0x5f,0x61,0x31,0x06,0x3a,0x06,0x45,0x54,0x3a,0x0c,0x40,0x76,0x6f,0x6c,0x75,0x6d,0x65,0x69,0x55,0x3a,0x0b,0x40,0x70,0x69,0x74,0x63,0x68,0x69,0x69))
PictureDisplay(5,"ev_saki_ha02",0,0,0,0,100,100,255,0)
ShowMessageFace("",0,0,2,26)
ShowMessage("My penis sinks into her!")
ShowMessage("Forced inside, I'm left totally weak.")
ShowMessageFace("",0,0,2,27)
ShowMessage("\\n<Luka>Ah, Oooh...!!")
ShowMessageFace("",0,0,2,28)
ShowMessage("Her soft, hot flesh embraces my penis.")
ShowMessage("At the same time, she tightens up, locking me inside.")
ShowMessageFace("",0,0,2,29)
ShowMessage("Sitting still, Saki is only using her muscles to toy with me.")
ShowMessage("Even with just that, it already feels too good...")
ShowMessageFace("saki_fc1",0,0,2,30)
ShowMessage("\\n<Saki>Aha. He slipped in♪\nLittle Hero, how does Saki's pussy taste~?")
ShowMessageFace("",0,0,2,31)
ShowMessage("\\n<Luka>Ngh... Aaah...")
ShowMessageFace("saki_fc1",0,0,2,32)
ShowMessage("\\n<Saki>The place you're inside Saki is being shown on the big screens.\nIsn't it sooo embarrassing~? Everyone's watching you know!")
ShowMessageFace("",0,0,2,33)
ShowMessage("\\n<Luka>Don't...Don't look...")
ShowMessageFace("",0,0,2,34)
ShowMessage("Saki squeezes my penis, silencing my words of refusal.")
ShowMessage("Even though neither of us had even moved our hips, I'm already in agonized pleasure.")
PictureDisplay(5,"ev_saki_ha03",0,0,0,0,100,100,255,0)
ShowMessageFace("saki_fc1",0,0,2,35)
ShowMessage("\\n<Saki>Everyone, watch closely~~♪\nWatch how Saki ravishes a boy☆")
ShowMessageFace("",0,0,2,36)
ShowMessage("Saki lookes out to the audience, inviting them all to watch.")
ShowMessage("Her slightly rough, sweet breath leaks out through the microphone.")
ShowMessageFace("saki_fc1",0,0,2,37)
ShowMessage("\\n<Saki>Saki's starting to feeeel it!\nSaki might even come... In front of everyone☆")
ShowMessageFace("",0,0,2,38)
ShowMessage("Right after her words, a huge cheer goes up from the crowd.")
ShowMessage("Saki quickly looks down at me, and sticks out her tongue.")
ShowMessageFace("saki_fc1",0,0,2,39)
ShowMessage("\\n<Saki>(All that stuff about coming was a lie~☆\nIt's just service for the customers.)")
ShowMessageFace("",0,0,2,40)
ShowMessage("Saki whispers to me, so only I can hear.")
ShowMessageFace("saki_fc1",0,0,2,41)
ShowMessage("\\n<Saki>（I mean, Saki's a Succubus.\nA human penis couldn't make Saki come~♪)")
ShowMessageFace("",0,0,2,42)
ShowMessage("Right after whispering that to me...")
ShowMessageFace("saki_fc1",0,0,2,43)
ShowMessage("\\n<Saki>Haaa... Haaa... That feels so good~!\nSaki's feeling it so much in front of everyone... Saki's so embarrassed...")
ShowMessageFace("",0,0,2,44)
ShowMessage("She continues the act for the audience.")
ShowMessage("Suddenly, she starts to twist her body in a lewd fashion...")
ShowMessageFace("",0,0,2,45)
ShowMessage("\\n<Luka>D-don't do... Aaah...")
ShowMessageFace("saki_fc1",0,0,2,46)
ShowMessage("\\n<Saki>（Saki will ease up on you, so don't come yet.\nSaki's performance needs to go on a bit longer. ☆)")
ShowMessageFace("saki_fc1",0,0,2,47)
ShowMessage("\\n<Saki>Saki's so embarrassed, but...\nSaki will show it all to everyone☆")
ShowMessageFace("saki_fc1",0,0,2,48)
ShowMessage("\\n<Saki>Transparent transmission~~♪\n...Ei!☆")
PictureDisplay(5,"ev_saki_ha04",0,0,0,0,100,100,255,0)
ShowMessageFace("saki_fc1",0,0,2,49)
ShowMessage("\\n<Saki>Ahaha, Saki's insides are being shown~♪\nLittle Hero's penis is in full view, too~♪")
ShowMessageFace("saki_fc1",0,0,2,50)
ShowMessage("\\n<Saki>Now Saki will make it super tight~♪\nEi, ei, Eiii♪")
ShowMessageFace("",0,0,2,51)
ShowMessage("\\n<Luka>Ah... Hnnngh...!")
ShowMessageFace("",0,0,2,52)
ShowMessage("Wrapped deep inside of her, the sudden tightness makes me cry out.")
ShowMessageFace("",0,0,2,53)
ShowMessage("A touch that would make any man come instantly.")
ShowMessage("If I hadn't been resisting it, I would have come right away.")
ShowMessageFace("saki_fc1",0,0,2,54)
ShowMessage("\\n<Saki>Arere? He endured it...?\nYou don't want everyone to watch you come?")
ShowMessageFace("saki_fc1",0,0,2,55)
ShowMessage("\\n<Saki>Saki feels really good too, so...\nLet's come together, ok? ☆")
ShowMessageFace("",0,0,2,56)
ShowMessage("While waving at the audience...")
ShowMessageFace("saki_fc1",0,0,2,57)
ShowMessage("\\n<Saki>（It's all acting, but...\nThe only one actually coming will be you. Teehee.)")
ShowMessageFace("",0,0,2,58)
ShowMessage("Saki whispers that to me.")
ShowMessage("An intense humiliation that only I know about...")
PictureDisplay(5,"ev_saki_ha05",0,0,0,0,100,100,255,0)
ShowMessageFace("saki_fc1",0,0,2,59)
ShowMessage("\\n<Saki>It's time to come for real. ☆\nSaki's surefire deathblow waist movements~♪")
ShowMessageFace("",0,0,2,60)
ShowMessage("\\n<Luka>Ah... Aaaaaah!!")
ShowMessageFace("",0,0,2,61)
ShowMessage("Saki suddenly starts to move!")
ShowMessage("Trapped inside her, my penis rubs against all of her insides.")
ShowMessageFace("saki_fc1",0,0,2,62)
ShowMessage("\\n<Saki>It's irresistible, isn't it~?\nNobody can endure Saki's waist movements☆")
ShowMessageFace("saki_fc1",0,0,2,63)
ShowMessage("\\n<Saki>Haa... Haaa... Saki feels good too...♪\nSaki's going to come, so the little Hero needs to come too☆")
ShowMessageFace("saki_fc1",0,0,2,64)
ShowMessage("\\n<Saki>（...Ok, Saki will make you come.\nGive a good show for the cameras☆)")
ShowMessageFace("",0,0,2,65)
ShowMessage("\\n<Luka>Aaaaaah!!")
ShowMessageFace("",0,0,2,66)
ShowMessage("Her intense movements overwhelm my ability to resist.")
ShowMessage("My male instinct doesn't allow me to hold on an inch.")
ShowMessageFace("",0,0,2,67)
ShowMessage("Those sweet movements of her break down all rational thought of mine.")
ShowMessage("Unable to hold on, the desire to release fills my every sense.")
ShowMessageFace("saki_fc1",0,0,2,68)
ShowMessage("\\n<Saki>It's so good, Saki's coming~☆\nAhhhhhh~♪")
ShowMessageFace("saki_fc1",0,0,2,69)
ShowMessage("\\n<Saki>（Hora, come inside Saki☆)")
ShowMessageFace("",0,0,2,70)
ShowMessage("\\n<Luka>Coming... Aaaah!!")
246(2)
RunCommonEvent(104)
PictureDisplay(5,"ev_saki_ha06",0,0,0,0,100,100,255,0)
RunCommonEvent(105)
ShowMessageFace("",0,0,2,71)
ShowMessage("Giving in to the intense movements, I come inside her.")
ShowMessage("A huge amount of my semen floods into Saki's vagina...")
ShowMessageFace("",0,0,2,72)
ShowMessage("\\n<Luka>Nnngh...")
PictureDisplay(5,"ev_saki_ha07",0,0,0,0,100,100,255,0)
ShowMessageFace("saki_fc1",0,0,2,73)
ShowMessage("\\n<Saki>Saki came in front of everyone, too...\nIt's so embarrassing, Ehehe...☆")
ShowMessageFace("",0,0,2,74)
ShowMessage("The crowd is reaching a frenzied boiling point.")
ShowMessage("Taking in the cheers, Saki's gaze drops to meet mine.")
ShowMessageFace("saki_fc1",0,0,2,75)
ShowMessage("\\n<Saki>（...Hey, want to do an accidental climax?)")
ShowMessageFace("",0,0,2,76)
ShowMessage("\\n<Luka>...Eh?")
ShowMessageFace("saki_fc1",0,0,2,77)
ShowMessage("\\n<Saki>（Hora, Saki will make it tight~☆)")
ShowMessageFace("",0,0,2,78)
ShowMessage("\\n<Luka>Ah, aaaah...!")
ShowMessageFace("",0,0,2,79)
ShowMessage("Saki suddenly tightens around me out of nowhere.")
ShowMessage("Her hot, soft flesh presses down on my sensitive penis.")
ShowMessageFace("saki_fc1",0,0,2,80)
ShowMessage("\\n<Saki>Everyone, thank you for your support~☆")
ShowMessageFace("",0,0,2,81)
ShowMessage("As she waves to the cheering audience...")
ShowMessage("Her vagina skillfully stimulates me, despite her distracted outward appearance.")
ShowMessageFace("saki_fc1",0,0,2,82)
ShowMessage("\\n<Saki>（Hora, come...)")
ShowMessageFace("",0,0,2,83)
ShowMessage("\\n<Luka>N-noooo... Aaaah...!!")
RunCommonEvent(104)
PictureDisplay(5,"ev_saki_ha08",0,0,0,0,100,100,255,0)
RunCommonEvent(105)
ShowMessageFace("saki_fc1",0,0,2,84)
ShowMessage("\\n<Saki>Hyan!?")
ShowMessageFace("",0,0,2,85)
ShowMessage("Given no choice, I come inside Saki again.")
ShowMessage("Not even pretending to come on accident, I really did...")
PictureDisplay(5,"ev_saki_ha09",0,0,0,0,100,100,255,0)
ShowMessageFace("saki_fc1",0,0,2,86)
ShowMessage("\\n<Saki>Areare, coming again already~♪\nThat surprised Saki☆")
ShowMessageFace("",0,0,2,87)
ShowMessage("Saki takes in the enthusiastic cheers from the audience.")
ShowMessage("At the same time, I can only tremble in humiliated pleasure beneath her.")
PictureDisplay(5,"ev_saki_ha09",0,0,0,0,100,100,255,0)
ShowMessageFace("saki_fc1",0,0,2,88)
ShowMessage("\\n<Saki>Even though Saki came, she tried her best☆\nCome back to the Night Live again~♪")
ShowMessageFace("",0,0,2,89)
ShowMessage("After saying that, her eyes drop down to mine.")
ShowMessage("Her tongue sticks out with a mischievous look on her face.")
ShowMessageFace("saki_fc1",0,0,2,90)
ShowMessage("\\n<Saki>（Aha, everyone bought it.\nSaki will use you as the Night Live prey from now on♪)")
ShowMessageFace("",0,0,2,91)
ShowMessage("\\n<Luka>N...no way...")
ShowMessageFace("",0,0,2,92)
ShowMessage("This nightmare isn't over yet.")
ShowMessage("Even after tonight, over and over and over...")
ShowMessageFace("",0,0,2,93)
ShowMessage("I embrace the despair as my body weakens.")
ShowMessage("All around me, I hear the echoes of the cheering crowd...")
221()
PictureClear(5)
ShowMessageFace("",0,0,2,94)
ShowMessage("Every day, I'm drawn out to the stage and raped in public.")
ShowMessage("But after a while, I wasn't a victim any longer.")
ShowMessageFace("",0,0,2,95)
ShowMessage("After performing so many times, raped in public view...")
ShowMessage("Before I knew it, I was immersing myself in the show...")
DefineLabel("反省会")
ShowMessageFace("",0,0,2,96)
ShowMessage("......")
221()
242(1)
Wait(120)
355("memory_interruption")
ShowMessageFace("",0,0,2,97)
ShowMessage("You hear Ilias' voice calling out to you...")
ShowMessage("Receive her evaluation?")
ShowChoices(strings("Receive evaluation","Change difficulty","Reincarnate"),3)
IfPlayerPicksChoice(0,null)
 241(bytes(0x04,0x08,0x6f,0x3a,0x0d,0x52,0x50,0x47,0x3a,0x3a,0x42,0x47,0x4d,0x08,0x3a,0x0a,0x40,0x6e,0x61,0x6d,0x65,0x49,0x22,0x0a,0x69,0x72,0x69,0x61,0x73,0x06,0x3a,0x06,0x45,0x54,0x3a,0x0c,0x40,0x76,0x6f,0x6c,0x75,0x6d,0x65,0x69,0x5f,0x3a,0x0b,0x40,0x70,0x69,0x74,0x63,0x68,0x69,0x6e))
 PictureDisplay(1,"bg001",0,0,0,0,100,100,255,0)
 222()
 PictureDisplay(5,"80_iriasu_st04",0,0,0,0,100,100,0,0)
 PictureMove(5,null,0,0,0,0,100,100,255,0,30,true)
 ShowMessageFace("iriasu_fc1",3,0,2,98)
 ShowMessage("\\n<Ilias>A succubus idol... The world is ending.\nI feel like cleaning up humans who are captivated by such things, too.")
 PictureDisplay(5,"80_iriasu_st01",0,0,0,0,100,100,255,0)
 ShowMessageFace("iriasu_fc1",0,0,2,99)
 ShowMessage("\\n<Ilias>Saki uses singing and dancing skills.\nShe can inflict abnormal states and other negative effects.")
 ShowMessageFace("iriasu_fc1",0,0,2,100)
 ShowMessage("\\n<Ilias>In any case, silence will knock out those skills.\nIt's only a moderate affliction chance, but it's powerful if it works.")
 ShowMessageFace("iriasu_fc1",0,0,2,101)
 ShowMessage("\\n<Ilias>She also uses physical attacks, pleasure attacks, and some kind of strange beam. But those aren't too terrible of attacks.")
 ShowMessageFace("iriasu_fc1",0,0,2,102)
 ShowMessage("\\n<Ilias>Her defense isn't very high, so an all-out offensive can end her. Aim your attacks right at her face.")
 PictureDisplay(5,"80_iriasu_st02",0,0,0,0,100,100,255,0)
 ShowMessageFace("iriasu_fc1",1,0,2,103)
 ShowMessage("\\n<Ilias>Now go, oh brave Luka.\nIt's alright if that whole town disappears, right?")
 242(1)
 221()
 PictureClear(5)
 PictureClear(1)
 Wait(60)
 0()
IfPlayerPicksChoice(1,null)
 ShowMessageFace("",0,0,2,104)
 ShowMessage("Please choose a difficulty level.")
 RunCommonEvent(110)
 0()
IfPlayerPicksChoice(2,null)
 0()
404()
RunCommonEvent(3000)
0()
