// EVENT 4222
Name "Slug Nun 2"

If(0,25,1)
 221()
 PictureClear(5)
 PictureClear(6)
 ShowMessageFace("",0,0,2,0)
 ShowMessage("......")
 242(2)
 Wait(120)
 241(bytes(0x04,0x08,0x6f,0x3a,0x0d,0x52,0x50,0x47,0x3a,0x3a,0x42,0x47,0x4d,0x08,0x3a,0x0a,0x40,0x6e,0x61,0x6d,0x65,0x49,0x22,0x0c,0x63,0x61,0x73,0x74,0x6c,0x65,0x36,0x06,0x3a,0x06,0x45,0x54,0x3a,0x0c,0x40,0x76,0x6f,0x6c,0x75,0x6d,0x65,0x69,0x69,0x3a,0x0b,0x40,0x70,0x69,0x74,0x63,0x68,0x69,0x69))
 EndEventProcessing()
 0()
EndIf()
PictureDisplay(5,"80_name_s_st01",0,0,0,0,100,100,255,0)
ShowMessageFace("name_s_fc1",0,0,2,1)
ShowMessage("\\n<Rosary>You would like me to pleasure you with my chest...?")
ShowMessageFace("",0,0,2,2)
ShowMessage("\\n<Luka>Y...Yes... Please...")
ShowMessageFace("name_s_fc1",0,0,2,3)
ShowMessage("\\n<Rosary>I guess it can't be helped... Please come to my room.")
ShowMessageFace("",0,0,2,4)
ShowMessage("Thus, I was invited to Rosary's room...")
221()
PictureDisplay(1,"bg195",0,0,0,0,100,100,255,0)
PictureDisplay(5,"80_name_s_st01",0,0,0,0,100,100,255,0)
222()
241(bytes(0x04,0x08,0x6f,0x3a,0x0d,0x52,0x50,0x47,0x3a,0x3a,0x42,0x47,0x4d,0x08,0x3a,0x0a,0x40,0x6e,0x61,0x6d,0x65,0x49,0x22,0x09,0x65,0x72,0x6f,0x31,0x06,0x3a,0x06,0x45,0x54,0x3a,0x0c,0x40,0x76,0x6f,0x6c,0x75,0x6d,0x65,0x69,0x69,0x3a,0x0b,0x40,0x70,0x69,0x74,0x63,0x68,0x69,0x69))
ShowMessageFace("name_s_fc1",0,0,2,5)
ShowMessage("\\n<Rosary>All men crave my chest...")
ShowMessageFace("",0,0,2,6)
ShowMessage("Rosary exposes her plump breasts to me.")
ShowMessage("They're coated on the surface with a sticky mucus.")
ShowMessageFace("",0,0,2,7)
ShowMessage("That mucus strangely makes me yearn to be between her breasts...")
ShowMessage("I swallow nervously looking at them.")
ShowMessageFace("name_s_fc1",0,0,2,8)
ShowMessage("\\n<Rosary>You want to put your penis between my breasts.\nWell then, please lie down here...")
ShowMessageFace("",0,0,2,9)
ShowMessage("\\n<Luka>......")
ShowMessageFace("",0,0,2,10)
ShowMessage("I take off my pants, exposing my already erect penis.")
ShowMessage("I do as I'm told and lay down in front of Rosary.")
ShowMessageFace("",0,0,2,11)
ShowMessage("I feel like a fish on a cutting board...")
ShowMessageFace("name_s_fc1",0,0,2,12)
ShowMessage("\\n<Rosary>Well then, if I may...")
245(bytes(0x04,0x08,0x6f,0x3a,0x0d,0x52,0x50,0x47,0x3a,0x3a,0x42,0x47,0x53,0x08,0x3a,0x0a,0x40,0x6e,0x61,0x6d,0x65,0x49,0x22,0x17,0x6d,0x6f,0x6e,0x5f,0x68,0x73,0x65,0x61,0x6e,0x31,0x37,0x5f,0x73,0x69,0x67,0x6f,0x6b,0x69,0x06,0x3a,0x06,0x45,0x54,0x3a,0x0c,0x40,0x76,0x6f,0x6c,0x75,0x6d,0x65,0x69,0x55,0x3a,0x0b,0x40,0x70,0x69,0x74,0x63,0x68,0x69,0x69))
PictureDisplay(5,"ev_name_s_hc1",0,0,0,0,100,100,255,0)
ShowMessageFace("",0,0,2,13)
ShowMessage("I feel a soft sensation squeezing my penis.")
ShowMessage("At the same time, my penis felt like it got covered in stickiness.")
ShowMessageFace("",0,0,2,14)
ShowMessage("Her cleavage is very sticky and my penis slides between her slimy breasts.")
ShowMessage("Rubbing against them gives off a soft pleasure.")
ShowMessageFace("",0,0,2,15)
ShowMessage("\\n<Luka>Ah, aaah...")
ShowMessageFace("name_s_fc1",0,0,2,16)
ShowMessage("\\n<Rosary>Fufu, I will give you more pleasure...")
ShowMessageFace("",0,0,2,17)
ShowMessage("Rosary grabs her breasts with both hands and starts moving them.")
ShowMessage("She puts pressure on them, squeezing me between them.")
ShowMessageFace("",0,0,2,18)
ShowMessage("Her breasts are soft and elastic.")
ShowMessage("This sweet tightness in the slimy mucus...")
ShowMessageFace("",0,0,2,19)
ShowMessage("\\n<Luka>Nnngh...")
ShowMessageFace("",0,0,2,20)
ShowMessage("A moan escapes my mouth from this soft sense of oppression.")
ShowMessage("I feel her breasts stick and rub against my penis.")
ShowMessageFace("",0,0,2,21)
ShowMessage("The stickiness doubles the pleasure.")
ShowMessage("Being covered in her mucus and squeezed between her breasts...")
ShowMessageFace("",0,0,2,22)
ShowMessage("\\n<Luka>A-amazing...That feels so good...")
ShowMessageFace("",0,0,2,23)
ShowMessage("With no control over it, my waist jerks up on its own.")
ShowMessageFace("name_s_fc1",0,0,2,24)
ShowMessage("\\n<Rosary>Ufufu, so much squirming around...\nBut I can't let you go until you finish.")
ShowMessageFace("",0,0,2,25)
ShowMessage("She tightens her breasts more, pushing me down and stopping my squirming.")
ShowMessage("Pinned down so I can't escape or squirm, I leak out a soft moan.")
ShowMessageFace("",0,0,2,26)
ShowMessage("\\n<Luka>Nnngh...")
ShowMessageFace("name_s_fc1",0,0,2,27)
ShowMessage("\\n<Rosary>Then, I will make you come.\nI will not go easy on you, so when you can't hold on anymore, just come...")
ShowMessageFace("",0,0,2,28)
ShowMessage("Rosary starts bouncing her breasts up and down.")
ShowMessage("She furiously rubs my erect penis in her cleavage.")
ShowMessageFace("",0,0,2,29)
ShowMessage("At times it slips out of her valley.")
ShowMessage("But she quickly puts it back in and resumes her assault...")
ShowMessageFace("",0,0,2,30)
ShowMessage("\\n<Luka>Ah... Haaaa...!")
ShowMessageFace("",0,0,2,31)
ShowMessage("In addition to the slimy feeling, her up and down rubbing stimulates my penis.")
ShowMessage("The soft touch of her flesh would make any man surrender.")
ShowMessageFace("",0,0,2,32)
ShowMessage("I completely melt from the pleasure and entrust my penis to Rosary's chest.")
ShowMessage("I want to come like this, feeling this melting pleasure...")
ShowMessageFace("name_s_fc1",0,0,2,33)
ShowMessage("\\n<Rosary>It will be amazing, fufufu...\nI will lead you to heaven.")
ShowMessageFace("",0,0,2,34)
ShowMessage("\\n<Luka>Hnnaaa...")
ShowMessageFace("",0,0,2,35)
ShowMessage("Her mucus-covered breasts keep rubbing and teasing my penis.")
ShowMessage("I melt from the pleasure and my vision goes pure white...")
RunCommonEvent(104)
PictureDisplay(5,"ev_name_s_hc2",0,0,0,0,100,100,255,0)
RunCommonEvent(105)
ShowMessageFace("",0,0,2,36)
ShowMessage("From her slimy cleavage, my cloudy semen shoots out.")
ShowMessage("I entrust myself to this heavenly pleasure and taste the sweet feeling of release...")
PictureDisplay(5,"ev_name_s_hc3",0,0,0,0,100,100,255,0)
ShowMessageFace("name_s_fc1",0,0,2,37)
ShowMessage("\\n<Rosary>Fufufu...You couldn't take it anymore could you?")
ShowMessageFace("",0,0,2,38)
ShowMessage("My sperm dirties Rosary's chest...")
ShowMessage("The proof of my defeat.")
ShowMessageFace("name_s_fc1",0,0,2,39)
ShowMessage("\\n<Rosary>If you wish to taste heaven again... please tell me.")
ShowMessageFace("",0,0,2,40)
ShowMessage("\\n<Luka>......")
ShowMessageFace("",0,0,2,41)
ShowMessage("I'm too weak to respond from having my penis between her sticky breasts...")
221()
PictureClear(5)
246(2)
ShowMessageFace("",0,0,2,42)
ShowMessage("......")
242(2)
Wait(120)
241(bytes(0x04,0x08,0x6f,0x3a,0x0d,0x52,0x50,0x47,0x3a,0x3a,0x42,0x47,0x4d,0x08,0x3a,0x0a,0x40,0x6e,0x61,0x6d,0x65,0x49,0x22,0x0c,0x63,0x61,0x73,0x74,0x6c,0x65,0x36,0x06,0x3a,0x06,0x45,0x54,0x3a,0x0c,0x40,0x76,0x6f,0x6c,0x75,0x6d,0x65,0x69,0x69,0x3a,0x0b,0x40,0x70,0x69,0x74,0x63,0x68,0x69,0x69))
0()
