// EVENT 4447
Name "Cursed Doll 2"

If(0,25,1)
 221()
 PictureClear(5)
 PictureClear(6)
 ShowMessageFace("",0,0,2,0)
 ShowMessage("......")
 242(2)
 Wait(120)
 241(bytes(0x04,0x08,0x6f,0x3a,0x0d,0x52,0x50,0x47,0x3a,0x3a,0x42,0x47,0x4d,0x08,0x3a,0x0a,0x40,0x6e,0x61,0x6d,0x65,0x49,0x22,0x0c,0x63,0x61,0x73,0x74,0x6c,0x65,0x36,0x06,0x3a,0x06,0x45,0x54,0x3a,0x0c,0x40,0x76,0x6f,0x6c,0x75,0x6d,0x65,0x69,0x69,0x3a,0x0b,0x40,0x70,0x69,0x74,0x63,0x68,0x69,0x69))
 EndEventProcessing()
 0()
EndIf()
PictureDisplay(5,"80_doll_st01",0,0,0,0,100,100,255,0)
ShowMessageFace("doll_fc1",0,0,2,1)
ShowMessage("\\n<Miyabi>Big bro, let's play...")
ShowMessageFace("",0,0,2,2)
ShowMessage("\\n<Luka>Ok, let's play.\nWhat do you want to do...?")
ShowMessageFace("",0,0,2,3)
ShowMessage("I answer her politely.")
ShowMessage("I'm not even sure what this little girl wants to play...")
PictureDisplay(5,"80_doll_st02",0,0,0,0,100,100,255,0)
ShowMessageFace("doll_fc1",1,0,2,4)
ShowMessage("\\n<Miyabi>A game that feels good.\nSucking big bro's energy...")
ShowMessageFace("",0,0,2,5)
ShowMessage("\\n<Luka>Th-That's not a good game to... Uwaa!")
ShowMessageFace("",0,0,2,6)
ShowMessage("Miyabi forces me to the ground and leans over my body.")
ShowMessageFace("",0,0,2,7)
ShowMessage("A seductive hole opens up in the doll's groin area.")
ShowMessage("Different from her wooden body, the hole looked exactly like a human girl's.")
ShowMessageFace("",0,0,2,8)
ShowMessage("Miyabi starts to slowly lower that entrance toward my waist...")
241(bytes(0x04,0x08,0x6f,0x3a,0x0d,0x52,0x50,0x47,0x3a,0x3a,0x42,0x47,0x4d,0x08,0x3a,0x0a,0x40,0x6e,0x61,0x6d,0x65,0x49,0x22,0x09,0x65,0x72,0x6f,0x31,0x06,0x3a,0x06,0x45,0x54,0x3a,0x0c,0x40,0x76,0x6f,0x6c,0x75,0x6d,0x65,0x69,0x69,0x3a,0x0b,0x40,0x70,0x69,0x74,0x63,0x68,0x69,0x69))
245(bytes(0x04,0x08,0x6f,0x3a,0x0d,0x52,0x50,0x47,0x3a,0x3a,0x42,0x47,0x53,0x08,0x3a,0x0a,0x40,0x6e,0x61,0x6d,0x65,0x49,0x22,0x1e,0x6d,0x6f,0x6e,0x5f,0x68,0x73,0x65,0x61,0x6e,0x30,0x39,0x5f,0x69,0x6e,0x6e,0x65,0x72,0x77,0x6f,0x72,0x6b,0x73,0x5f,0x62,0x31,0x06,0x3a,0x06,0x45,0x54,0x3a,0x0c,0x40,0x76,0x6f,0x6c,0x75,0x6d,0x65,0x69,0x55,0x3a,0x0b,0x40,0x70,0x69,0x74,0x63,0x68,0x69,0x69))
PictureDisplay(5,"ev_doll_ha1",0,0,0,0,100,100,255,0)
ShowMessageFace("",0,0,2,9)
ShowMessage("And forces me into her!")
ShowMessageFace("",0,0,2,10)
ShowMessage("\\n<Luka>Ah! Ahhh!!")
ShowMessageFace("",0,0,2,11)
ShowMessage("The soft interior didn't feel like a doll at all.")
ShowMessageFace("",0,0,2,12)
ShowMessage("Warm and wet inside of her, my body writhes at the surprising sensation.")
ShowMessageFace("",0,0,2,13)
ShowMessage("\\n<Luka>What... Is this...? It feels so good...\nIt's curved...")
ShowMessageFace("doll_fc1",1,0,2,14)
ShowMessage("\\n<Miyabi>We're connected now, big bro...")
ShowMessageFace("",0,0,2,15)
ShowMessage("While straddling me, she looks down and giggles.")
ShowMessageFace("",0,0,2,16)
ShowMessage("I can't endure this small vagina...")
ShowMessageFace("doll_fc1",1,0,2,17)
ShowMessage("\\n<Miyabi>Let it out, big bro...")
ShowMessageFace("",0,0,2,18)
ShowMessage("At the same time that she said that, she started to move her waist.")
ShowMessage("Forcing me in and out of her, the tip of my penis rubs along the wall of her curved vagina.")
ShowMessageFace("",0,0,2,19)
ShowMessage("I let out a moan as my penis starts to twitch.")
ShowMessageFace("",0,0,2,20)
ShowMessage("\\n<Luka>Uuu.... Ahhh...")
RunCommonEvent(104)
PictureDisplay(5,"ev_doll_ha2",0,0,0,0,100,100,255,0)
RunCommonEvent(105)
ShowMessageFace("",0,0,2,21)
ShowMessage("I explode in her tiny hole, shooting out my semen.")
ShowMessage("The pleasure from her tiny vagina forced me to orgasm almost in an instant...")
ShowMessageFace("",0,0,2,22)
ShowMessage("\\n<Luka>Auuu...")
ShowMessageFace("",0,0,2,23)
ShowMessage("Forced to come in a doll's vagina, I feel humiliated.")
ShowMessage("But more than humiliation, I'm overcome with disgust at myself for surrendering so quickly.")
ShowMessageFace("",0,0,2,24)
ShowMessage("Under this tiny doll's body, I shiver in defeat.")
ShowMessage("In addition, after coming inside of her I feel a sense of lethargy come over me.")
ShowMessageFace("",0,0,2,25)
ShowMessage("My mind warns me that if this continues, something terrible is going to happen to me...")
ShowMessage("But I'm powerless to resist her any longer...")
ShowMessageFace("doll_fc1",1,0,2,26)
ShowMessage("\\n<Miyabi>Big bro... I want to play more...")
ShowMessageFace("",0,0,2,27)
ShowMessage("\\n<Luka>Stop... Uuu...")
245(bytes(0x04,0x08,0x6f,0x3a,0x0d,0x52,0x50,0x47,0x3a,0x3a,0x42,0x47,0x53,0x08,0x3a,0x0a,0x40,0x6e,0x61,0x6d,0x65,0x49,0x22,0x1e,0x6d,0x6f,0x6e,0x5f,0x68,0x73,0x65,0x61,0x6e,0x31,0x30,0x5f,0x69,0x6e,0x6e,0x65,0x72,0x77,0x6f,0x72,0x6b,0x73,0x5f,0x62,0x32,0x06,0x3a,0x06,0x45,0x54,0x3a,0x0c,0x40,0x76,0x6f,0x6c,0x75,0x6d,0x65,0x69,0x55,0x3a,0x0b,0x40,0x70,0x69,0x74,0x63,0x68,0x69,0x69))
ShowMessageFace("",0,0,2,28)
ShowMessage("Miyabi squeezes her vagina.")
ShowMessage("Right after ejaculating, she's already stimulating me again.")
ShowMessageFace("",0,0,2,29)
ShowMessage("Leading me to a world of pleasure, I can't resist her...")
ShowMessageFace("",0,0,2,30)
ShowMessage("\\n<Luka>Aaah... Incredible...")
ShowMessageFace("",0,0,2,31)
ShowMessage("I let out a groan as I feel another ejaculation start to rise in my waist.")
ShowMessageFace("",0,0,2,32)
ShowMessage("The numbness that started to fill my waist after my last orgasm continues to slowly spread through my body.")
ShowMessageFace("",0,0,2,33)
ShowMessage("This tiny doll is playing with me...")
ShowMessage("But even so, I don't have the strength to get her off...")
ShowMessageFace("doll_fc1",1,0,2,34)
ShowMessage("\\n<Miyabi>Let it out, big bro...\nI want all of your white stuff in me...")
ShowMessageFace("",0,0,2,35)
ShowMessage("She grins as she tightens around my penis.")
ShowMessageFace("",0,0,2,36)
ShowMessage("Slowly moving her waist, she coaxes me towards another orgasm.")
ShowMessageFace("",0,0,2,37)
ShowMessage("\\n<Luka>Auu... If you do that... I can't...!")
ShowMessageFace("",0,0,2,38)
ShowMessage("I quickly reach another height due to the pleasure being forced into me.")
RunCommonEvent(104)
PictureDisplay(5,"ev_doll_ha3",0,0,0,0,100,100,255,0)
RunCommonEvent(105)
ShowMessageFace("",0,0,2,39)
ShowMessage("I explode again inside the Cursed Doll's warm hole.")
ShowMessage("The doubt and fear that was left in my mind starts to fade as the numbness spreads.")
ShowMessageFace("",0,0,2,40)
ShowMessage("Before I noticed it myself, I had already become addicted to the pleasure she can give me.")
ShowMessageFace("",0,0,2,41)
ShowMessage("\\n<Luka>Faaa... Incredible...")
ShowMessageFace("doll_fc1",1,0,2,42)
ShowMessage("\\n<Miyabi>I want to play even more, big bro...")
ShowMessageFace("",0,0,2,43)
ShowMessage("From her deepest spot to her entrance, she continues to slowly move her waist back and forth.")
ShowMessage("Back and forth, my penis is forced in and out of her tiny hole.")
ShowMessageFace("",0,0,2,44)
ShowMessage("The amazing feeling attacking me with every thrust quickly pushes me over another edge.")
ShowMessageFace("",0,0,2,45)
ShowMessage("\\n<Luka>Aaaaaa!")
RunCommonEvent(104)
RunCommonEvent(105)
ShowMessageFace("",0,0,2,46)
ShowMessage("Raped by a small doll, I explode in her for a third time.")
ShowMessageFace("doll_fc1",1,0,2,47)
ShowMessage("\\n<Miyabi>It's delicious, big bro...\nMore... I want to play more...")
ShowMessageFace("",0,0,2,48)
ShowMessage("Without mercy, she continues to wring more from me.")
ShowMessageFace("",0,0,2,49)
ShowMessage("Each time I ejaculate, more and more of my strength is taken from me.")
ShowMessage("As I am now, I can barely keep my eyes open.")
ShowMessageFace("",0,0,2,50)
ShowMessage("\\n<Luka>Auu... If you keep doing that...")
ShowMessageFace("doll_fc1",1,0,2,51)
ShowMessage("\\n<Miyabi>Give me more please, big bro...\nMore... More... More...")
ShowMessageFace("",0,0,2,52)
ShowMessage("She continues her movement, as the last of my fear fades.")
ShowMessage("Being raped by Miyabi, I'm not allowed to have any fear...")
ShowMessageFace("",0,0,2,53)
ShowMessage("\\n<Luka>Auu...")
ShowMessageFace("doll_fc1",1,0,2,54)
ShowMessage("\\n<Miyabi>I want to play more...\nUntil big bro breaks...")
ShowMessageFace("",0,0,2,55)
ShowMessage("Holding my penis inside of her, she single-mindedly wrings out my energy.")
ShowMessage("I have no choice but to give in to her devilish desire.")
ShowMessageFace("",0,0,2,56)
ShowMessage("Once she forced me into her, my fate was sealed...")
ShowMessageFace("doll_fc1",1,0,2,57)
ShowMessage("\\n<Miyabi>Give me more... Big bro...")
ShowMessageFace("",0,0,2,58)
ShowMessage("\\n<Luka>Aaaa!!")
RunCommonEvent(104)
RunCommonEvent(105)
ShowMessageFace("",0,0,2,59)
ShowMessage("I explode in the doll again.")
ShowMessage("More of my energy is taken by this little doll...")
ShowMessageFace("",0,0,2,60)
ShowMessage("Having sex with Miyabi is costing me my life...")
ShowMessageFace("doll_fc1",1,0,2,61)
ShowMessage("\\n<Miyabi>More, more... More of what I want...")
ShowMessageFace("",0,0,2,62)
ShowMessage("\\n<Luka>Auuuu!")
RunCommonEvent(104)
RunCommonEvent(105)
ShowMessageFace("",0,0,2,63)
ShowMessage("The numbness is covering my entire body now.")
ShowMessage("Unable to feel anything but the pleasure in my penis, it feels as though it isn't even my body any longer.")
ShowMessageFace("doll_fc1",1,0,2,64)
ShowMessage("\\n<Miyabi>Let's play more, big bro...")
ShowMessageFace("",0,0,2,65)
ShowMessage("\\n<Luka>Ahh...")
RunCommonEvent(104)
RunCommonEvent(105)
ShowMessageFace("",0,0,2,66)
ShowMessage("Miyabi laughs as she sucks out more of my energy.")
ShowMessage("My vision dims until I can barely make out her sadistic face.")
ShowMessageFace("",0,0,2,67)
ShowMessage("I'm barely able to keep a coherent thought...")
ShowMessage("If this doesn't stop right now...")
ShowMessageFace("doll_fc1",1,0,2,68)
ShowMessage("\\n<Miyabi>What's wrong, big bro?\nYou aren't moving anymore...")
ShowMessageFace("",0,0,2,69)
ShowMessage("\\n<Luka>A...a...a...")
ShowMessageFace("",0,0,2,70)
ShowMessage("She continues moving her waist as she looks at my face questioningly.")
RunCommonEvent(104)
RunCommonEvent(105)
221()
PictureClear(5)
246(2)
ShowMessageFace("",0,0,2,71)
ShowMessage("While basking in that final orgasm, I lose consciousness.")
ShowMessage("All of my energy was sucked up by Miyabi...")
ShowMessageFace("",0,0,2,72)
ShowMessage("I was raped to death by her...")
ShowMessage("But at least it felt good until the last moment...")
ShowMessageFace("",0,0,2,73)
ShowMessage("..................")
242(2)
Wait(120)
ChangeVariable(1002,1002,0,0,0)
216(1)
355("forced_transfer(154,18,52)")
355("release_temp_actors")
355("$game_map.screen.clear")
0()
