﻿// EVENT 2184
Name "Seduction: Cow Demon Queen"

355("$game_troop.lose_event_id = 3184")
ChangeVariable(26,26,0,3,3,1,4)
ChangeVariable(26,26,4,0,10)
ShowMessageFace("nyumaou_fc1",0,0,2,1)
ShowMessage("\\n<Cow Demon Queen>What an excellent, lively man!\nAllow me to reward you!")
ShowMessageFace("",0,0,2,2)
ShowMessage("The Cow Demon Queen knocks Luka down!\nShe then leans over Luka with her huge body!")
ShowMessageFace("nyumaou_fc1",1,0,2,3)
ShowMessage("\\n<Cow Demon Queen>I shall thoroughly ravish you...\nMy vagina may be large, but I'm certain it's sufficient for a small man like you.")
ChangeSwitch(98,98,0)
ChangeSwitch(96,96,0)
ShowChoices(strings("Struggle","Let her continue"),1)
IfPlayerPicksChoice(0,"Struggle")
 ShowMessageFace("",0,0,2,4)
 ShowMessage("Luka struggles violently, and escapes from the Cow Demon Queen's restraint!")
 RunCommonEvent(1999)
 EndEventProcessing()
 0()
IfPlayerPicksChoice(1,"Let her continue")
 0()
404()
ShowMessageFace("nyumaou_fc1",1,0,2,5)
ShowMessage("\\n<Cow Demon Queen>So you have no objections to consorting with me...\nIf that's the case, then I'll have you taste my vagina to your heart's content.")
ChangeVariable(26,26,3,0,4)
250(bytes(0x04,0x08,0x6f,0x3a,0x0c,0x52,0x50,0x47,0x3a,0x3a,0x53,0x45,0x08,0x3a,0x0a,0x40,0x6e,0x61,0x6d,0x65,0x49,0x22,0x11,0x6d,0x6f,0x6e,0x5f,0x65,0x72,0x6f,0x5f,0x70,0x79,0x75,0x31,0x06,0x3a,0x06,0x45,0x54,0x3a,0x0b,0x40,0x70,0x69,0x74,0x63,0x68,0x69,0x69,0x3a,0x0c,0x40,0x76,0x6f,0x6c,0x75,0x6d,0x65,0x69,0x69))
311(0,1,1,1,26,true)
ShowMessageFace("",0,0,2,6)
ShowMessage("The Cow Demon Queen brings Luka's penis into her large vagina! Her soft flesh wraps tightly around his penis!\\D")
ShowMessage("Luka takes \\V[26] damage!")
ChangeVariable(27,27,0,3,3,1,2)
If(1,27,0,0,0)
 JumpToLabel("射精1")
 0()
EndIf()
ShowMessageFace("nyumaou_fc1",1,0,2,7)
ShowMessage("\\n<Cow Demon Queen>Did you think my vagina would be loose because it is large...? Did I ever say that? I can make it smaller when consorting with humans.")
250(bytes(0x04,0x08,0x6f,0x3a,0x0c,0x52,0x50,0x47,0x3a,0x3a,0x53,0x45,0x08,0x3a,0x0a,0x40,0x6e,0x61,0x6d,0x65,0x49,0x22,0x13,0x6d,0x6f,0x6e,0x5f,0x65,0x72,0x6f,0x5f,0x63,0x68,0x75,0x70,0x61,0x34,0x06,0x3a,0x06,0x45,0x54,0x3a,0x0b,0x40,0x70,0x69,0x74,0x63,0x68,0x69,0x69,0x3a,0x0c,0x40,0x76,0x6f,0x6c,0x75,0x6d,0x65,0x69,0x69))
311(0,1,1,1,26,true)
ShowMessageFace("",0,0,2,8)
ShowMessage("The Cow Demon Queen's vagina clamps down around Luka's penis! Her hot, soft flesh squeezes his penis, providing incredible pleasure!\\D")
ShowMessage("Luka takes \\V[26] damage!")
ChangeVariable(27,27,0,3,3,1,2)
If(1,27,0,0,0)
 JumpToLabel("射精2")
 0()
EndIf()
ShowMessageFace("nyumaou_fc1",1,0,2,9)
ShowMessage("\\n<Cow Demon Queen>Now, to finish you off inside me.\nI'll squeeze it out with this vagina!")
250(bytes(0x04,0x08,0x6f,0x3a,0x0c,0x52,0x50,0x47,0x3a,0x3a,0x53,0x45,0x08,0x3a,0x0a,0x40,0x6e,0x61,0x6d,0x65,0x49,0x22,0x13,0x6d,0x6f,0x6e,0x5f,0x65,0x72,0x6f,0x5f,0x63,0x68,0x75,0x70,0x61,0x34,0x06,0x3a,0x06,0x45,0x54,0x3a,0x0b,0x40,0x70,0x69,0x74,0x63,0x68,0x69,0x69,0x3a,0x0c,0x40,0x76,0x6f,0x6c,0x75,0x6d,0x65,0x69,0x69))
311(0,1,1,1,26,true)
ShowMessageFace("",0,0,2,10)
ShowMessage("The Cow Demon Queen's vagina squeezes tightly around Luka's penis! The tightness of her soft flesh squeezes out his semen!\\D")
ShowMessage("Luka takes \\V[26] damage!")
ChangeVariable(27,27,0,3,3,1,2)
If(1,27,0,0,0)
 JumpToLabel("射精2")
 0()
EndIf()
DefineLabel("射精1")
ShowMessageFace("",0,0,2,11)
ShowMessage("\\n<Luka>No, I'm coming... Aaaah...")
RunCommonEvent(104)
RunCommonEvent(105)
ShowMessageFace("",0,0,2,12)
ShowMessage("I accidentally ejaculate as soon as I'm inserted into the Cow Demon Queen's vagina.\nMy semen pours steadily into her tight vagina.")
ShowMessageFace("nyumaou_fc1",1,0,2,13)
ShowMessage("\\n<Cow Demon Queen>Kuku, you scattered it as soon as you came in...\nMy vagina certainly seems to be in excellent condition.")
RunCommonEvent(2000)
EndEventProcessing()
DefineLabel("射精2")
ShowMessageFace("",0,0,2,14)
ShowMessage("\\n<Luka>No, I'm coming... Aaaah...")
RunCommonEvent(104)
RunCommonEvent(105)
ShowMessageFace("",0,0,2,15)
ShowMessage("I finally ejaculate into the Cow Demon Queen's vagina.\nMy semen pours steadily into her tight vagina.")
ShowMessageFace("nyumaou_fc1",1,0,2,16)
ShowMessage("\\n<Cow Demon Queen>Kuku, you leaked out a surprising amount...\nMy vagina certainly seems to be in excellent condition.")
RunCommonEvent(2000)
EndEventProcessing()
0()
