﻿// EVENT 5288
Name "Candy 3"

PictureDisplay(5,"80_candy_st02",0,0,0,0,100,100,0,0)
PictureMove(5,null,0,0,0,0,100,100,255,0,30,true)
ShowMessageFace("candy_fc1",1,0,2,1)
ShowMessage("\\n<Candy>")
ShowMessage("Eh? I can do as I please?")
ShowMessageFace("",0,0,2,2)
ShowMessage("\\n<Luka>")
ShowMessage("Y-yes... Please...")
ShowMessageFace("candy_fc1",1,0,2,3)
ShowMessage("\\n<Candy>")
ShowMessage("Well then, come to my room...")
ShowMessageFace("",0,0,2,4)
ShowMessage("Thus I'm lead to a private room...")
221()
PictureDisplay(1,"bg195",0,0,0,0,100,100,255,0)
PictureDisplay(5,"ev_candy_ha01",0,0,0,0,100,100,255,0)
222()
241(bytes(0x04,0x08,0x6f,0x3a,0x0d,0x52,0x50,0x47,0x3a,0x3a,0x42,0x47,0x4d,0x08,0x3a,0x0a,0x40,0x6e,0x61,0x6d,0x65,0x49,0x22,0x09,0x65,0x72,0x6f,0x31,0x06,0x3a,0x06,0x45,0x54,0x3a,0x0c,0x40,0x76,0x6f,0x6c,0x75,0x6d,0x65,0x69,0x69,0x3a,0x0b,0x40,0x70,0x69,0x74,0x63,0x68,0x69,0x69))
245(bytes(0x04,0x08,0x6f,0x3a,0x0d,0x52,0x50,0x47,0x3a,0x3a,0x42,0x47,0x53,0x08,0x3a,0x0a,0x40,0x6e,0x61,0x6d,0x65,0x49,0x22,0x17,0x6d,0x6f,0x6e,0x5f,0x68,0x73,0x65,0x61,0x6e,0x31,0x37,0x5f,0x73,0x69,0x67,0x6f,0x6b,0x69,0x06,0x3a,0x06,0x45,0x54,0x3a,0x0c,0x40,0x76,0x6f,0x6c,0x75,0x6d,0x65,0x69,0x55,0x3a,0x0b,0x40,0x70,0x69,0x74,0x63,0x68,0x69,0x69))
ShowMessageFace("",0,0,2,5)
ShowMessage("\\n<Luka>")
ShowMessage("Hauuu... This is...")
ShowMessageFace("",0,0,2,6)
ShowMessage("Candy's hair restrains my body.")
ShowMessage("She decorates my entire body with sweets and cream.")
ShowMessageFace("",0,0,2,7)
ShowMessage("Her hands cover my penis with a sweet cream...")
ShowMessage("It gets erect as Candy covers me with her sweets.")
ShowMessageFace("",0,0,2,8)
ShowMessage("\\n<Luka>")
ShowMessage("Hauuuu...")
PictureDisplay(5,"ev_candy_ha02",0,0,0,0,100,100,255,0)
ShowMessageFace("candy_fc1",1,0,2,9)
ShowMessage("\\n<Candy>")
ShowMessage("Ufufu, you look so tasty...")
ShowMessage("You know what's going to happen now, right?")
ShowMessageFace("",0,0,2,10)
ShowMessage("\\n<Luka>")
ShowMessage("St-stop...")
ShowMessageFace("",0,0,2,11)
ShowMessage("Candy feverishly gazes at me from head to toe.")
ShowMessage("She's looking at me as if she was looking at a delicious dessert.")
ShowMessageFace("",0,0,2,12)
ShowMessage("She's about to start licking my whole body...")
ShowMessage("Even though a sense of uneasiness looms over me, my dick pulses in expectation.")
ShowMessageFace("candy_fc1",1,0,2,13)
ShowMessage("\\n<Candy>")
ShowMessage("Haha, what a good penis...")
ShowMessage("Well then, I'm going to licky-lick you lots.")
PictureDisplay(5,"ev_candy_ha03",0,0,0,0,100,100,255,0)
ShowMessageFace("",0,0,2,14)
ShowMessage("A long tongue crawls out of the tip of her braided hair.")
ShowMessage("And, it starts lapping away at my body.")
ShowMessageFace("",0,0,2,15)
ShowMessage("It crawls over every inch of my body, gently spreading saliva.")
ShowMessage("While she's licking the cream off me, I get to enjoy this slimy pleasure...")
ShowMessageFace("",0,0,2,16)
ShowMessage("\\n<Luka>")
ShowMessage("Ah...! Auuuuu...!")
ShowMessageFace("candy_fc1",1,0,2,17)
ShowMessage("\\n<Candy>")
ShowMessage("Sweet, and tastyyy~♪")
ShowMessage("I'll taste your penis as well and get it all sticky...")
ShowMessageFace("",0,0,2,18)
ShowMessage("Her tongue extends to my cream covered penis, held in Candy's hand.")
ShowMessage("From shaft to glans, she licks all of it...")
ShowMessageFace("",0,0,2,19)
ShowMessage("\\n<Luka>")
ShowMessage("Ah... Auuuu...!")
ShowMessageFace("",0,0,2,20)
ShowMessage("She carefully licks the cream that's clinging to my entire penis.")
ShowMessage("As a result of the tongue's movement, my hips start jerking from the pleasure.")
ShowMessageFace("candy_fc1",1,0,2,21)
ShowMessage("\\n<Candy>")
ShowMessage("Your penis, it's delicious...♪")
ShowMessageFace("",0,0,2,22)
ShowMessage("\\n<Luka>")
ShowMessage("Auu... Ah, aaaaah...")
ShowMessageFace("",0,0,2,23)
ShowMessage("As it crawls over my body, I taste the pleasure of being covered in cream and saliva.")
ShowMessage("Having my penis licked all over, it feels like I'm in paradise...")
ShowMessageFace("candy_fc1",1,0,2,24)
ShowMessage("\\n<Candy>")
ShowMessage("*Lick* *Lick* *Lick*")
ShowMessage("Ehehe, tasty...")
ShowMessageFace("",0,0,2,25)
ShowMessage("\\n<Luka>")
ShowMessage("Fuaaaaa... That feels so good...")
ShowMessageFace("",0,0,2,26)
ShowMessage("I indulge in my desires and soak myself in ecstasy.")
ShowMessage("As my whole body is being licked, I relax.")
ShowMessageFace("",0,0,2,27)
ShowMessage("Enjoying this pleasure of having my penis greedily being licked...")
ShowMessage("My glans is thoroughly polished and the neck of my penis as well...")
ShowMessageFace("",0,0,2,28)
ShowMessage("\\n<Luka>")
ShowMessage("Fuaaaaaa... I'm coming...")
ShowMessageFace("",0,0,2,29)
ShowMessage("As I taste the heavenly pleasure, my waist starts jerking.")
ShowMessage("I immerse myself in the sweet feeling of release as I feel it rising inside me...")
RunCommonEvent(104)
PictureDisplay(5,"ev_candy_ha04",0,0,0,0,100,100,255,0)
RunCommonEvent(105)
ShowMessageFace("",0,0,2,30)
ShowMessage("\\n<Luka>")
ShowMessage("Aaaaah...")
ShowMessageFace("",0,0,2,31)
ShowMessage("As my semen gushes out, I start whining.")
ShowMessage("Candy's tongue continues to lick my penis even during my ejaculation.")
ShowMessageFace("",0,0,2,32)
ShowMessage("My whole body trembles from the pleasure.")
ShowMessage("I feel her tongue crawling all over my glans until my ejaculation ends...")
ShowMessageFace("",0,0,2,33)
ShowMessage("\\n<Luka>")
ShowMessage("Auuuu...")
ShowMessageFace("",0,0,2,34)
ShowMessage("Weakness takes over my body as the tongue is still crawling all over.")
ShowMessage("Cream and saliva are mixed and cover my whole body, making it all slimy.")
ShowMessageFace("candy_fc1",1,0,2,35)
ShowMessage("\\n<Candy>")
ShowMessage("Ehehe, your white stuff came out...")
ShowMessage("This is so delicious...")
ShowMessageFace("",0,0,2,36)
ShowMessage("\\n<Luka>")
ShowMessage("Au... Ah, aaaaah...")
PictureDisplay(5,"ev_candy_ha05",0,0,0,0,100,100,255,0)
ShowMessageFace("",0,0,2,37)
ShowMessage("Several tongues rush at my penis and start lapping up the cream and my semen.")
ShowMessage("In an instant, my manhood is covered in a slimy feeling from the licking.")
ShowMessageFace("",0,0,2,38)
ShowMessage("My semen is devoured quickly but the tongues continue to lick.")
ShowMessage("It feels as if my penis was played with by a horde of savage tentacles.")
ShowMessageFace("",0,0,2,39)
ShowMessage("\\n<Luka>")
ShowMessage("Fuaaaaa... That feels good...")
ShowMessageFace("candy_fc1",1,0,2,40)
ShowMessage("\\n<Candy>")
ShowMessage("Haha, don't you want to taste how delicious it is with your own mouth...?")
PictureDisplay(5,"ev_candy_ha06",0,0,0,0,100,100,255,0)
ShowMessageFace("",0,0,2,41)
ShowMessage("One of the tongues stretches out, takes a lick... and invades my mouth.")
ShowMessage("I instinctively greet the sweet tongue with my own.")
ShowMessageFace("",0,0,2,42)
ShowMessage("Our tongues intertwine with each other, letting me taste the sweetness...")
ShowMessage("My body is drained of any strength I have left and indulges in the sweet pleasure of being licked.")
ShowMessageFace("",0,0,2,43)
ShowMessage("\\n<Luka>")
ShowMessage("Auu... Ah, aaaaaah...!!")
ShowMessageFace("candy_fc1",1,0,2,44)
ShowMessage("\\n<Candy>")
ShowMessage("Absolutely, delicious...")
ShowMessage("*Lick* *Schhhhlurp*")
ShowMessageFace("",0,0,2,45)
ShowMessage("My penis is licked and squeezed by her tongues.")
ShowMessage("Immersed in this heaven, my mind goes blank...")
ShowMessageFace("",0,0,2,46)
ShowMessage("\\n<Luka>")
ShowMessage("Ah, aaaaaah...")
RunCommonEvent(104)
PictureDisplay(5,"ev_candy_ha07",0,0,0,0,100,100,255,0)
RunCommonEvent(105)
ShowMessageFace("",0,0,2,47)
ShowMessage("Immersed in ecstasy, I shoot out my semen.")
ShowMessage("It feels as if I'm about to melt from the pleasure of having my body licked...")
ShowMessageFace("",0,0,2,48)
ShowMessage("\\n<Luka>")
ShowMessage("Auu, fuaaaa...")
ShowMessageFace("candy_fc1",1,0,2,49)
ShowMessage("\\n<Candy>")
ShowMessage("Ufufu, did it feel that good...?")
ShowMessage("It's time I cleaned up all the cream on your body...")
PictureDisplay(5,"ev_candy_ha09",0,0,0,0,100,100,255,0)
ShowMessageFace("",0,0,2,50)
ShowMessage("Another tongue comes out of her body...")
ShowMessage("One even thicker than the other ones approaches me.")
ShowMessageFace("",0,0,2,51)
ShowMessage("The huge tongue licks all over my helpless body.")
ShowMessage("I immerse myself in the pleasure as my body relaxes...")
ShowMessageFace("",0,0,2,52)
ShowMessage("\\n<Luka>")
ShowMessage("Auuu...")
PictureDisplay(5,"ev_candy_ha10",0,0,0,0,100,100,255,0)
ShowMessageFace("",0,0,2,53)
ShowMessage("Before I knew it, all the cream that was covering my body is licked away.")
ShowMessage("In its place, my body is covered with saliva.")
ShowMessageFace("candy_fc1",1,0,2,54)
ShowMessage("\\n<Candy>")
ShowMessage("Well then, it's time for the main dish...")
ShowMessage("I'm going to savor your penis~♪")
ShowMessageFace("",0,0,2,55)
ShowMessage("\\n<Luka>")
ShowMessage("Ah... Hyaaaaa...!!")
ShowMessageFace("",0,0,2,56)
ShowMessage("The thick tongue approaches my penis, trembling in anticipation...")
PictureDisplay(5,"ev_candy_ha11",0,0,0,0,100,100,255,0)
ShowMessageFace("",0,0,2,57)
ShowMessage("Schlurp... The tongue covers my dick.")
ShowMessage("It feels as if my penis was inserted into a fleshy cylinder.")
ShowMessageFace("",0,0,2,58)
ShowMessage("\\n<Luka>")
ShowMessage("Auuu, amazing...! This is...!")
ShowMessageFace("",0,0,2,59)
ShowMessage("The tongue drowns my penis in saliva and gently rubs my glans.")
ShowMessage("If this continues, my waist might melt from the pleasure.")
ShowMessageFace("",0,0,2,60)
ShowMessage("\\n<Luka>")
ShowMessage("Ah... Auuu!! Aaaaaah...!!")
PictureDisplay(5,"ev_candy_ha12",0,0,0,0,100,100,255,0)
ShowMessageFace("candy_fc1",1,0,2,61)
ShowMessage("\\n<Candy>")
ShowMessage("Your penis, so tasty...")
ShowMessage("I might end up really eating it...")
ShowMessageFace("",0,0,2,62)
ShowMessage("\\n<Luka>")
ShowMessage("Auu... Ah, hyaaaaaa...!!")
ShowMessageFace("",0,0,2,63)
ShowMessage("The thick tongue swells and crawls all over my glans and licks the neck of my penis.")
ShowMessage("Surrounded by her warm tongue, it actually feels like my penis is melting.")
ShowMessageFace("",0,0,2,64)
ShowMessage("The stimulation given to my glans and neck makes it feel like I'm in heaven.")
ShowMessage("I go slack as I feel both my body and mind melt from this pleasure.")
ShowMessageFace("",0,0,2,65)
ShowMessage("\\n<Luka>")
ShowMessage("Coming... Fuaaaaa...")
RunCommonEvent(104)
PictureDisplay(5,"ev_candy_ha13",0,0,0,0,100,100,255,0)
RunCommonEvent(105)
ShowMessageFace("",0,0,2,66)
ShowMessage("Just like that, a large amount of semen gushes out of me.")
ShowMessage("The huge tongue toys with my penis until my ejaculation is over.")
246(2)
ShowMessageFace("",0,0,2,67)
ShowMessage("Thus, she licked all the cream off me...")
ShowMessage("Candy finally finishes eating and flashes me a smile.")
ShowMessageFace("candy_fc1",1,0,2,68)
ShowMessage("\\n<Candy>")
ShowMessage("That was delicious, thanks for the meal...")
ShowMessageFace("",0,0,2,69)
ShowMessage("\\n<Luka>")
ShowMessage("a...ugh...")
ShowMessageFace("",0,0,2,70)
ShowMessage("My whole body is slimy from Candy's saliva.")
ShowMessage("It feels slimy like this because of how much her tongue licked me.")
ShowMessageFace("",0,0,2,71)
ShowMessage("My body and mind melted from the sweet pleasure, I can't snap out of these heavenly sensations.")
ShowMessage("Immersed in ecstasy, my body relaxes...")
221()
PictureClear(5)
PictureClear(6)
ShowMessageFace("",0,0,2,72)
ShowMessage("......")
ShowMessageFace("",0,0,2,73)
ShowMessage("...The sweets weren't bad either.")
ShowMessage("The candy she used to play with me was delicious...")
ShowMessageFace("",0,0,2,74)
ShowMessage("......")
RunCommonEvent(3998)
0()
