﻿// EVENT 0920
Name "Trial Clear"

If(1,123,0,1,0)
 If(1,151,0,1,0)
  249(bytes(0x04,0x08,0x6f,0x3a,0x0c,0x52,0x50,0x47,0x3a,0x3a,0x4d,0x45,0x08,0x3a,0x0a,0x40,0x6e,0x61,0x6d,0x65,0x49,0x22,0x0c,0x66,0x61,0x6e,0x66,0x61,0x6c,0x65,0x06,0x3a,0x06,0x45,0x54,0x3a,0x0b,0x40,0x70,0x69,0x74,0x63,0x68,0x69,0x69,0x3a,0x0c,0x40,0x76,0x6f,0x6c,0x75,0x6d,0x65,0x69,0x69))
  ShowMessageFace("",0,0,2,1)
  ShowMessage("Eternal Forest Lv1 cleared!")
  RunCommonEvent(933)
  If(1,132,0,1,2)
   ChangeVariable(132,132,0,0,1)
   ShowMessageFace("",0,0,2,2)
   ShowMessage("Eternal Forest Lv2 unlocked!")
   0()
  EndIf()
  JumpToLabel("脱出")
  EndEventProcessing()
  0()
 EndIf()
 If(1,151,0,2,0)
  249(bytes(0x04,0x08,0x6f,0x3a,0x0c,0x52,0x50,0x47,0x3a,0x3a,0x4d,0x45,0x08,0x3a,0x0a,0x40,0x6e,0x61,0x6d,0x65,0x49,0x22,0x0c,0x66,0x61,0x6e,0x66,0x61,0x6c,0x65,0x06,0x3a,0x06,0x45,0x54,0x3a,0x0b,0x40,0x70,0x69,0x74,0x63,0x68,0x69,0x69,0x3a,0x0c,0x40,0x76,0x6f,0x6c,0x75,0x6d,0x65,0x69,0x69))
  ShowMessageFace("",0,0,2,3)
  ShowMessage("Eternal Forest Lv2 cleared!")
  RunCommonEvent(934)
  If(1,132,0,2,2)
   ChangeVariable(132,132,0,0,2)
   ShowMessageFace("",0,0,2,4)
   ShowMessage("Eternal Forest Lv3 unlocked!")
   0()
  EndIf()
  JumpToLabel("脱出")
  EndEventProcessing()
  0()
 EndIf()
 If(1,151,0,3,0)
  249(bytes(0x04,0x08,0x6f,0x3a,0x0c,0x52,0x50,0x47,0x3a,0x3a,0x4d,0x45,0x08,0x3a,0x0a,0x40,0x6e,0x61,0x6d,0x65,0x49,0x22,0x0c,0x66,0x61,0x6e,0x66,0x61,0x6c,0x65,0x06,0x3a,0x06,0x45,0x54,0x3a,0x0b,0x40,0x70,0x69,0x74,0x63,0x68,0x69,0x69,0x3a,0x0c,0x40,0x76,0x6f,0x6c,0x75,0x6d,0x65,0x69,0x69))
  ShowMessageFace("",0,0,2,5)
  ShowMessage("Eternal Forest Lv3 cleared!")
  RunCommonEvent(935)
  If(1,132,0,3,2)
   ChangeVariable(132,132,0,0,3)
   ShowMessageFace("",0,0,2,6)
   ShowMessage("Eternal Forest Lv4 unlocked!")
   0()
  EndIf()
  JumpToLabel("脱出")
  EndEventProcessing()
  0()
 EndIf()
 If(1,151,0,4,0)
  249(bytes(0x04,0x08,0x6f,0x3a,0x0c,0x52,0x50,0x47,0x3a,0x3a,0x4d,0x45,0x08,0x3a,0x0a,0x40,0x6e,0x61,0x6d,0x65,0x49,0x22,0x0c,0x66,0x61,0x6e,0x66,0x61,0x6c,0x65,0x06,0x3a,0x06,0x45,0x54,0x3a,0x0b,0x40,0x70,0x69,0x74,0x63,0x68,0x69,0x69,0x3a,0x0c,0x40,0x76,0x6f,0x6c,0x75,0x6d,0x65,0x69,0x69))
  ShowMessageFace("",0,0,2,7)
  ShowMessage("Eternal Forest Lv4 cleared!")
  RunCommonEvent(936)
  If(1,132,0,4,2)
   ChangeVariable(132,132,0,0,4)
   ShowMessageFace("",0,0,2,8)
   ShowMessage("Eternal Forest Lv5 unlocked!")
   0()
  EndIf()
  JumpToLabel("脱出")
  EndEventProcessing()
  0()
 EndIf()
 If(1,151,0,5,0)
  249(bytes(0x04,0x08,0x6f,0x3a,0x0c,0x52,0x50,0x47,0x3a,0x3a,0x4d,0x45,0x08,0x3a,0x0a,0x40,0x6e,0x61,0x6d,0x65,0x49,0x22,0x0c,0x66,0x61,0x6e,0x66,0x61,0x6c,0x65,0x06,0x3a,0x06,0x45,0x54,0x3a,0x0b,0x40,0x70,0x69,0x74,0x63,0x68,0x69,0x69,0x3a,0x0c,0x40,0x76,0x6f,0x6c,0x75,0x6d,0x65,0x69,0x69))
  ShowMessageFace("",0,0,2,9)
  ShowMessage("Eternal Forest Lv5 cleared!")
  RunCommonEvent(937)
  If(1,132,0,5,2)
   ChangeVariable(132,132,0,0,5)
   0()
  EndIf()
  JumpToLabel("脱出")
  EndEventProcessing()
  0()
 EndIf()
 0()
EndIf()
If(1,123,0,2,0)
 If(1,151,0,1,0)
  249(bytes(0x04,0x08,0x6f,0x3a,0x0c,0x52,0x50,0x47,0x3a,0x3a,0x4d,0x45,0x08,0x3a,0x0a,0x40,0x6e,0x61,0x6d,0x65,0x49,0x22,0x0c,0x66,0x61,0x6e,0x66,0x61,0x6c,0x65,0x06,0x3a,0x06,0x45,0x54,0x3a,0x0b,0x40,0x70,0x69,0x74,0x63,0x68,0x69,0x69,0x3a,0x0c,0x40,0x76,0x6f,0x6c,0x75,0x6d,0x65,0x69,0x69))
  ShowMessageFace("",0,0,2,10)
  ShowMessage("Carnage Hill Lv1 cleared!")
  RunCommonEvent(933)
  If(1,133,0,1,2)
   ChangeVariable(133,133,0,0,1)
   ShowMessageFace("",0,0,2,11)
   ShowMessage("Carnage Hill Lv2 unlocked!")
   0()
  EndIf()
  JumpToLabel("脱出")
  EndEventProcessing()
  0()
 EndIf()
 If(1,151,0,2,0)
  249(bytes(0x04,0x08,0x6f,0x3a,0x0c,0x52,0x50,0x47,0x3a,0x3a,0x4d,0x45,0x08,0x3a,0x0a,0x40,0x6e,0x61,0x6d,0x65,0x49,0x22,0x0c,0x66,0x61,0x6e,0x66,0x61,0x6c,0x65,0x06,0x3a,0x06,0x45,0x54,0x3a,0x0b,0x40,0x70,0x69,0x74,0x63,0x68,0x69,0x69,0x3a,0x0c,0x40,0x76,0x6f,0x6c,0x75,0x6d,0x65,0x69,0x69))
  ShowMessageFace("",0,0,2,12)
  ShowMessage("Carnage Hill Lv2 cleared!")
  RunCommonEvent(934)
  If(1,133,0,2,2)
   ChangeVariable(133,133,0,0,2)
   ShowMessageFace("",0,0,2,13)
   ShowMessage("Carnage Hill Lv3 unlocked!")
   0()
  EndIf()
  JumpToLabel("脱出")
  EndEventProcessing()
  0()
 EndIf()
 If(1,151,0,3,0)
  249(bytes(0x04,0x08,0x6f,0x3a,0x0c,0x52,0x50,0x47,0x3a,0x3a,0x4d,0x45,0x08,0x3a,0x0a,0x40,0x6e,0x61,0x6d,0x65,0x49,0x22,0x0c,0x66,0x61,0x6e,0x66,0x61,0x6c,0x65,0x06,0x3a,0x06,0x45,0x54,0x3a,0x0b,0x40,0x70,0x69,0x74,0x63,0x68,0x69,0x69,0x3a,0x0c,0x40,0x76,0x6f,0x6c,0x75,0x6d,0x65,0x69,0x69))
  ShowMessageFace("",0,0,2,14)
  ShowMessage("Carnage Hill Lv3 cleared!")
  RunCommonEvent(935)
  If(1,133,0,3,2)
   ChangeVariable(133,133,0,0,3)
   ShowMessageFace("",0,0,2,15)
   ShowMessage("Carnage Hill Lv4 unlocked!")
   0()
  EndIf()
  JumpToLabel("脱出")
  EndEventProcessing()
  0()
 EndIf()
 If(1,151,0,4,0)
  249(bytes(0x04,0x08,0x6f,0x3a,0x0c,0x52,0x50,0x47,0x3a,0x3a,0x4d,0x45,0x08,0x3a,0x0a,0x40,0x6e,0x61,0x6d,0x65,0x49,0x22,0x0c,0x66,0x61,0x6e,0x66,0x61,0x6c,0x65,0x06,0x3a,0x06,0x45,0x54,0x3a,0x0b,0x40,0x70,0x69,0x74,0x63,0x68,0x69,0x69,0x3a,0x0c,0x40,0x76,0x6f,0x6c,0x75,0x6d,0x65,0x69,0x69))
  ShowMessageFace("",0,0,2,16)
  ShowMessage("Carnage Hill Lv4 cleared!")
  RunCommonEvent(936)
  If(1,133,0,4,2)
   ChangeVariable(133,133,0,0,4)
   ShowMessageFace("",0,0,2,17)
   ShowMessage("Carnage Hill Lv5 unlocked!")
   0()
  EndIf()
  JumpToLabel("脱出")
  EndEventProcessing()
  0()
 EndIf()
 If(1,151,0,5,0)
  249(bytes(0x04,0x08,0x6f,0x3a,0x0c,0x52,0x50,0x47,0x3a,0x3a,0x4d,0x45,0x08,0x3a,0x0a,0x40,0x6e,0x61,0x6d,0x65,0x49,0x22,0x0c,0x66,0x61,0x6e,0x66,0x61,0x6c,0x65,0x06,0x3a,0x06,0x45,0x54,0x3a,0x0b,0x40,0x70,0x69,0x74,0x63,0x68,0x69,0x69,0x3a,0x0c,0x40,0x76,0x6f,0x6c,0x75,0x6d,0x65,0x69,0x69))
  ShowMessageFace("",0,0,2,18)
  ShowMessage("Carnage Hill Lv5 cleared!")
  RunCommonEvent(937)
  If(1,133,0,5,2)
   ChangeVariable(133,133,0,0,5)
   0()
  EndIf()
  JumpToLabel("脱出")
  EndEventProcessing()
  0()
 EndIf()
 0()
EndIf()
If(1,123,0,3,0)
 If(1,151,0,1,0)
  249(bytes(0x04,0x08,0x6f,0x3a,0x0c,0x52,0x50,0x47,0x3a,0x3a,0x4d,0x45,0x08,0x3a,0x0a,0x40,0x6e,0x61,0x6d,0x65,0x49,0x22,0x0c,0x66,0x61,0x6e,0x66,0x61,0x6c,0x65,0x06,0x3a,0x06,0x45,0x54,0x3a,0x0b,0x40,0x70,0x69,0x74,0x63,0x68,0x69,0x69,0x3a,0x0c,0x40,0x76,0x6f,0x6c,0x75,0x6d,0x65,0x69,0x69))
  ShowMessageFace("",0,0,2,19)
  ShowMessage("Sea of Truth Lv1 cleared!")
  RunCommonEvent(933)
  If(1,134,0,1,2)
   ChangeVariable(134,134,0,0,1)
   ShowMessageFace("",0,0,2,20)
   ShowMessage("Sea of Truth Lv2 unlocked!")
   0()
  EndIf()
  JumpToLabel("脱出")
  EndEventProcessing()
  0()
 EndIf()
 If(1,151,0,2,0)
  249(bytes(0x04,0x08,0x6f,0x3a,0x0c,0x52,0x50,0x47,0x3a,0x3a,0x4d,0x45,0x08,0x3a,0x0a,0x40,0x6e,0x61,0x6d,0x65,0x49,0x22,0x0c,0x66,0x61,0x6e,0x66,0x61,0x6c,0x65,0x06,0x3a,0x06,0x45,0x54,0x3a,0x0b,0x40,0x70,0x69,0x74,0x63,0x68,0x69,0x69,0x3a,0x0c,0x40,0x76,0x6f,0x6c,0x75,0x6d,0x65,0x69,0x69))
  ShowMessageFace("",0,0,2,21)
  ShowMessage("Sea of Truth Lv2 cleared!")
  RunCommonEvent(934)
  If(1,134,0,2,2)
   ChangeVariable(134,134,0,0,2)
   ShowMessageFace("",0,0,2,22)
   ShowMessage("Sea of Truth Lv3 unlocked!")
   0()
  EndIf()
  JumpToLabel("脱出")
  EndEventProcessing()
  0()
 EndIf()
 If(1,151,0,3,0)
  249(bytes(0x04,0x08,0x6f,0x3a,0x0c,0x52,0x50,0x47,0x3a,0x3a,0x4d,0x45,0x08,0x3a,0x0a,0x40,0x6e,0x61,0x6d,0x65,0x49,0x22,0x0c,0x66,0x61,0x6e,0x66,0x61,0x6c,0x65,0x06,0x3a,0x06,0x45,0x54,0x3a,0x0b,0x40,0x70,0x69,0x74,0x63,0x68,0x69,0x69,0x3a,0x0c,0x40,0x76,0x6f,0x6c,0x75,0x6d,0x65,0x69,0x69))
  ShowMessageFace("",0,0,2,23)
  ShowMessage("Sea of Truth Lv3 cleared!")
  RunCommonEvent(935)
  If(1,134,0,3,2)
   ChangeVariable(134,134,0,0,3)
   ShowMessageFace("",0,0,2,24)
   ShowMessage("Sea of Truth Lv4 unlocked!")
   0()
  EndIf()
  JumpToLabel("脱出")
  EndEventProcessing()
  0()
 EndIf()
 If(1,151,0,4,0)
  249(bytes(0x04,0x08,0x6f,0x3a,0x0c,0x52,0x50,0x47,0x3a,0x3a,0x4d,0x45,0x08,0x3a,0x0a,0x40,0x6e,0x61,0x6d,0x65,0x49,0x22,0x0c,0x66,0x61,0x6e,0x66,0x61,0x6c,0x65,0x06,0x3a,0x06,0x45,0x54,0x3a,0x0b,0x40,0x70,0x69,0x74,0x63,0x68,0x69,0x69,0x3a,0x0c,0x40,0x76,0x6f,0x6c,0x75,0x6d,0x65,0x69,0x69))
  ShowMessageFace("",0,0,2,25)
  ShowMessage("Sea of Truth Lv4 cleared!")
  RunCommonEvent(936)
  If(1,134,0,4,2)
   ChangeVariable(134,134,0,0,4)
   ShowMessageFace("",0,0,2,26)
   ShowMessage("Sea of Truth Lv5 unlocked!")
   0()
  EndIf()
  JumpToLabel("脱出")
  EndEventProcessing()
  0()
 EndIf()
 If(1,151,0,5,0)
  249(bytes(0x04,0x08,0x6f,0x3a,0x0c,0x52,0x50,0x47,0x3a,0x3a,0x4d,0x45,0x08,0x3a,0x0a,0x40,0x6e,0x61,0x6d,0x65,0x49,0x22,0x0c,0x66,0x61,0x6e,0x66,0x61,0x6c,0x65,0x06,0x3a,0x06,0x45,0x54,0x3a,0x0b,0x40,0x70,0x69,0x74,0x63,0x68,0x69,0x69,0x3a,0x0c,0x40,0x76,0x6f,0x6c,0x75,0x6d,0x65,0x69,0x69))
  ShowMessageFace("",0,0,2,27)
  ShowMessage("Sea of Truth Lv5 cleared!")
  RunCommonEvent(937)
  If(1,134,0,5,2)
   ChangeVariable(134,134,0,0,5)
   0()
  EndIf()
  JumpToLabel("脱出")
  EndEventProcessing()
  0()
 EndIf()
 0()
EndIf()
If(1,123,0,4,0)
 If(1,151,0,1,0)
  249(bytes(0x04,0x08,0x6f,0x3a,0x0c,0x52,0x50,0x47,0x3a,0x3a,0x4d,0x45,0x08,0x3a,0x0a,0x40,0x6e,0x61,0x6d,0x65,0x49,0x22,0x0c,0x66,0x61,0x6e,0x66,0x61,0x6c,0x65,0x06,0x3a,0x06,0x45,0x54,0x3a,0x0b,0x40,0x70,0x69,0x74,0x63,0x68,0x69,0x69,0x3a,0x0c,0x40,0x76,0x6f,0x6c,0x75,0x6d,0x65,0x69,0x69))
  ShowMessageFace("",0,0,2,28)
  ShowMessage("Oblivion Desert Lv1 cleared!")
  RunCommonEvent(933)
  If(1,135,0,1,2)
   ChangeVariable(135,135,0,0,1)
   ShowMessageFace("",0,0,2,29)
   ShowMessage("Oblivion Desert Lv2 unlocked!")
   0()
  EndIf()
  JumpToLabel("脱出")
  EndEventProcessing()
  0()
 EndIf()
 If(1,151,0,2,0)
  249(bytes(0x04,0x08,0x6f,0x3a,0x0c,0x52,0x50,0x47,0x3a,0x3a,0x4d,0x45,0x08,0x3a,0x0a,0x40,0x6e,0x61,0x6d,0x65,0x49,0x22,0x0c,0x66,0x61,0x6e,0x66,0x61,0x6c,0x65,0x06,0x3a,0x06,0x45,0x54,0x3a,0x0b,0x40,0x70,0x69,0x74,0x63,0x68,0x69,0x69,0x3a,0x0c,0x40,0x76,0x6f,0x6c,0x75,0x6d,0x65,0x69,0x69))
  ShowMessageFace("",0,0,2,30)
  ShowMessage("Oblivion Desert Lv2 cleared!")
  RunCommonEvent(934)
  If(1,135,0,2,2)
   ChangeVariable(135,135,0,0,2)
   ShowMessageFace("",0,0,2,31)
   ShowMessage("Oblivion Desert Lv3 unlocked!")
   0()
  EndIf()
  JumpToLabel("脱出")
  EndEventProcessing()
  0()
 EndIf()
 If(1,151,0,3,0)
  249(bytes(0x04,0x08,0x6f,0x3a,0x0c,0x52,0x50,0x47,0x3a,0x3a,0x4d,0x45,0x08,0x3a,0x0a,0x40,0x6e,0x61,0x6d,0x65,0x49,0x22,0x0c,0x66,0x61,0x6e,0x66,0x61,0x6c,0x65,0x06,0x3a,0x06,0x45,0x54,0x3a,0x0b,0x40,0x70,0x69,0x74,0x63,0x68,0x69,0x69,0x3a,0x0c,0x40,0x76,0x6f,0x6c,0x75,0x6d,0x65,0x69,0x69))
  ShowMessageFace("",0,0,2,32)
  ShowMessage("Oblivion Desert Lv3 cleared!")
  RunCommonEvent(935)
  If(1,135,0,3,2)
   ChangeVariable(135,135,0,0,3)
   ShowMessageFace("",0,0,2,33)
   ShowMessage("Oblivion Desert Lv4 unlocked!")
   0()
  EndIf()
  JumpToLabel("脱出")
  EndEventProcessing()
  0()
 EndIf()
 If(1,151,0,4,0)
  249(bytes(0x04,0x08,0x6f,0x3a,0x0c,0x52,0x50,0x47,0x3a,0x3a,0x4d,0x45,0x08,0x3a,0x0a,0x40,0x6e,0x61,0x6d,0x65,0x49,0x22,0x0c,0x66,0x61,0x6e,0x66,0x61,0x6c,0x65,0x06,0x3a,0x06,0x45,0x54,0x3a,0x0b,0x40,0x70,0x69,0x74,0x63,0x68,0x69,0x69,0x3a,0x0c,0x40,0x76,0x6f,0x6c,0x75,0x6d,0x65,0x69,0x69))
  ShowMessageFace("",0,0,2,34)
  ShowMessage("Oblivion Desert Lv4 cleared!")
  RunCommonEvent(936)
  If(1,135,0,4,2)
   ChangeVariable(135,135,0,0,4)
   ShowMessageFace("",0,0,2,35)
   ShowMessage("Oblivion Desert Lv5 unlocked!")
   0()
  EndIf()
  JumpToLabel("脱出")
  EndEventProcessing()
  0()
 EndIf()
 If(1,151,0,5,0)
  249(bytes(0x04,0x08,0x6f,0x3a,0x0c,0x52,0x50,0x47,0x3a,0x3a,0x4d,0x45,0x08,0x3a,0x0a,0x40,0x6e,0x61,0x6d,0x65,0x49,0x22,0x0c,0x66,0x61,0x6e,0x66,0x61,0x6c,0x65,0x06,0x3a,0x06,0x45,0x54,0x3a,0x0b,0x40,0x70,0x69,0x74,0x63,0x68,0x69,0x69,0x3a,0x0c,0x40,0x76,0x6f,0x6c,0x75,0x6d,0x65,0x69,0x69))
  ShowMessageFace("",0,0,2,36)
  ShowMessage("Oblivion Desert Lv5 cleared!")
  RunCommonEvent(937)
  If(1,135,0,5,2)
   ChangeVariable(135,135,0,0,5)
   0()
  EndIf()
  JumpToLabel("脱出")
  EndEventProcessing()
  0()
 EndIf()
 0()
EndIf()
If(1,123,0,5,0)
 If(1,151,0,1,0)
  249(bytes(0x04,0x08,0x6f,0x3a,0x0c,0x52,0x50,0x47,0x3a,0x3a,0x4d,0x45,0x08,0x3a,0x0a,0x40,0x6e,0x61,0x6d,0x65,0x49,0x22,0x0c,0x66,0x61,0x6e,0x66,0x61,0x6c,0x65,0x06,0x3a,0x06,0x45,0x54,0x3a,0x0b,0x40,0x70,0x69,0x74,0x63,0x68,0x69,0x69,0x3a,0x0c,0x40,0x76,0x6f,0x6c,0x75,0x6d,0x65,0x69,0x69))
  ShowMessageFace("",0,0,2,37)
  ShowMessage("Recursion Caverns Lv1 cleared!")
  RunCommonEvent(933)
  If(1,136,0,1,2)
   ChangeVariable(136,136,0,0,1)
   ShowMessageFace("",0,0,2,38)
   ShowMessage("Recursion Caverns Lv2 unlocked!")
   0()
  EndIf()
  JumpToLabel("脱出")
  EndEventProcessing()
  0()
 EndIf()
 If(1,151,0,2,0)
  249(bytes(0x04,0x08,0x6f,0x3a,0x0c,0x52,0x50,0x47,0x3a,0x3a,0x4d,0x45,0x08,0x3a,0x0a,0x40,0x6e,0x61,0x6d,0x65,0x49,0x22,0x0c,0x66,0x61,0x6e,0x66,0x61,0x6c,0x65,0x06,0x3a,0x06,0x45,0x54,0x3a,0x0b,0x40,0x70,0x69,0x74,0x63,0x68,0x69,0x69,0x3a,0x0c,0x40,0x76,0x6f,0x6c,0x75,0x6d,0x65,0x69,0x69))
  ShowMessageFace("",0,0,2,39)
  ShowMessage("Recursion Caverns Lv2 cleared!")
  RunCommonEvent(934)
  If(1,136,0,2,2)
   ChangeVariable(136,136,0,0,2)
   ShowMessageFace("",0,0,2,40)
   ShowMessage("Recursion Caverns Lv3 unlocked!")
   0()
  EndIf()
  JumpToLabel("脱出")
  EndEventProcessing()
  0()
 EndIf()
 If(1,151,0,3,0)
  249(bytes(0x04,0x08,0x6f,0x3a,0x0c,0x52,0x50,0x47,0x3a,0x3a,0x4d,0x45,0x08,0x3a,0x0a,0x40,0x6e,0x61,0x6d,0x65,0x49,0x22,0x0c,0x66,0x61,0x6e,0x66,0x61,0x6c,0x65,0x06,0x3a,0x06,0x45,0x54,0x3a,0x0b,0x40,0x70,0x69,0x74,0x63,0x68,0x69,0x69,0x3a,0x0c,0x40,0x76,0x6f,0x6c,0x75,0x6d,0x65,0x69,0x69))
  ShowMessageFace("",0,0,2,41)
  ShowMessage("Recursion Caverns Lv3 cleared!")
  RunCommonEvent(935)
  If(1,136,0,3,2)
   ChangeVariable(136,136,0,0,3)
   ShowMessageFace("",0,0,2,42)
   ShowMessage("Recursion Caverns Lv4 unlocked!")
   0()
  EndIf()
  JumpToLabel("脱出")
  EndEventProcessing()
  0()
 EndIf()
 If(1,151,0,4,0)
  249(bytes(0x04,0x08,0x6f,0x3a,0x0c,0x52,0x50,0x47,0x3a,0x3a,0x4d,0x45,0x08,0x3a,0x0a,0x40,0x6e,0x61,0x6d,0x65,0x49,0x22,0x0c,0x66,0x61,0x6e,0x66,0x61,0x6c,0x65,0x06,0x3a,0x06,0x45,0x54,0x3a,0x0b,0x40,0x70,0x69,0x74,0x63,0x68,0x69,0x69,0x3a,0x0c,0x40,0x76,0x6f,0x6c,0x75,0x6d,0x65,0x69,0x69))
  ShowMessageFace("",0,0,2,43)
  ShowMessage("Recursion Caverns Lv4 cleared!")
  RunCommonEvent(936)
  If(1,136,0,4,2)
   ChangeVariable(136,136,0,0,4)
   ShowMessageFace("",0,0,2,44)
   ShowMessage("Recursion Caverns Lv5 unlocked!")
   0()
  EndIf()
  JumpToLabel("脱出")
  EndEventProcessing()
  0()
 EndIf()
 If(1,151,0,5,0)
  249(bytes(0x04,0x08,0x6f,0x3a,0x0c,0x52,0x50,0x47,0x3a,0x3a,0x4d,0x45,0x08,0x3a,0x0a,0x40,0x6e,0x61,0x6d,0x65,0x49,0x22,0x0c,0x66,0x61,0x6e,0x66,0x61,0x6c,0x65,0x06,0x3a,0x06,0x45,0x54,0x3a,0x0b,0x40,0x70,0x69,0x74,0x63,0x68,0x69,0x69,0x3a,0x0c,0x40,0x76,0x6f,0x6c,0x75,0x6d,0x65,0x69,0x69))
  ShowMessageFace("",0,0,2,45)
  ShowMessage("Recursion Caverns Lv5 cleared!")
  RunCommonEvent(937)
  If(1,136,0,5,2)
   ChangeVariable(136,136,0,0,5)
   0()
  EndIf()
  JumpToLabel("脱出")
  EndEventProcessing()
  0()
 EndIf()
 0()
EndIf()
If(1,123,0,6,0)
 If(1,151,0,1,0)
  249(bytes(0x04,0x08,0x6f,0x3a,0x0c,0x52,0x50,0x47,0x3a,0x3a,0x4d,0x45,0x08,0x3a,0x0a,0x40,0x6e,0x61,0x6d,0x65,0x49,0x22,0x0c,0x66,0x61,0x6e,0x66,0x61,0x6c,0x65,0x06,0x3a,0x06,0x45,0x54,0x3a,0x0b,0x40,0x70,0x69,0x74,0x63,0x68,0x69,0x69,0x3a,0x0c,0x40,0x76,0x6f,0x6c,0x75,0x6d,0x65,0x69,0x69))
  ShowMessageFace("",0,0,2,46)
  ShowMessage("Phase Tower Lv1 cleared!")
  RunCommonEvent(933)
  If(1,137,0,1,2)
   ChangeVariable(137,137,0,0,1)
   ShowMessageFace("",0,0,2,47)
   ShowMessage("Phase Tower Lv2 unlocked!")
   0()
  EndIf()
  JumpToLabel("脱出")
  EndEventProcessing()
  0()
 EndIf()
 If(1,151,0,2,0)
  249(bytes(0x04,0x08,0x6f,0x3a,0x0c,0x52,0x50,0x47,0x3a,0x3a,0x4d,0x45,0x08,0x3a,0x0a,0x40,0x6e,0x61,0x6d,0x65,0x49,0x22,0x0c,0x66,0x61,0x6e,0x66,0x61,0x6c,0x65,0x06,0x3a,0x06,0x45,0x54,0x3a,0x0b,0x40,0x70,0x69,0x74,0x63,0x68,0x69,0x69,0x3a,0x0c,0x40,0x76,0x6f,0x6c,0x75,0x6d,0x65,0x69,0x69))
  ShowMessageFace("",0,0,2,48)
  ShowMessage("Phase Tower Lv2 cleared!")
  RunCommonEvent(934)
  If(1,137,0,2,2)
   ChangeVariable(137,137,0,0,2)
   ShowMessageFace("",0,0,2,49)
   ShowMessage("Phase Tower Lv3 unlocked!")
   0()
  EndIf()
  JumpToLabel("脱出")
  EndEventProcessing()
  0()
 EndIf()
 If(1,151,0,3,0)
  249(bytes(0x04,0x08,0x6f,0x3a,0x0c,0x52,0x50,0x47,0x3a,0x3a,0x4d,0x45,0x08,0x3a,0x0a,0x40,0x6e,0x61,0x6d,0x65,0x49,0x22,0x0c,0x66,0x61,0x6e,0x66,0x61,0x6c,0x65,0x06,0x3a,0x06,0x45,0x54,0x3a,0x0b,0x40,0x70,0x69,0x74,0x63,0x68,0x69,0x69,0x3a,0x0c,0x40,0x76,0x6f,0x6c,0x75,0x6d,0x65,0x69,0x69))
  ShowMessageFace("",0,0,2,50)
  ShowMessage("Phase Tower Lv3 cleared!")
  RunCommonEvent(935)
  If(1,137,0,3,2)
   ChangeVariable(137,137,0,0,3)
   ShowMessageFace("",0,0,2,51)
   ShowMessage("Phase Tower Lv4 unlocked!")
   0()
  EndIf()
  JumpToLabel("脱出")
  EndEventProcessing()
  0()
 EndIf()
 If(1,151,0,4,0)
  249(bytes(0x04,0x08,0x6f,0x3a,0x0c,0x52,0x50,0x47,0x3a,0x3a,0x4d,0x45,0x08,0x3a,0x0a,0x40,0x6e,0x61,0x6d,0x65,0x49,0x22,0x0c,0x66,0x61,0x6e,0x66,0x61,0x6c,0x65,0x06,0x3a,0x06,0x45,0x54,0x3a,0x0b,0x40,0x70,0x69,0x74,0x63,0x68,0x69,0x69,0x3a,0x0c,0x40,0x76,0x6f,0x6c,0x75,0x6d,0x65,0x69,0x69))
  ShowMessageFace("",0,0,2,52)
  ShowMessage("Phase Tower Lv4 cleared!")
  RunCommonEvent(936)
  If(1,137,0,4,2)
   ChangeVariable(137,137,0,0,4)
   ShowMessageFace("",0,0,2,53)
   ShowMessage("Phase Tower Lv5 unlocked!")
   0()
  EndIf()
  JumpToLabel("脱出")
  EndEventProcessing()
  0()
 EndIf()
 If(1,151,0,5,0)
  249(bytes(0x04,0x08,0x6f,0x3a,0x0c,0x52,0x50,0x47,0x3a,0x3a,0x4d,0x45,0x08,0x3a,0x0a,0x40,0x6e,0x61,0x6d,0x65,0x49,0x22,0x0c,0x66,0x61,0x6e,0x66,0x61,0x6c,0x65,0x06,0x3a,0x06,0x45,0x54,0x3a,0x0b,0x40,0x70,0x69,0x74,0x63,0x68,0x69,0x69,0x3a,0x0c,0x40,0x76,0x6f,0x6c,0x75,0x6d,0x65,0x69,0x69))
  ShowMessageFace("",0,0,2,54)
  ShowMessage("Phase Tower Lv5 cleared!")
  RunCommonEvent(937)
  If(1,137,0,5,2)
   ChangeVariable(137,137,0,0,5)
   0()
  EndIf()
  JumpToLabel("脱出")
  EndEventProcessing()
  0()
 EndIf()
 0()
EndIf()
If(1,123,0,7,0)
 If(1,151,0,1,0)
  249(bytes(0x04,0x08,0x6f,0x3a,0x0c,0x52,0x50,0x47,0x3a,0x3a,0x4d,0x45,0x08,0x3a,0x0a,0x40,0x6e,0x61,0x6d,0x65,0x49,0x22,0x0c,0x66,0x61,0x6e,0x66,0x61,0x6c,0x65,0x06,0x3a,0x06,0x45,0x54,0x3a,0x0b,0x40,0x70,0x69,0x74,0x63,0x68,0x69,0x69,0x3a,0x0c,0x40,0x76,0x6f,0x6c,0x75,0x6d,0x65,0x69,0x69))
  ShowMessageFace("",0,0,2,55)
  ShowMessage("Town of Demise Lv1 cleared!")
  RunCommonEvent(933)
  If(1,138,0,1,2)
   ChangeVariable(138,138,0,0,1)
   ShowMessageFace("",0,0,2,56)
   ShowMessage("Town of Demise Lv2 unlocked!")
   0()
  EndIf()
  JumpToLabel("脱出")
  EndEventProcessing()
  0()
 EndIf()
 If(1,151,0,2,0)
  249(bytes(0x04,0x08,0x6f,0x3a,0x0c,0x52,0x50,0x47,0x3a,0x3a,0x4d,0x45,0x08,0x3a,0x0a,0x40,0x6e,0x61,0x6d,0x65,0x49,0x22,0x0c,0x66,0x61,0x6e,0x66,0x61,0x6c,0x65,0x06,0x3a,0x06,0x45,0x54,0x3a,0x0b,0x40,0x70,0x69,0x74,0x63,0x68,0x69,0x69,0x3a,0x0c,0x40,0x76,0x6f,0x6c,0x75,0x6d,0x65,0x69,0x69))
  ShowMessageFace("",0,0,2,57)
  ShowMessage("Town of Demise Lv2 cleared!")
  RunCommonEvent(934)
  If(1,138,0,2,2)
   ChangeVariable(138,138,0,0,2)
   ShowMessageFace("",0,0,2,58)
   ShowMessage("Town of Demise Lv3 unlocked!")
   0()
  EndIf()
  JumpToLabel("脱出")
  EndEventProcessing()
  0()
 EndIf()
 If(1,151,0,3,0)
  249(bytes(0x04,0x08,0x6f,0x3a,0x0c,0x52,0x50,0x47,0x3a,0x3a,0x4d,0x45,0x08,0x3a,0x0a,0x40,0x6e,0x61,0x6d,0x65,0x49,0x22,0x0c,0x66,0x61,0x6e,0x66,0x61,0x6c,0x65,0x06,0x3a,0x06,0x45,0x54,0x3a,0x0b,0x40,0x70,0x69,0x74,0x63,0x68,0x69,0x69,0x3a,0x0c,0x40,0x76,0x6f,0x6c,0x75,0x6d,0x65,0x69,0x69))
  ShowMessageFace("",0,0,2,59)
  ShowMessage("Town of Demise Lv3 cleared!")
  RunCommonEvent(935)
  If(1,138,0,3,2)
   ChangeVariable(138,138,0,0,3)
   ShowMessageFace("",0,0,2,60)
   ShowMessage("Town of Demise Lv4 unlocked!")
   0()
  EndIf()
  JumpToLabel("脱出")
  EndEventProcessing()
  0()
 EndIf()
 If(1,151,0,4,0)
  249(bytes(0x04,0x08,0x6f,0x3a,0x0c,0x52,0x50,0x47,0x3a,0x3a,0x4d,0x45,0x08,0x3a,0x0a,0x40,0x6e,0x61,0x6d,0x65,0x49,0x22,0x0c,0x66,0x61,0x6e,0x66,0x61,0x6c,0x65,0x06,0x3a,0x06,0x45,0x54,0x3a,0x0b,0x40,0x70,0x69,0x74,0x63,0x68,0x69,0x69,0x3a,0x0c,0x40,0x76,0x6f,0x6c,0x75,0x6d,0x65,0x69,0x69))
  ShowMessageFace("",0,0,2,61)
  ShowMessage("Town of Demise Lv4 cleared!")
  RunCommonEvent(936)
  If(1,138,0,4,2)
   ChangeVariable(138,138,0,0,4)
   ShowMessageFace("",0,0,2,62)
   ShowMessage("Town of Demise Lv5 unlocked!")
   0()
  EndIf()
  JumpToLabel("脱出")
  EndEventProcessing()
  0()
 EndIf()
 If(1,151,0,5,0)
  249(bytes(0x04,0x08,0x6f,0x3a,0x0c,0x52,0x50,0x47,0x3a,0x3a,0x4d,0x45,0x08,0x3a,0x0a,0x40,0x6e,0x61,0x6d,0x65,0x49,0x22,0x0c,0x66,0x61,0x6e,0x66,0x61,0x6c,0x65,0x06,0x3a,0x06,0x45,0x54,0x3a,0x0b,0x40,0x70,0x69,0x74,0x63,0x68,0x69,0x69,0x3a,0x0c,0x40,0x76,0x6f,0x6c,0x75,0x6d,0x65,0x69,0x69))
  ShowMessageFace("",0,0,2,63)
  ShowMessage("Town of Demise Lv5 cleared!")
  RunCommonEvent(937)
  If(1,138,0,5,2)
   ChangeVariable(138,138,0,0,5)
   0()
  EndIf()
  JumpToLabel("脱出")
  EndEventProcessing()
  0()
 EndIf()
 0()
EndIf()
If(1,123,0,8,0)
 If(1,151,0,1,0)
  249(bytes(0x04,0x08,0x6f,0x3a,0x0c,0x52,0x50,0x47,0x3a,0x3a,0x4d,0x45,0x08,0x3a,0x0a,0x40,0x6e,0x61,0x6d,0x65,0x49,0x22,0x0c,0x66,0x61,0x6e,0x66,0x61,0x6c,0x65,0x06,0x3a,0x06,0x45,0x54,0x3a,0x0b,0x40,0x70,0x69,0x74,0x63,0x68,0x69,0x69,0x3a,0x0c,0x40,0x76,0x6f,0x6c,0x75,0x6d,0x65,0x69,0x69))
  ShowMessageFace("",0,0,2,64)
  ShowMessage("Infinite Chaos Lv1 cleared!")
  RunCommonEvent(933)
  If(1,139,0,1,2)
   ChangeVariable(139,139,0,0,1)
   ShowMessageFace("",0,0,2,65)
   ShowMessage("Infinite Chaos Lv2 unlocked!")
   0()
  EndIf()
  JumpToLabel("脱出")
  EndEventProcessing()
  0()
 EndIf()
 If(1,151,0,2,0)
  249(bytes(0x04,0x08,0x6f,0x3a,0x0c,0x52,0x50,0x47,0x3a,0x3a,0x4d,0x45,0x08,0x3a,0x0a,0x40,0x6e,0x61,0x6d,0x65,0x49,0x22,0x0c,0x66,0x61,0x6e,0x66,0x61,0x6c,0x65,0x06,0x3a,0x06,0x45,0x54,0x3a,0x0b,0x40,0x70,0x69,0x74,0x63,0x68,0x69,0x69,0x3a,0x0c,0x40,0x76,0x6f,0x6c,0x75,0x6d,0x65,0x69,0x69))
  ShowMessageFace("",0,0,2,66)
  ShowMessage("Infinite Chaos Lv2 cleared!")
  RunCommonEvent(934)
  If(1,139,0,2,2)
   ChangeVariable(139,139,0,0,2)
   ShowMessageFace("",0,0,2,67)
   ShowMessage("Infinite Chaos Lv3 unlocked!")
   0()
  EndIf()
  JumpToLabel("脱出")
  EndEventProcessing()
  0()
 EndIf()
 If(1,151,0,3,0)
  249(bytes(0x04,0x08,0x6f,0x3a,0x0c,0x52,0x50,0x47,0x3a,0x3a,0x4d,0x45,0x08,0x3a,0x0a,0x40,0x6e,0x61,0x6d,0x65,0x49,0x22,0x0c,0x66,0x61,0x6e,0x66,0x61,0x6c,0x65,0x06,0x3a,0x06,0x45,0x54,0x3a,0x0b,0x40,0x70,0x69,0x74,0x63,0x68,0x69,0x69,0x3a,0x0c,0x40,0x76,0x6f,0x6c,0x75,0x6d,0x65,0x69,0x69))
  ShowMessageFace("",0,0,2,68)
  ShowMessage("Infinite Chaos Lv3 cleared!")
  RunCommonEvent(935)
  If(1,139,0,3,2)
   ChangeVariable(139,139,0,0,3)
   ShowMessageFace("",0,0,2,69)
   ShowMessage("Infinite Chaos Lv4 unlocked!")
   0()
  EndIf()
  JumpToLabel("脱出")
  EndEventProcessing()
  0()
 EndIf()
 If(1,151,0,4,0)
  249(bytes(0x04,0x08,0x6f,0x3a,0x0c,0x52,0x50,0x47,0x3a,0x3a,0x4d,0x45,0x08,0x3a,0x0a,0x40,0x6e,0x61,0x6d,0x65,0x49,0x22,0x0c,0x66,0x61,0x6e,0x66,0x61,0x6c,0x65,0x06,0x3a,0x06,0x45,0x54,0x3a,0x0b,0x40,0x70,0x69,0x74,0x63,0x68,0x69,0x69,0x3a,0x0c,0x40,0x76,0x6f,0x6c,0x75,0x6d,0x65,0x69,0x69))
  ShowMessageFace("",0,0,2,70)
  ShowMessage("Infinite Chaos Lv4 cleared!")
  RunCommonEvent(936)
  If(1,139,0,4,2)
   ChangeVariable(139,139,0,0,4)
   ShowMessageFace("",0,0,2,71)
   ShowMessage("Infinite Chaos Lv5 unlocked!")
   0()
  EndIf()
  JumpToLabel("脱出")
  EndEventProcessing()
  0()
 EndIf()
 If(1,151,0,5,0)
  249(bytes(0x04,0x08,0x6f,0x3a,0x0c,0x52,0x50,0x47,0x3a,0x3a,0x4d,0x45,0x08,0x3a,0x0a,0x40,0x6e,0x61,0x6d,0x65,0x49,0x22,0x0c,0x66,0x61,0x6e,0x66,0x61,0x6c,0x65,0x06,0x3a,0x06,0x45,0x54,0x3a,0x0b,0x40,0x70,0x69,0x74,0x63,0x68,0x69,0x69,0x3a,0x0c,0x40,0x76,0x6f,0x6c,0x75,0x6d,0x65,0x69,0x69))
  ShowMessageFace("",0,0,2,72)
  ShowMessage("Infinite Chaos Lv5 cleared!")
  RunCommonEvent(937)
  If(1,139,0,5,2)
   ChangeVariable(139,139,0,0,5)
   0()
  EndIf()
  JumpToLabel("脱出")
  EndEventProcessing()
  0()
 EndIf()
 0()
EndIf()
DefineLabel("脱出")
221()
242(1)
Wait(60)
RunCommonEvent(902)
250(bytes(0x04,0x08,0x6f,0x3a,0x0c,0x52,0x50,0x47,0x3a,0x3a,0x53,0x45,0x08,0x3a,0x0a,0x40,0x6e,0x61,0x6d,0x65,0x49,0x22,0x09,0x4d,0x6f,0x76,0x65,0x06,0x3a,0x06,0x45,0x54,0x3a,0x0b,0x40,0x70,0x69,0x74,0x63,0x68,0x69,0x69,0x3a,0x0c,0x40,0x76,0x6f,0x6c,0x75,0x6d,0x65,0x69,0x55))
Wait(60)
TeleportPlayer(0,644,18,11,2,2)
222()
EndEventProcessing()
0()
