// EVENT 5292
Name "Emily 2"

PictureDisplay(5,"80_emily_st02",0,0,0,0,100,100,0,0)
PictureMove(5,null,0,0,0,0,100,100,255,0,30,true)
ShowMessageFace("emily_fc1",0,0,2,1)
ShowMessage("\\n<Emily>")
ShowMessage("Eh, you want me to make you feel good?")
ShowMessageFace("",0,0,2,2)
ShowMessage("\\n<Luka>")
ShowMessage("Y-Yes please...")
ShowMessageFace("emily_fc1",2,0,2,3)
ShowMessage("\\n<Emily>")
ShowMessage("Well then, I'll do plenty of things.")
ShowMessage("I'll make you Emily's toy♪")
241(bytes(0x04,0x08,0x6f,0x3a,0x0d,0x52,0x50,0x47,0x3a,0x3a,0x42,0x47,0x4d,0x08,0x3a,0x0a,0x40,0x6e,0x61,0x6d,0x65,0x49,0x22,0x09,0x65,0x72,0x6f,0x31,0x06,0x3a,0x06,0x45,0x54,0x3a,0x0c,0x40,0x76,0x6f,0x6c,0x75,0x6d,0x65,0x69,0x69,0x3a,0x0b,0x40,0x70,0x69,0x74,0x63,0x68,0x69,0x69))
250(bytes(0x04,0x08,0x6f,0x3a,0x0c,0x52,0x50,0x47,0x3a,0x3a,0x53,0x45,0x08,0x3a,0x0a,0x40,0x6e,0x61,0x6d,0x65,0x49,0x22,0x16,0x6d,0x6f,0x6e,0x5f,0x65,0x72,0x6f,0x5f,0x6d,0x61,0x6b,0x69,0x74,0x75,0x6b,0x69,0x33,0x06,0x3a,0x06,0x45,0x54,0x3a,0x0b,0x40,0x70,0x69,0x74,0x63,0x68,0x69,0x69,0x3a,0x0c,0x40,0x76,0x6f,0x6c,0x75,0x6d,0x65,0x69,0x69))
245(bytes(0x04,0x08,0x6f,0x3a,0x0d,0x52,0x50,0x47,0x3a,0x3a,0x42,0x47,0x53,0x08,0x3a,0x0a,0x40,0x6e,0x61,0x6d,0x65,0x49,0x22,0x1a,0x6d,0x6f,0x6e,0x5f,0x68,0x73,0x65,0x61,0x6e,0x32,0x31,0x5f,0x74,0x65,0x6e,0x74,0x61,0x63,0x6c,0x65,0x32,0x06,0x3a,0x06,0x45,0x54,0x3a,0x0c,0x40,0x76,0x6f,0x6c,0x75,0x6d,0x65,0x69,0x55,0x3a,0x0b,0x40,0x70,0x69,0x74,0x63,0x68,0x69,0x69))
PictureDisplay(5,"ev_emily_h1",0,0,0,0,100,100,255,0)
ShowMessageFace("",0,0,2,4)
ShowMessage("Tentacles from Emily's lower body shoot toward my body, coiling around me.")
ShowMessage("Like that, she drags me underneath her, and leaves me unable to move.")
ShowMessageFace("emily_fc1",2,0,2,5)
ShowMessage("\\n<Emily>")
ShowMessage("Wahaha, Emily's tentacles are aaaallll around you! ♪")
ShowMessage("You look so silly lying there!")
ShowMessageFace("emily_fc1",2,0,2,6)
ShowMessage("\\n<Emily>")
ShowMessage("So this is what a Hero looks like? How stupid! ♪")
ShowMessageFace("",0,0,2,7)
ShowMessage("Emily looks at me and laughs.")
ShowMessageFace("emily_fc1",2,0,2,8)
ShowMessage("\\n<Emily>")
ShowMessage("Emily is going to test your penis now.")
ShowMessage("What kinds of things will make it come? How much will it shoot out?")
ShowMessageFace("emily_fc1",2,0,2,9)
ShowMessage("\\n<Emily>")
ShowMessage("In other words, Emily is going to make you come over and over again!")
ShowMessage("Doesn't that make you happy? Wahaha! ♪")
ShowMessageFace("",0,0,2,10)
ShowMessage("\\n<Luka>")
ShowMessage("N...no... Don't...")
ShowMessageFace("emily_fc1",2,0,2,11)
ShowMessage("\\n<Emily>")
ShowMessage("But games are so much more fun when the winner gets something!")
ShowMessage("I know, Emily will make a rule!")
ShowMessageFace("emily_fc1",2,0,2,12)
ShowMessage("\\n<Emily>")
ShowMessage("If you can endure Emily's playing for five minutes, Emily will let you go!")
ShowMessage("But if you don't, then Emily gets to keep going! The time resets with each ejaculation!")
ShowMessageFace("",0,0,2,13)
ShowMessage("\\n<Luka>")
ShowMessage("Y...You're lying... You won't let me go even if I do...")
ShowMessageFace("",0,0,2,14)
ShowMessage("She would never do that... She's just toying with me, isn't she?")
ShowMessage("But if she isn't...")
ShowMessageFace("emily_fc1",2,0,2,15)
ShowMessage("\\n<Emily>")
ShowMessage("Emily never lies!")
ShowMessage("You'll ejaculate over and over again, so you'll get a lot of chances!")
ShowMessageFace("emily_fc1",2,0,2,16)
ShowMessage("\\n<Emily>")
ShowMessage("If you can do it before Emily gets bored with you, Emily will let you go!")
ShowMessageFace("",0,0,2,17)
ShowMessage("Emily giggles as she looks at me.")
ShowMessage("It's like she's just an innocent little girl playing with a doll...")
ShowMessageFace("emily_fc1",2,0,2,18)
ShowMessage("\\n<Emily>")
ShowMessage("But... If Emily gets tired of you before you ever manage to hold on for five minutes...")
ShowMessage("Emily will just have to kill the owner of such a useless penis.")
ShowMessageFace("emily_fc1",2,0,2,19)
ShowMessage("\\n<Emily>")
ShowMessage("Emily will squeeze out your semen with no stopping until you die! ♪")
ShowMessageFace("",0,0,2,20)
ShowMessage("\\n<Luka>")
ShowMessage("N...no... Don't...")
ShowMessageFace("emily_fc1",2,0,2,21)
ShowMessage("\\n<Emily>")
ShowMessage("If you don't want that, you just need to hold on!")
ShowMessage("It's only five minutes, so you should be able to do it.")
ShowMessageFace("emily_fc1",2,0,2,22)
ShowMessage("\\n<Emily>")
ShowMessage("All right, it's time for Emily's game to start.")
ShowMessage("Emily will try her best, so you should too! ♪")
PictureDisplay(6,"ev_emily_ct01",0,0,0,0,100,100,255,0)
ShowMessageFace("",0,0,2,23)
ShowMessage("Her slimy tentacle coils around my penis, wasting no time in starting to stroke me.")
ShowMessageFace("",0,0,2,24)
ShowMessage("\\n<Luka>")
ShowMessage("Ah, auuu...")
ShowMessageFace("emily_fc1",2,0,2,25)
ShowMessage("\\n<Emily>")
ShowMessage("Wow, already moaning like that right from the start?")
ShowMessage("Emily doesn't think you will do too well in this game...")
ShowMessageFace("",0,0,2,26)
ShowMessage("Her tentacle slowly coils tighter around my penis, covering me with warm slime as it moves.")
ShowMessageFace("",0,0,2,27)
ShowMessage("I resist the feeling with all of my might.")
ShowMessage("All I need to do is endure this, and I can save myself.")
ShowMessageFace("",0,0,2,28)
ShowMessage("\\n<Luka>")
ShowMessage("Urhg...")
ShowMessageFace("emily_fc1",2,0,2,29)
ShowMessage("\\n<Emily>")
ShowMessage("Wahaha, endure it, endure it!")
ShowMessage("You can see the clock on the wall, it's just five minutes!")
ShowMessageFace("emily_fc1",2,0,2,30)
ShowMessage("\\n<Emily>")
ShowMessage("Emily doesn't want to lose either, so Emily will do her best! ♪")
ShowMessageFace("",0,0,2,31)
ShowMessage("The tentacle around my penis slowly gets tighter and tighter, increasing the stimulation more and more.")
ShowMessageFace("",0,0,2,32)
ShowMessage("\\n<Luka>")
ShowMessage("Ah... Urhg...")
ShowMessageFace("emily_fc1",2,0,2,33)
ShowMessage("\\n<Emily>")
ShowMessage("First is a tightness test!")
ShowMessage("How long can your penis take being squeezed by Emily's tentacles...?")
ShowMessageFace("",0,0,2,34)
ShowMessage("\\n<Luka>")
ShowMessage("Haaa...!")
ShowMessageFace("",0,0,2,35)
ShowMessage("Her squishy tentacle slowly squeezes harder and harder around me.")
ShowMessageFace("",0,0,2,36)
ShowMessage("The small tip of her tentacle coils around the tip of my penis, gently squeezing me.")
ShowMessage("As she squeezes my tip, I unintentionally let out a moan.")
ShowMessageFace("",0,0,2,37)
ShowMessage("\\n<Luka>")
ShowMessage("Ah, aaaah...!!")
ShowMessageFace("emily_fc1",2,0,2,38)
ShowMessage("\\n<Emily>")
ShowMessage("Wahaha, what's with that voice?")
ShowMessage("Are you about to come just from this?")
ShowMessageFace("emily_fc1",2,0,2,39)
ShowMessage("\\n<Emily>")
ShowMessage("Even boys smaller than you don't come this quickly...")
ShowMessageFace("",0,0,2,40)
ShowMessage("\\n<Luka>")
ShowMessage("Urhg...")
ShowMessageFace("",0,0,2,41)
ShowMessage("I grit my teeth and do everything to deny the pleasure filling my lower body.")
ShowMessage("The numbness spreads through me, breaking down my desperate resistance.")
ShowMessageFace("",0,0,2,42)
ShowMessage("More and more, the desire to release erodes the rest of my thoughts, wanting to give in to her tentacle.")
ShowMessageFace("",0,0,2,43)
ShowMessage("\\n<Luka>")
ShowMessage("Ahhgg... I... I can't...")
ShowMessageFace("emily_fc1",2,0,2,44)
ShowMessage("\\n<Emily>")
ShowMessage("Wahaha, what the heck?")
ShowMessage("Forget five minutes, you're barely past a minute...")
ShowMessageFace("",0,0,2,45)
ShowMessage("Emily laughs at me as she increases the pressure from her tentacle even further.")
ShowMessage("I can't take it...")
ShowMessageFace("",0,0,2,46)
ShowMessage("With tears in my eyes, I feel my body betraying me and giving in to her.")
ShowMessageFace("",0,0,2,47)
ShowMessage("\\n<Luka>")
ShowMessage("No...! I'm coming...!")
ShowMessageFace("",0,0,2,48)
ShowMessage("The moment my heart surrenders to her, my penis starts to twitch.")
ShowMessage("Exploding in ecstasy, I submit to her tentacle.")
RunCommonEvent(104)
PictureDisplay(5,"ev_emily_h2",0,0,0,0,100,100,255,0)
PictureDisplay(6,"ev_emily_ct02",0,0,0,0,100,100,255,0)
RunCommonEvent(105)
ShowMessageFace("",0,0,2,49)
ShowMessage("As her tentacle squeezes me, I shoot my semen into the air.")
ShowMessage("It's as if it's a white flag of surrender, proof of my submission to her.")
ShowMessageFace("",0,0,2,50)
ShowMessage("I miserably let out a sigh as the afterglow from my orgasm fills me, just adding to the humiliation of it all.")
ShowMessageFace("",0,0,2,51)
ShowMessage("\\n<Luka>")
ShowMessage("Hnnaaa...")
ShowMessageFace("emily_fc1",2,0,2,52)
ShowMessage("\\n<Emily>")
ShowMessage("Awwww... Already?")
ShowMessage("Is your penis broken or something? It wasn't even that tight, but that was enough for you...?")
ShowMessageFace("emily_fc1",2,0,2,53)
ShowMessage("\\n<Emily>")
ShowMessage("So that's a Hero's penis? How pitiful! ♪")
ShowMessageFace("",0,0,2,54)
ShowMessage("Emily looks down at me and giggles.")
ShowMessageFace("emily_fc1",2,0,2,55)
ShowMessage("\\n<Emily>")
ShowMessage("Emily will get bored really quick if you come that fast...")
ShowMessage("You better try harder, or this will be a short game...")
ShowMessageFace("",0,0,2,56)
ShowMessage("\\n<Luka>")
ShowMessage("N...no... Don't do that...")
ShowMessageFace("emily_fc1",2,0,2,57)
ShowMessage("\\n<Emily>")
ShowMessage("That's right, you don't want that, right?")
ShowMessage("Emily wants to have fun with this game too, so you need to try harder♪")
ShowMessageFace("",0,0,2,58)
ShowMessage("Starting again, Emily's tentacle around my penis squeezes me again.")
ShowMessageFace("",0,0,2,59)
ShowMessage("\\n<Luka>")
ShowMessage("Ah, unnngh...")
ShowMessageFace("emily_fc1",2,0,2,60)
ShowMessage("\\n<Emily>")
ShowMessage("It's time to start the testing again...")
ShowMessage("Emily will do her best!")
ShowMessageFace("",0,0,2,61)
ShowMessage("She tightens around the base of my penis, and starts to slowly move upwards in a wave motion.")
ShowMessageFace("",0,0,2,62)
ShowMessage("Up and down, it feels like a wave of pleasure is racing up and down my penis even though her tentacles aren't even moving.")
ShowMessageFace("",0,0,2,63)
ShowMessage("\\n<Luka>")
ShowMessage("Ah, auuuu!")
ShowMessage("That feels good...")
ShowMessageFace("emily_fc1",2,0,2,64)
ShowMessage("\\n<Emily>")
ShowMessage("Emily will test how long you can endure a tentacle massage!")
ShowMessageFace("",0,0,2,65)
ShowMessage("Her tentacles continue to tighten and loosen in a wave.")
ShowMessage("I start to gasp in pleasure with every motion she makes.")
ShowMessageFace("",0,0,2,66)
ShowMessage("I have to endure this... My life depends on it...")
ShowMessage("Even though I know that, it doesn't feel like my body will let me...")
ShowMessageFace("",0,0,2,67)
ShowMessage("\\n<Luka>")
ShowMessage("Urhg... Ahh...")
ShowMessageFace("emily_fc1",2,0,2,68)
ShowMessage("\\n<Emily>")
ShowMessage("Sheesh, are you already struggling?")
ShowMessage("Your penis is just like a little boy's, really sensitive.")
ShowMessageFace("emily_fc1",2,0,2,69)
ShowMessage("\\n<Emily>")
ShowMessage("Aren't you ashamed you can't endure it a little longer?")
ShowMessage("At this rate, you'll actually be even more pitiful than a child...")
ShowMessageFace("",0,0,2,70)
ShowMessage("As Emily teases me with words, her tentacle continues to massage me.")
ShowMessage("Reacting to the stimulation, I can't stop my body from bouncing upwards with each wave motion from her tentacle.")
ShowMessageFace("",0,0,2,71)
ShowMessage("The pathetic shaking of my waist just adds to the stimulation.")
ShowMessageFace("emily_fc1",2,0,2,72)
ShowMessage("\\n<Emily>")
ShowMessage("Ahh, geez... You're shaking your waist all over the place.")
ShowMessage("Is it just your male instinct taking over?")
ShowMessageFace("emily_fc1",2,0,2,73)
ShowMessage("\\n<Emily>")
ShowMessage("Do you think you're actually having sex with Emily or something?")
ShowMessage("Emily's just using her tentacles to play with you, though♪")
ShowMessageFace("",0,0,2,74)
ShowMessage("Up and down... The milking wave motion from her tightening and loosening continues.")
ShowMessage("I look over at the clock with hope, but see it hasn't even been three minutes.")
ShowMessageFace("",0,0,2,75)
ShowMessage("Realizing that there's no way I can hold on, I relax and give myself over to the pleasure.")
ShowMessageFace("",0,0,2,76)
ShowMessage("\\n<Luka>")
ShowMessage("Unnngh...That feels so good...")
ShowMessage("I'm going to come...")
ShowMessageFace("emily_fc1",2,0,2,77)
ShowMessage("\\n<Emily>")
ShowMessage("Sheesh, it hasn't even been three minutes and you're already going to come again?")
ShowMessageFace("emily_fc1",2,0,2,78)
ShowMessage("\\n<Emily>")
ShowMessage("You lose the round as soon as you come, you know.")
ShowMessage("Emily will win as soon as that penis of yours twitches and explodes! ♪")
ShowMessageFace("",0,0,2,79)
ShowMessage("The wave motion from her gets even faster, milking me without holding anything back.")
ShowMessageFace("",0,0,2,80)
ShowMessage("As I gasp in pleasure from her tentacle massage, I push my waist up toward her as the orgasm of my loss blows through me.")
RunCommonEvent(104)
PictureDisplay(5,"ev_emily_h3",0,0,0,0,100,100,255,0)
PictureDisplay(6,"ev_emily_ct03",0,0,0,0,100,100,255,0)
RunCommonEvent(105)
ShowMessageFace("",0,0,2,81)
ShowMessage("\\n<Luka>")
ShowMessage("Hnnaaa...")
ShowMessageFace("",0,0,2,82)
ShowMessage("My semen is milked out of me, spewing out onto her tentacle.")
ShowMessage("In the end, I couldn't endure it that time either...")
ShowMessageFace("emily_fc1",2,0,2,83)
ShowMessage("\\n<Emily>")
ShowMessage("Awww, you came again.")
ShowMessage("You're even worse than a little boy!")
ShowMessageFace("emily_fc1",2,0,2,84)
ShowMessage("\\n<Emily>")
ShowMessage("Since you're coming so quickly, does that mean you want Emily to kill you?")
ShowMessageFace("",0,0,2,85)
ShowMessage("Emily continues to massage me with her tentacle as she scolds me like a child.")
PictureDisplay(6,"ev_emily_ct04",0,0,0,0,100,100,255,0)
ShowMessageFace("",0,0,2,86)
ShowMessage("Suddenly, even more tentacles coil around my penis.")
ShowMessage("As even more of them coil around me, it feels like my penis is stuck inside a mass of tentacle flesh.")
ShowMessageFace("",0,0,2,87)
ShowMessage("\\n<Luka>")
ShowMessage("Nngh...")
ShowMessageFace("emily_fc1",2,0,2,88)
ShowMessage("\\n<Emily>")
ShowMessage("Next Emily will test with wriggling stimulations!")
ShowMessageFace("emily_fc1",2,0,2,89)
ShowMessage("\\n<Emily>")
ShowMessage("Emily coiled around your penis with her tentacles, and will now squirm and wriggle with them!")
ShowMessageFace("emily_fc1",2,0,2,90)
ShowMessage("\\n<Emily>")
ShowMessage("Since it's you, Emily doesn't think you'll last long...")
ShowMessage("But try your best, you never know!")
ShowMessageFace("",0,0,2,91)
ShowMessage("\\n<Luka>")
ShowMessage("Ah, aaaah...!")
ShowMessage("Wh...What is this...? No... Stop...!")
245(bytes(0x04,0x08,0x6f,0x3a,0x0d,0x52,0x50,0x47,0x3a,0x3a,0x42,0x47,0x53,0x08,0x3a,0x0a,0x40,0x6e,0x61,0x6d,0x65,0x49,0x22,0x1a,0x6d,0x6f,0x6e,0x5f,0x68,0x73,0x65,0x61,0x6e,0x32,0x32,0x5f,0x74,0x65,0x6e,0x74,0x61,0x63,0x6c,0x65,0x33,0x06,0x3a,0x06,0x45,0x54,0x3a,0x0c,0x40,0x76,0x6f,0x6c,0x75,0x6d,0x65,0x69,0x55,0x3a,0x0b,0x40,0x70,0x69,0x74,0x63,0x68,0x69,0x69))
ShowMessageFace("",0,0,2,92)
ShowMessage("Right after she stops speaking, her tentacles coiled around my penis start to squirm and move all at once.")
ShowMessageFace("",0,0,2,93)
ShowMessage("Each one moves independent of the others, going in random directions and squeezing at random times.")
ShowMessage("It feels like my penis is being caressed by multiple fingers, each with their own mind.")
ShowMessageFace("emily_fc1",2,0,2,94)
ShowMessage("\\n<Emily>")
ShowMessage("One guy said it felt like thousands of earthworms.")
ShowMessage("Is that true? Emily's technique seems to work quite well!")
ShowMessageFace("emily_fc1",2,0,2,95)
ShowMessage("\\n<Emily>")
ShowMessage("For a premature ejaculator like you, Emily doesn't think you'll last for more than a minute♪")
ShowMessageFace("",0,0,2,96)
ShowMessage("\\n<Luka>")
ShowMessage("Haaa... Ahhh!")
ShowMessageFace("",0,0,2,97)
ShowMessage("Her tentacles wriggle all around my penis, making me gasp in pleasure from the unending stimulation.")
ShowMessage("I can't even attempt to endure this any longer.")
ShowMessageFace("",0,0,2,98)
ShowMessage("All of the power fades from my body as I just let the pleasure run through me.")
ShowMessageFace("emily_fc1",2,0,2,99)
ShowMessage("\\n<Emily>")
ShowMessage("Wahaha... Did you really just give up?")
ShowMessage("So you're fine with Emily winning the game?")
ShowMessageFace("",0,0,2,100)
ShowMessage("Emily giggles as she looks down on me, still stroking me with her tentacles.")
ShowMessage("High on her victory, she clearly looks pleased with herself.")
ShowMessageFace("",0,0,2,101)
ShowMessage("Meanwhile, I gasp under her as I'm quickly brought to another orgasm by her wriggling tentacles.")
ShowMessageFace("",0,0,2,102)
ShowMessage("\\n<Luka>")
ShowMessage("Ah... Coming... Ahh!")
RunCommonEvent(104)
PictureDisplay(5,"ev_emily_h4",0,0,0,0,100,100,255,0)
PictureDisplay(6,"ev_emily_ct05",0,0,0,0,100,100,255,0)
RunCommonEvent(105)
ShowMessageFace("",0,0,2,103)
ShowMessage("Unable to take it, I explode under her.")
ShowMessage("My semen sprays over her squirming tentacles, flying all over the place.")
ShowMessageFace("emily_fc1",2,0,2,104)
ShowMessage("\\n<Emily>")
ShowMessage("...Emily is bored testing your penis.")
ShowMessage("You come too easily from everything.")
ShowMessageFace("emily_fc1",2,0,2,105)
ShowMessage("\\n<Emily>")
ShowMessage("Since Emily won the game like we agreed, she will now kill you.")
ShowMessageFace("",0,0,2,106)
ShowMessage("Emily's sadistic eyes sparkle as she looks down at me.")
ShowMessageFace("",0,0,2,107)
ShowMessage("Her tentacles tighten around me and start to move up and down as more squirm around me, combining all of the different stimulations at once.")
ShowMessageFace("",0,0,2,108)
ShowMessage("\\n<Luka>")
ShowMessage("Ahhhhh!!")
ShowMessageFace("",0,0,2,109)
ShowMessage("Unlike before when she was just toying with me, now she's seriously trying to force me to come quickly.")
ShowMessage("This intense stimulation almost makes it feel like my penis could fall off.")
ShowMessageFace("",0,0,2,110)
ShowMessage("I struggle and gasp in pleasure as the intense pleasure runs through me, leaving me even more helpless than before.")
ShowMessageFace("",0,0,2,111)
ShowMessage("\\n<Luka>")
ShowMessage("Ahhg... Ahhh!")
RunCommonEvent(104)
RunCommonEvent(105)
ShowMessageFace("",0,0,2,112)
ShowMessage("I orgasm, shooting semen out all over her yet again.")
ShowMessage("But unlike before when she stopped to change her testing, this time she just continues as if nothing happened.")
ShowMessageFace("",0,0,2,113)
ShowMessage("\\n<Luka>")
ShowMessage("Aiie... S... Stop!")
ShowMessage("No more!")
ShowMessageFace("emily_fc1",2,0,2,114)
ShowMessage("\\n<Emily>")
ShowMessage("Wahaha, did you forget? There's no stopping now! ♪")
ShowMessage("Emily won, you lost. Now Emily gets to kill you, just like you agreed.")
ShowMessageFace("emily_fc1",2,0,2,115)
ShowMessage("\\n<Emily>")
ShowMessage("You can go ahead and keep coming as you go to heaven.")
ShowMessage("Wahaha! ♪")
ShowMessageFace("",0,0,2,116)
ShowMessage("Even as I come, her tentacles don't stop stimulating me for even a moment.")
ShowMessageFace("",0,0,2,117)
ShowMessage("Every inch of my penis is stroked, massaged and squeezed by her multiple slimy tentacles, all jostling and squirming around each other in order to force me to another orgasm.")
ShowMessageFace("",0,0,2,118)
ShowMessage("\\n<Luka>")
ShowMessage("Aaaaaah!!")
ShowMessageFace("",0,0,2,119)
ShowMessage("The intense ecstasy is too much for me to take, causing my vision to flicker and go hazy.")
ShowMessage("Barely able to even breathe, I beg Emily to stop.")
ShowMessageFace("",0,0,2,120)
ShowMessage("\\n<Luka>")
ShowMessage("N...no... Coming... Ahh...")
ShowMessage("S...Stop... Please! Emily!")
RunCommonEvent(104)
RunCommonEvent(105)
ShowMessageFace("",0,0,2,121)
ShowMessage("I come again as I beg her to stop.")
ShowMessage("But no matter what I do or say, the tentacles squirming around me forcing me to orgasm after orgasm don't stop.")
ShowMessageFace("",0,0,2,122)
ShowMessage("\\n<Luka>")
ShowMessage("Haaaa! Stop, stop!")
ShowMessage("Ahh!")
RunCommonEvent(104)
RunCommonEvent(105)
ShowMessageFace("emily_fc1",2,0,2,123)
ShowMessage("\\n<Emily>")
ShowMessage("Wahaha, how pathetic! ♪")
ShowMessage("Emily won fair and square, no complaining! ♪")
ShowMessageFace("",0,0,2,124)
ShowMessage("The young carefree girl giggles as she watches me slowly dying underneath her.")
ShowMessage("Just how many men has this cruel girl killed like this...?")
ShowMessageFace("",0,0,2,125)
ShowMessage("I, too, am just going to die for this young girl's enjoyment...")
ShowMessageFace("",0,0,2,126)
ShowMessage("\\n<Luka>")
ShowMessage("Hyaaaa...!")
ShowMessage("Stop! Ahh!")
RunCommonEvent(104)
RunCommonEvent(105)
ShowMessageFace("emily_fc1",2,0,2,127)
ShowMessage("\\n<Emily>")
ShowMessage("Emily's sure you know already, but each orgasm is making you a lot weaker.")
ShowMessage("You're already as weak as a baby now.")
ShowMessageFace("emily_fc1",2,0,2,128)
ShowMessage("\\n<Emily>")
ShowMessage("Each time you come, it's your life itself shooting out of you onto the floor.")
ShowMessage("Every pleasurable spurt of semen is one step closer to your end♪")
ShowMessageFace("",0,0,2,129)
ShowMessage("\\n<Luka>")
ShowMessage("Ahh... No... No...")
ShowMessage("Ahhh!")
ShowMessageFace("",0,0,2,130)
ShowMessage("Just as she said, I feel incredibly weak.")
ShowMessage("But even if I know what's coming, I can't stop myself.")
ShowMessageFace("",0,0,2,131)
ShowMessage("Forcibly making me ejaculate, there's no stopping this cruel girl from killing me as I squirm in horror filled ecstasy.")
ShowMessageFace("",0,0,2,132)
ShowMessage("\\n<Luka>")
ShowMessage("Aaah... Hnnaaa...")
RunCommonEvent(104)
RunCommonEvent(105)
ShowMessageFace("",0,0,2,133)
ShowMessage("Weaker and weaker, each drop of semen shot out of me is a step closer to my end.")
ShowMessage("My life is slowly fading away in a storm of pleasure.")
ShowMessageFace("emily_fc1",2,0,2,134)
ShowMessage("\\n<Emily>")
ShowMessage("Wahaha, you're even weaker than a baby now.")
ShowMessage("More, more! Emily will squeeze out more! ♪")
ShowMessageFace("",0,0,2,135)
ShowMessage("\\n<Luka>")
ShowMessage("Ah, aaah...")
ShowMessageFace("",0,0,2,136)
ShowMessage("As if it was blood flowing from a fatal wound, my semen continues to spill out of me.")
ShowMessageFace("",0,0,2,137)
ShowMessage("Barely able to see or breathe, I feel my life itself spilling out of me.")
ShowMessageFace("",0,0,2,138)
ShowMessage("On the verge of death, I can't do a thing to stop Emily from forcibly make me ejaculate toward my own death...")
RunCommonEvent(104)
RunCommonEvent(105)
ShowMessageFace("",0,0,2,139)
ShowMessage("\\n<Luka>")
ShowMessage("Ah... Aah...")
ShowMessageFace("",0,0,2,140)
ShowMessage("The last of my strength trickles away as I fade into blackness.")
221()
PictureClear(5)
PictureClear(6)
246(2)
ShowMessageFace("emily_fc1",2,0,2,141)
ShowMessage("\\n<Emily>")
ShowMessage("Wahaha, are you already about to die?")
ShowMessage("You got to feel good all the way to your death, isn't that nice? ♪")
ShowMessageFace("emily_fc1",2,0,2,142)
ShowMessage("\\n<Emily>")
ShowMessage("Bye bye! Wahaha!")
ShowMessageFace("",0,0,2,143)
ShowMessage("The sound of Emily laughing at me...")
ShowMessage("That was the last thing I heard.")
ShowMessageFace("",0,0,2,144)
ShowMessage("I take my last breaths to the sound of a young girl's carefree laughter.")
ShowMessageFace("",0,0,2,145)
ShowMessage("......")
RunCommonEvent(3999)
0()
