// EVENT 2025
Name "Seduction: Sparrow Girl"

If(0,25,1)
 EndEventProcessing()
 0()
EndIf()
355("$game_troop.lose_event_id = 3025")
ChangeVariable(26,26,0,3,3,1,4)
ChangeVariable(26,26,4,0,10)
ShowMessageFace("suzume_fc1",3,0,2,1)
ShowMessage("\\n<Sparrow Girl>Wahwah... I'm going to lose...")
ShowMessageFace("suzume_fc1",3,0,2,2)
ShowMessage("\\n<Sparrow Girl>Uhm, you can do what you want with my body...\nJust stop bullying me already, ok...?")
ShowMessageFace("",0,0,2,3)
ShowMessage("The Sparrow Girl spreads her legs, and invites Luka.")
ShowMessageFace("suzume_fc1",0,0,2,4)
ShowMessage("\\n<Sparrow Girl>You can put your penis inside...\nI'll endure it.")
ChangeSwitch(98,98,0)
ChangeSwitch(96,96,0)
ShowChoices(strings("Ignore her","Give in to temptation"),1)
IfPlayerPicksChoice(0,"Ignore her")
 ShowMessageFace("",0,0,2,5)
 ShowMessage("Luka resists her temptation!")
 RunCommonEvent(1999)
 EndEventProcessing()
 0()
IfPlayerPicksChoice(1,"誘惑に乗る")
 0()
404()
ShowMessageFace("",0,0,2,6)
ShowMessage("Invited, Luka moves toward the Sparrow Girl and presses his penis against her entrance!")
ShowMessageFace("suzume_fc1",0,0,2,7)
ShowMessage("\\n<Sparrow Girl>Please push it in...")
ChangeVariable(26,26,3,0,3)
250(bytes(0x04,0x08,0x6f,0x3a,0x0c,0x52,0x50,0x47,0x3a,0x3a,0x53,0x45,0x08,0x3a,0x0a,0x40,0x6e,0x61,0x6d,0x65,0x49,0x22,0x11,0x6d,0x6f,0x6e,0x5f,0x65,0x72,0x6f,0x5f,0x70,0x79,0x75,0x31,0x06,0x3a,0x06,0x45,0x54,0x3a,0x0b,0x40,0x70,0x69,0x74,0x63,0x68,0x69,0x69,0x3a,0x0c,0x40,0x76,0x6f,0x6c,0x75,0x6d,0x65,0x69,0x69))
311(0,1,1,1,26,true)
ShowMessageFace("",0,0,2,8)
ShowMessage("Luka pushes forward, and inserts himself into the Sparrow Girl!")
ShowMessage("His dick sinks deep inside!\\D")
ShowMessage("Luka takes \\V[26] damage!")
ChangeVariable(27,27,0,3,3,1,2)
If(1,27,0,0,0)
 JumpToLabel("射精1")
 0()
EndIf()
ShowMessageFace("suzume_fc1",0,0,2,9)
ShowMessage("\\n<Sparrow Girl>It's in...\nLet me move some...")
250(bytes(0x04,0x08,0x6f,0x3a,0x0c,0x52,0x50,0x47,0x3a,0x3a,0x53,0x45,0x08,0x3a,0x0a,0x40,0x6e,0x61,0x6d,0x65,0x49,0x22,0x13,0x6d,0x6f,0x6e,0x5f,0x65,0x72,0x6f,0x5f,0x63,0x68,0x75,0x70,0x61,0x33,0x06,0x3a,0x06,0x45,0x54,0x3a,0x0b,0x40,0x70,0x69,0x74,0x63,0x68,0x69,0x69,0x3a,0x0c,0x40,0x76,0x6f,0x6c,0x75,0x6d,0x65,0x69,0x69))
311(0,1,1,1,26,true)
ShowMessageFace("",0,0,2,10)
ShowMessage("The Sparrow Girl starts to gently move!")
ShowMessage("Her tight vagina squeezes down on him!\\D")
ShowMessage("Luka takes \\V[26] damage!")
ChangeVariable(27,27,0,3,3,1,2)
If(1,27,0,0,0)
 JumpToLabel("射精2")
 0()
EndIf()
ShowMessageFace("suzume_fc1",0,0,2,11)
ShowMessage("\\n<Sparrow Girl>It feels good, doesn't it?\nSince I'm a Harpy, there's lots of bumps inside me...")
250(bytes(0x04,0x08,0x6f,0x3a,0x0c,0x52,0x50,0x47,0x3a,0x3a,0x53,0x45,0x08,0x3a,0x0a,0x40,0x6e,0x61,0x6d,0x65,0x49,0x22,0x13,0x6d,0x6f,0x6e,0x5f,0x65,0x72,0x6f,0x5f,0x63,0x68,0x75,0x70,0x61,0x34,0x06,0x3a,0x06,0x45,0x54,0x3a,0x0b,0x40,0x70,0x69,0x74,0x63,0x68,0x69,0x69,0x3a,0x0c,0x40,0x76,0x6f,0x6c,0x75,0x6d,0x65,0x69,0x69))
311(0,1,1,1,26,true)
ShowMessageFace("",0,0,2,12)
ShowMessage("The Sparrow Girl's vagina sucks on Luka's penis!")
ShowMessage("Tiny bumps rub against Luka's penis!\\D")
ShowMessage("Luka takes \\V[26] damage!")
ChangeVariable(27,27,0,3,3,1,2)
If(1,27,0,0,0)
 JumpToLabel("射精2")
 0()
EndIf()
ShowMessageFace("suzume_fc1",0,0,2,13)
ShowMessage("\\n<Sparrow Girl>Ehehe, you look like you're enjoying it...\nI'll keep teasing you like this...♪")
250(bytes(0x04,0x08,0x6f,0x3a,0x0c,0x52,0x50,0x47,0x3a,0x3a,0x53,0x45,0x08,0x3a,0x0a,0x40,0x6e,0x61,0x6d,0x65,0x49,0x22,0x13,0x6d,0x6f,0x6e,0x5f,0x65,0x72,0x6f,0x5f,0x63,0x68,0x75,0x70,0x61,0x33,0x06,0x3a,0x06,0x45,0x54,0x3a,0x0b,0x40,0x70,0x69,0x74,0x63,0x68,0x69,0x69,0x3a,0x0c,0x40,0x76,0x6f,0x6c,0x75,0x6d,0x65,0x69,0x69))
311(0,1,1,1,26,true)
ShowMessageFace("",0,0,2,14)
ShowMessage("The Sparrow Girl shakes her waist!")
ShowMessage("Sweet pleasure assaults Luka!\\D")
ShowMessage("Luka takes \\V[26] damage!")
ChangeVariable(27,27,0,3,3,1,2)
If(1,27,0,0,0)
 JumpToLabel("射精2")
 0()
EndIf()
DefineLabel("射精1")
ShowMessageFace("",0,0,2,15)
ShowMessage("\\n<Luka>Ah... Oh no, I'm coming...!")
RunCommonEvent(104)
RunCommonEvent(105)
ShowMessageFace("",0,0,2,16)
ShowMessage("The instant Luka inserts himself into the Sparrow Girl, he comes!")
ShowMessage("The tightness was too much for him to endure...")
ShowMessageFace("suzume_fc1",1,0,2,17)
ShowMessage("\\n<Sparrow Girl>Wh-What... You already came?\nMy pussy beat him in an instant...♪")
RunCommonEvent(2000)
EndEventProcessing()
DefineLabel("射精2")
ShowMessageFace("",0,0,2,18)
ShowMessage("\\n<Luka>Aaah... That feels good...")
RunCommonEvent(104)
RunCommonEvent(105)
ShowMessageFace("",0,0,2,19)
ShowMessage("Luka easily comes inside the Sparrow Girl.")
ShowMessage("The bumps inside of her rub against him as he comes!")
ShowMessageFace("suzume_fc1",1,0,2,20)
ShowMessage("\\n<Sparrow Girl>Ehehe, I made you come.\nMy pussy felt great, didn't it?")
RunCommonEvent(2000)
EndEventProcessing()
0()
