﻿// EVENT 0551
Name "RC:クロム"

If(0,2367,1)
 If(1,1099,0,3,0)
  ShowMessageFace("chrom_fc2",1,0,2,1)
  ShowMessage("【クロム】")
  ShowMessage("むっ、なんじゃ？")
  ShowMessage("一緒にメシでも食うか？")
  ShowMessageFace("frederika_fc1",0,0,2,2)
  ShowMessage("【フレデリカ】")
  ShowMessage("クロム、友達少ない……")
  ShowMessage("一緒にごはん食べてあげて……")
  ShowMessageFace("chrom_fc2",5,0,2,3)
  ShowMessage("【クロム】")
  ShowMessage("少なくないわい！")
  ShowMessage("ゾンビ友達なら、いっぱいいるぞ！")
  0()
 EndIf()
 If(1,1099,0,3,5)
  ShowMessageFace("chrom_fc2",0,0,2,4)
  ShowMessage("【クロム】")
  ShowMessage("あんまり荒らすでないぞ。")
  ShowMessage("検視を手伝ってくれたら、ありがたいんじゃがのう。")
  0()
 EndIf()
 DefineLabel("メイン")
 If(1,1099,0,2,2)
  355("ex_choice_add(\"検視を手伝う（時間経過）\",1,")
  655("\"v[1098] >= 5\",0)")
  655("ex_choice_add(\"異変について相談する\",2,")
  655("\"s[2341]\",0)")
  0()
 EndIf()
 If(1,1099,0,3,0)
  355("ex_choice_add(\"一緒に食事する（時間経過）\",1,")
  655("\"v[1098] >= 5\",0)")
  655("ex_choice_add(\"異変について相談する\",2,")
  655("\"s[2341]\",0)")
  0()
 EndIf()
 If(1,1099,0,4,0)
  355("ex_choice_add(\"検視を手伝う（時間経過）\",1,")
  655("\"v[1098] >= 5\",0)")
  655("ex_choice_add(\"異変について相談する\",2,")
  655("\"s[2341]\",0)")
  0()
 EndIf()
 0()
EndIf()
355("ex_choice_add(\"後悔していることについて聞く\",3,")
655("\"s[2342]\",0)")
655("ex_choice_add(\"時を繰り返す道具について聞く\",4,")
655("\"s[2343]\",0)")
655("ex_choice_add(\"ピザを注文したか聞く\",5,")
655("\"s[2345]\",0)")
355("ex_choice_add(\"謎のマキナについて聞く\",6,")
655("\"s[2365]\",0)")
655("ex_choice_add(\"作戦に必要な品について聞く\",7,")
655("\"s[2364]\",0)")
655("ex_choice_add(\"お茶会に誘う\",8,")
655("\"s[2378]\",0)")
655("ex_choice_add(\"立ち去る\",10)")
355("ex_choice_show(0,11,[0,0])")
If(1,9,0,1,0)
 If(1,1099,0,3,0)
  221()
  205(43,bytes(0x04,0x08,0x6f,0x3a,0x13,0x52,0x50,0x47,0x3a,0x3a,0x4d,0x6f,0x76,0x65,0x52,0x6f,0x75,0x74,0x65,0x09,0x3a,0x0c,0x40,0x72,0x65,0x70,0x65,0x61,0x74,0x46,0x3a,0x0f,0x40,0x73,0x6b,0x69,0x70,0x70,0x61,0x62,0x6c,0x65,0x46,0x3a,0x0a,0x40,0x77,0x61,0x69,0x74,0x54,0x3a,0x0a,0x40,0x6c,0x69,0x73,0x74,0x5b,0x07,0x6f,0x3a,0x15,0x52,0x50,0x47,0x3a,0x3a,0x4d,0x6f,0x76,0x65,0x43,0x6f,0x6d,0x6d,0x61,0x6e,0x64,0x07,0x3a,0x0a,0x40,0x63,0x6f,0x64,0x65,0x69,0x15,0x3a,0x10,0x40,0x70,0x61,0x72,0x61,0x6d,0x65,0x74,0x65,0x72,0x73,0x5b,0x00,0x6f,0x3b,0x0a,0x07,0x3b,0x0b,0x69,0x00,0x3b,0x0c,0x5b,0x00))
  TeleportPlayer(0,78,46,18,8,2)
  222()
  ShowMessageFace("chrom_fc2",1,0,2,5)
  ShowMessage("【クロム】")
  ShowMessage("仕事の後の食事は、心まで満たされるのう……")
  ShowMessageFace("frederika_fc1",0,0,2,6)
  ShowMessage("【フレデリカ】")
  ShowMessage("クロム、野菜を食べろ……")
  ShowMessageFace("chrom_fc2",5,0,2,7)
  ShowMessage("【クロム】")
  ShowMessage("食事中まで、うるさい奴じゃ……")
  ShowMessageFace("frederika_fc1",0,0,2,8)
  ShowMessage("【フレデリカ】")
  ShowMessage("クロム、風呂入ったか……？")
  ShowMessageFace("chrom_fc2",5,0,2,9)
  ShowMessage("【クロム】")
  ShowMessage("なぜ今、風呂の話をする！？")
  ShowMessageFace("ruka_fc1",0,0,2,10)
  ShowMessage("【ルカ】")
  ShowMessage("仲がいいなぁ……")
  ShowMessageFace("",0,0,2,11)
  ShowMessage("クロム達と食事をして時間を過ごした……")
  RunCommonEvent(540)
  EndEventProcessing()
  0()
 EndIf()
 If(1,1099,0,3,5)
  221()
  205(4,bytes(0x04,0x08,0x6f,0x3a,0x13,0x52,0x50,0x47,0x3a,0x3a,0x4d,0x6f,0x76,0x65,0x52,0x6f,0x75,0x74,0x65,0x09,0x3a,0x0c,0x40,0x72,0x65,0x70,0x65,0x61,0x74,0x46,0x3a,0x0f,0x40,0x73,0x6b,0x69,0x70,0x70,0x61,0x62,0x6c,0x65,0x46,0x3a,0x0a,0x40,0x77,0x61,0x69,0x74,0x54,0x3a,0x0a,0x40,0x6c,0x69,0x73,0x74,0x5b,0x07,0x6f,0x3a,0x15,0x52,0x50,0x47,0x3a,0x3a,0x4d,0x6f,0x76,0x65,0x43,0x6f,0x6d,0x6d,0x61,0x6e,0x64,0x07,0x3a,0x0a,0x40,0x63,0x6f,0x64,0x65,0x69,0x18,0x3a,0x10,0x40,0x70,0x61,0x72,0x61,0x6d,0x65,0x74,0x65,0x72,0x73,0x5b,0x00,0x6f,0x3b,0x0a,0x07,0x3b,0x0b,0x69,0x00,0x3b,0x0c,0x5b,0x00))
  TeleportPlayer(0,92,9,5,6,2)
  222()
  ShowMessageFace("chrom_fc2",1,0,2,12)
  ShowMessage("【クロム】")
  ShowMessage("そう、その秤に心臓を乗せてくれ。")
  ShowMessage("重さはいくらじゃ……？")
  ShowMessageFace("ruka_fc1",0,0,2,13)
  ShowMessage("【ルカ】")
  ShowMessage("ううっ……やるんじゃなかった……")
  ShowMessageFace("",0,0,2,14)
  ShowMessage("クロムの検視作業を手伝った……")
  ShowMessage("もちろん後でシャワーを浴びて、臭いを落とした！")
  RunCommonEvent(5802)
  EndEventProcessing()
  0()
 EndIf()
 0()
EndIf()
If(1,9,0,2,0)
 If(0,2367,0)
  ShowMessageFace("chrom_fc2",0,0,2,15)
  ShowMessage("【クロム】")
  ShowMessage("儂はあくまでサポートじゃ。")
  ShowMessage("作戦に関しては、プロメスティンを頼れ。")
  ShowMessageFace("chrom_fc2",5,0,2,16)
  ShowMessage("【クロム】")
  ShowMessage("……あの恥ずかしい作戦名も、儂の発案ではないぞ。")
  ShowMessageFace("stein_fc2",2,0,2,17)
  ShowMessage("【プロメスティン】")
  ShowMessage("プロメスティンズ・ゲート作戦……")
  ShowMessage("いけなかったでしょうか？")
  ShowMessageFace("chrom_fc2",5,0,2,18)
  ShowMessage("【クロム】")
  ShowMessage("名前が長い。")
  ShowMessageFace("stein_fc2",2,0,2,19)
  ShowMessage("【プロメスティン】")
  ShowMessage("では「プロメ」を削って、スティンズ・ゲート作戦では？")
  ShowMessageFace("ruka_fc1",0,0,2,20)
  ShowMessage("【ルカ】")
  ShowMessage("それは、いっそうまずい気がするな……")
  JumpToLabel("メイン")
  0()
 EndIf()
 If(1,1105,0,0,0)
  ShowMessageFace("",0,0,2,21)
  ShowMessage("ルカは、異変について相談した……")
  ShowMessageFace("chrom_fc2",5,0,2,22)
  ShowMessage("【クロム】")
  ShowMessage("それは、儂の専門ではないのう……")
  ShowMessage("時空に関する異変なら、プロメスティンを頼ってはどうじゃ？")
  ShowMessageFace("ruka_fc1",0,0,2,23)
  ShowMessage("【ルカ】")
  ShowMessage("ところでクロム……なんだか、すごく臭わない？")
  ShowMessage("しかも、これって死臭だよね……")
  ShowMessageFace("chrom_fc2",5,0,2,24)
  ShowMessage("【クロム】")
  ShowMessage("む……まだ、臭いが残っていたか。")
  ShowMessage("さっきまで、検視をしていたからのう。")
  ShowMessageFace("ruka_fc1",0,0,2,25)
  ShowMessage("【ルカ】")
  ShowMessage("検視……？")
  ShowMessageFace("chrom_fc2",1,0,2,26)
  ShowMessage("【クロム】")
  ShowMessage("儂は死体のエキスパートじゃ！")
  ShowMessage("そして、魔芸師とは金がないもの！")
  ShowMessageFace("chrom_fc2",2,0,2,27)
  ShowMessage("【クロム】")
  ShowMessage("ゆえに、暇を見て検視のバイトをしておるのじゃ。")
  ShowMessage("今日はすでに五体もの死体を調べ終えたぞ。")
  ShowMessageFace("ruka_fc1",0,0,2,28)
  ShowMessage("【ルカ】")
  ShowMessage("それ、自室で……だよね。")
  ShowMessage("ううっ、想像したくないなぁ。")
  ShowMessageFace("ruka_fc1",0,0,2,29)
  ShowMessage("【ルカ】")
  ShowMessage("でも、臭いはちゃんと落とした方が……")
  ShowMessage("みんなも迷惑するし……")
  ShowMessageFace("chrom_fc2",1,0,2,30)
  ShowMessage("【クロム】")
  ShowMessage("生き物は死ねば腐る！")
  ShowMessage("腐れば臭う、それが自然の摂理よ！")
  ShowMessageFace("chrom_fc2",1,0,2,31)
  ShowMessage("【クロム】")
  ShowMessage("現代人は文明の中で摂理を忘れ、臭いだの何だの……")
  ShowMessage("死を思えと先人は言ったが、忘却の彼方とは嘆かわしい。")
  ShowMessageFace("frederika_fc1",0,0,2,32)
  ShowMessage("【フレデリカ】")
  ShowMessage("クロム……")
  ShowMessage("それ、姉の受け売り……")
  ShowMessageFace("chrom_fc2",1,0,2,33)
  ShowMessage("【クロム】")
  ShowMessage("……なのじゃ♪")
  ShowMessageFace("ruka_fc1",0,0,2,34)
  ShowMessage("【ルカ】")
  ShowMessage("それにしても、検視のバイトか……")
  If(1,1103,0,13,2)
   ShowMessageFace("",0,0,2,35)
   ShowMessage("何かが、心のどこかに引っ掛かる。")
   ShowMessage("だが、今は城内の聞き込みを優先しよう――")
   0()
  EndIf()
  If(1,1103,0,14,1)
   ShowMessageFace("",0,0,2,36)
   ShowMessage("何かが、心のどこかに引っ掛かる。")
   ShowMessage("後で、クロムの部屋に行ってみようか――")
   ChangeSwitch(2432,2432,0)
   0()
  EndIf()
  ChangeVariable(1105,1105,0,0,1)
  JumpToLabel("メイン")
  0()
 EndIf()
 If(1,1105,0,1,0)
  ShowMessageFace("",0,0,2,37)
  ShowMessage("ルカは、異変について相談した……")
  ShowMessageFace("chrom_fc2",5,0,2,38)
  ShowMessage("【クロム】")
  ShowMessage("それは、儂の専門ではないのう……")
  ShowMessage("時空に関する異変なら、プロメスティンを頼ってはどうじゃ？")
  ShowMessageFace("",0,0,2,39)
  ShowMessage("それはともかく、検視のバイトとやらが引っ掛かる。")
  ShowMessage("後で、クロムの部屋に行ってみようか――")
  JumpToLabel("メイン")
  0()
 EndIf()
 If(1,1105,0,2,1)
  ShowMessageFace("chrom_fc2",5,0,2,40)
  ShowMessage("【クロム】")
  ShowMessage("普通なら立ち入り禁止の部屋に入れてやったではないか。")
  ShowMessage("儂としては、最大限に助けてやっているつもりじゃぞ。")
  JumpToLabel("メイン")
  0()
 EndIf()
 0()
EndIf()
If(1,9,0,3,0)
 ShowMessageFace("chrom_fc2",7,0,2,41)
 ShowMessage("【クロム】")
 ShowMessage("……………………")
 ShowMessageFace("chrom_fc2",6,0,2,42)
 ShowMessage("【クロム】")
 ShowMessage("時を遡ってでもやり直したい後悔は、確かにある。")
 ShowMessage("だが、今日この日ではない……儂は無関係じゃな。")
 ShowMessageFace("",0,0,2,43)
 ShowMessage("有益な情報は得られなかった……")
 JumpToLabel("メイン")
 0()
EndIf()
If(1,9,0,4,0)
 ShowMessageFace("chrom_fc2",0,0,2,44)
 ShowMessage("【クロム】")
 ShowMessage("そのようなアイテム、聞いた事はないが……")
 ShowMessage("儂はそもそも、秘宝の類は詳しくないのじゃ。")
 ShowMessageFace("",0,0,2,45)
 ShowMessage("有益な情報は得られなかった……")
 JumpToLabel("メイン")
 0()
EndIf()
If(1,9,0,5,0)
 ShowMessageFace("chrom_fc2",1,0,2,46)
 ShowMessage("【クロム】")
 ShowMessage("なんと、出前が頼めるのか！？")
 ShowMessage("ならば今度、儂の部屋にも届けてもらうか！")
 ShowMessageFace("",0,0,2,47)
 ShowMessage("ピザを頼んだのはクロムではないようだ……")
 JumpToLabel("メイン")
 0()
EndIf()
If(1,9,0,6,0)
 ShowMessageFace("chrom_fc2",5,0,2,48)
 ShowMessage("【クロム】")
 ShowMessage("そのマキナの正体も、不明のままじゃ。")
 ShowMessage("かなり高度な通信装置のようじゃが……")
 ShowMessageFace("",0,0,2,49)
 ShowMessage("有益な情報は得られなかった……")
 JumpToLabel("メイン")
 0()
EndIf()
If(1,9,0,7,0)
 ShowMessageFace("chrom_fc2",5,0,2,50)
 ShowMessage("【クロム】")
 ShowMessage("雑魚はともかく、相手があの連中となると……")
 ShowMessage("儂のオモチャ程度では、足止めにもならんな。")
 ShowMessageFace("",0,0,2,51)
 ShowMessage("有益なアイテムは得られなかった……")
 JumpToLabel("メイン")
 0()
EndIf()
If(1,9,0,8,0)
 If(1,1113,0,3,5)
  If(1,1114,0,3,5)
   ShowMessageFace("chrom_fc2",1,0,2,52)
   ShowMessage("【クロム】")
   ShowMessage("ほう、黒のアリスのお茶会とな！")
   ShowMessage("魔王様の前で芸を披露するのは、魔芸師の喜びよ！")
   If(1,1116,0,2,0)
    ChangeVariable(1116,1116,0,0,3)
    ChangeVariable(1115,1115,0,0,3)
    ChangeSwitch(2378,2378,1)
    0()
   EndIf()
   If(1,1116,0,1,0)
    ChangeVariable(1116,1116,0,0,2)
    ChangeVariable(1114,1114,0,0,3)
    0()
   EndIf()
   If(1,1116,0,0,0)
    ChangeVariable(1116,1116,0,0,1)
    ChangeVariable(1113,1113,0,0,3)
    0()
   EndIf()
   249(bytes(0x04,0x08,0x6f,0x3a,0x0c,0x52,0x50,0x47,0x3a,0x3a,0x4d,0x45,0x08,0x3a,0x0a,0x40,0x6e,0x61,0x6d,0x65,0x49,0x22,0x10,0x6d,0x6f,0x6e,0x5f,0x66,0x61,0x6e,0x66,0x61,0x6c,0x65,0x06,0x3a,0x06,0x45,0x54,0x3a,0x0b,0x40,0x70,0x69,0x74,0x63,0x68,0x69,0x69,0x3a,0x0c,0x40,0x76,0x6f,0x6c,0x75,0x6d,0x65,0x69,0x69))
   ShowMessageFace("",0,0,2,53)
   ShowMessage("クロムはお茶会の誘いに乗った！")
   If(1,1116,0,1,0)
    ShowMessageFace("",0,0,2,54)
    ShowMessage("黒のアリスのお茶会に招待したのは、これで一人。")
    ShowMessage("あと二人、参加者を集めよう！")
    0()
   EndIf()
   If(1,1116,0,2,0)
    ShowMessageFace("",0,0,2,55)
    ShowMessage("黒のアリスのお茶会に招待したのは、これで二人。")
    ShowMessage("あと一人、参加者を集めよう！")
    0()
   EndIf()
   If(1,1116,0,3,0)
    ShowMessageFace("",0,0,2,56)
    ShowMessage("黒のアリスのお茶会に招待したのは、これで三人。")
    ShowMessage("四時になったら、黒のアリスの部屋に行こう！")
    0()
   EndIf()
   JumpToLabel("メイン")
   0()
  EndIf()
  0()
 EndIf()
 ShowMessageFace("",0,0,2,57)
 ShowMessage("すでにお茶会に招待している……")
 JumpToLabel("メイン")
 0()
EndIf()
EndEventProcessing()
0()
