﻿// EVENT 1375
Name "Talk: A-3"

If(1,20,0,1,0)
 JumpToLabel("情報")
 0()
EndIf()
If(1,20,0,2,0)
 JumpToLabel("質問")
 0()
EndIf()
If(1,20,0,3,0)
 JumpToLabel("要求")
 0()
EndIf()
If(1,20,0,4,0)
 JumpToLabel("贈与")
 0()
EndIf()
DefineLabel("情報")
ChangeVariable(13,13,0,2,1,100)
If(1,13,0,10,2)
 ShowMessageFace("c_a3_fc1",0,0,2,1)
 ShowMessage("\\n<A-3>It's painful... I envy you...")
 EndEventProcessing()
 0()
EndIf()
If(1,13,0,20,2)
 ShowMessageFace("c_a3_fc1",0,0,2,2)
 ShowMessage("\\n<A-3>To have such an unsightly body...")
 EndEventProcessing()
 0()
EndIf()
If(1,13,0,30,2)
 ShowMessageFace("c_a3_fc1",0,0,2,3)
 ShowMessage("\\n<A-3>I am repulsed by myself...")
 EndEventProcessing()
 0()
EndIf()
If(1,13,0,40,2)
 ShowMessageFace("c_a3_fc1",0,0,2,4)
 ShowMessage("\\n<A-3>This tentacle... I want to tear it off...")
 EndEventProcessing()
 0()
EndIf()
If(1,13,0,50,2)
 ShowMessageFace("c_a3_fc1",0,0,2,5)
 ShowMessage("\\n<A-3>S-2 is so nice and innocent...\nIt always breaks my heart...")
 EndEventProcessing()
 0()
EndIf()
If(1,13,0,60,2)
 ShowMessageFace("c_a3_fc1",0,0,2,6)
 ShowMessage("\\n<A-3>I can't talk to AD-5 at all...\nEven with similar angel bodies, we like completely different things.")
 EndEventProcessing()
 0()
EndIf()
If(1,13,0,70,2)
 ShowMessageFace("c_a3_fc1",0,0,2,7)
 ShowMessage("\\n<A-3>Once, I was an angel...\nThis body is like a punishment...")
 EndEventProcessing()
 0()
EndIf()
If(1,13,0,80,2)
 ShowMessageFace("c_a3_fc1",0,0,2,8)
 ShowMessage("\\n<A-3>It seems like I have freedom now.\nBut I appear to be dead with this form...")
 EndEventProcessing()
 0()
EndIf()
If(1,13,0,90,2)
 ShowMessageFace("c_a3_fc1",0,0,2,9)
 ShowMessage("\\n<A-3>My tongue can stretch... It's an unnecessary gimmick...")
 EndEventProcessing()
 0()
EndIf()
If(1,13,0,100,2)
 ShowMessageFace("c_a3_fc1",0,0,2,10)
 ShowMessage("\\n<A-3>My lower body is a slime...\nThis slimy feeling disgusts me...")
 EndEventProcessing()
 0()
EndIf()
DefineLabel("質問")
ChangeVariable(13,13,0,2,1,50)
If(1,13,0,10,2)
 ShowMessageFace("c_a3_fc1",0,0,2,11)
 ShowMessage("\\n<A-3>I am an angel, do you know why I was chosen for an experiment...?")
 ShowChoices(strings("Because you were excellent","Because you committed a sin","You were chosen by lottery"),0)
 IfPlayerPicksChoice(0,"優秀だったから")
  ShowMessageFace("c_a3_fc1",0,0,2,12)
  ShowMessage("\\n<A-3>Are you flattering me...?\nWell that's not bad.")
  355("change_friend(10)")
  0()
 IfPlayerPicksChoice(1,"罪を犯したから")
  ShowMessageFace("c_a3_fc1",0,0,2,13)
  ShowMessage("\\n<A-3>Yes... I was close to a human man.\nAs punishment I was made into this form.")
  0()
 IfPlayerPicksChoice(2,"くじ引きで選ばれたから")
  ShowMessageFace("c_a3_fc1",0,0,2,14)
  ShowMessage("\\n<A-3>Are you joking around...?")
  355("change_friend(-5)")
  0()
 404()
 EndEventProcessing()
 0()
EndIf()
If(1,13,0,20,2)
 ShowMessageFace("c_a3_fc1",0,0,2,15)
 ShowMessage("\\n<A-3>Am I... Beautiful?")
 ShowChoices(strings("You're beautiful","You're ugly","You're sexy"),0)
 IfPlayerPicksChoice(0,"キレイ")
  ShowMessageFace("c_a3_fc1",0,0,2,16)
  ShowMessage("\\n<A-3>Hmph, you speak empty words...!")
  355("change_friend(-5)")
  0()
 IfPlayerPicksChoice(1,"醜い")
  ShowMessageFace("c_a3_fc1",0,0,2,17)
  ShowMessage("\\n<A-3>I prefer to be told honesty...")
  0()
 IfPlayerPicksChoice(2,"セクシー")
  ShowMessageFace("c_a3_fc1",0,0,2,18)
  ShowMessage("\\n<A-3>S-sexy...?!\nI never thought about that...")
  355("change_friend(10)")
  0()
 404()
 EndEventProcessing()
 0()
EndIf()
If(1,13,0,30,2)
 ShowMessageFace("c_a3_fc1",0,0,2,19)
 ShowMessage("\\n<A-3>Somehow...\nCan I return to my original angel form?")
 ShowChoices(strings("You can change back","You can't change back","You already changed back"),0)
 IfPlayerPicksChoice(0,"戻れる")
  ShowMessageFace("c_a3_fc1",0,0,2,20)
  ShowMessage("\\n<A-3>I'm glad to be comforted...")
  355("change_friend(10)")
  0()
 IfPlayerPicksChoice(1,"戻れない")
  ShowMessageFace("c_a3_fc1",0,0,2,21)
  ShowMessage("\\n<A-3>How cold...")
  355("change_friend(-5)")
  0()
 IfPlayerPicksChoice(2,"もう戻っている")
  ShowMessageFace("c_a3_fc1",0,0,2,22)
  ShowMessage("\\n<A-3>Stop joking around!\nI haven't changed back at all!")
  355("change_friend(-5)")
  0()
 404()
 EndEventProcessing()
 0()
EndIf()
If(1,13,0,40,2)
 ShowMessageFace("c_a3_fc1",0,0,2,23)
 ShowMessage("\\n<A-3>I seem to have gained freedom, but...\nWhat should I do from now on?")
 ShowChoices(strings("Go back to the angels","Live as a monster","Become friends"),0)
 IfPlayerPicksChoice(0,"天使に復帰")
  ShowMessageFace("c_a3_fc1",0,0,2,24)
  ShowMessage("\\n<A-3>I cannot do such a thing looking like this!")
  355("change_friend(-5)")
  0()
 IfPlayerPicksChoice(1,"魔物として生きる")
  ShowMessageFace("c_a3_fc1",0,0,2,25)
  ShowMessage("\\n<A-3>Well, that's fine...\nWith such an unsightly form...")
  0()
 IfPlayerPicksChoice(2,"仲間になれ")
  ShowMessageFace("c_a3_fc1",0,0,2,26)
  ShowMessage("\\n<A-3>Your invitation honestly makes me happy...\nBut I don't want to appear in public too much...")
  355("change_friend(10)")
  0()
 404()
 EndEventProcessing()
 0()
EndIf()
If(1,13,0,50,2)
 ShowMessageFace("c_a3_fc1",0,0,2,27)
 ShowMessage("\\n<A-3>Experiments... Do you like them?")
 ShowChoices(strings("I like them","I don't like them","I'll experiment with you"),0)
 IfPlayerPicksChoice(0,"好き")
  ShowMessageFace("c_a3_fc1",0,0,2,28)
  ShowMessage("\\n<A-3>I won't forgive you...!")
  355("change_friend(-5)")
  0()
 IfPlayerPicksChoice(1,"嫌い")
  ShowMessageFace("c_a3_fc1",0,0,2,29)
  ShowMessage("\\n<A-3>I also hate experiments...!")
  355("change_friend(10)")
  0()
 IfPlayerPicksChoice(2,"お前も実験してやろうか")
  ShowMessageFace("c_a3_fc1",0,0,2,30)
  ShowMessage("\\n<A-3>That's already been done to me!")
  355("change_friend(-5)")
  0()
 404()
 EndEventProcessing()
 0()
EndIf()
DefineLabel("要求")
ChangeVariable(13,13,0,2,1,30)
If(1,13,0,10,2)
 If(8,360)
  ShowMessageFace("c_a3_fc1",0,0,2,31)
  ShowMessage("\\n<A-3>I want to eat rice...")
  ChangeVariable(24,24,0,3,0,360,0)
  ShowMessageFace("",0,0,2,32)
  ShowMessage("Do you want to give some \\ii[360]? (Have:\\V[24])")
  ShowChoices(strings("Yes","No"),2)
  IfPlayerPicksChoice(0,"Yes")
   ShowMessageFace("c_a3_fc1",0,0,2,33)
   ShowMessage("\\n<A-3>How kind...")
   ChangeInventory_Item(360,1,0,1)
   355("change_friend(20)")
   EndEventProcessing()
   0()
  IfPlayerPicksChoice(1,"No")
   ShowMessageFace("c_a3_fc1",0,0,2,34)
   ShowMessage("\\n<A-3>Want... I want it...")
   EndEventProcessing()
   0()
  404()
  0()
 Else()
  ChangeVariable(13,13,0,0,20)
  0()
 EndIf()
 0()
EndIf()
If(1,13,0,20,2)
 If(8,75)
  ShowMessageFace("c_a3_fc1",0,0,2,35)
  ShowMessage("\\n<A-3>Share your holy power...")
  ChangeVariable(24,24,0,3,0,75,0)
  ShowMessageFace("",0,0,2,36)
  ShowMessage("Do you want to give a \\ii[75]?(Have:\\V[24])")
  ShowChoices(strings("Yes","No"),2)
  IfPlayerPicksChoice(0,"Yes")
   ShowMessageFace("c_a3_fc1",0,0,2,37)
   ShowMessage("\\n<A-3>How kind...")
   ChangeInventory_Item(75,1,0,1)
   355("change_friend(30)")
   EndEventProcessing()
   0()
  IfPlayerPicksChoice(1,"No")
   ShowMessageFace("c_a3_fc1",0,0,2,38)
   ShowMessage("\\n<A-3>Want... I want it...")
   EndEventProcessing()
   0()
  404()
  0()
 Else()
  ChangeVariable(13,13,0,0,30)
  0()
 EndIf()
 0()
EndIf()
If(1,13,0,30,2)
 ShowMessageFace("c_a3_fc1",0,0,2,39)
 ShowMessage("\\n<A-3>Money... Give me...")
 If(7,1254,0)
  ChangeVariable(24,24,0,3,7,2,0)
  ShowMessageFace("",0,0,2,40)
  ShowMessage("Do you want to give 1254G? (Remaining:\\V[24])")
  ShowChoices(strings("Yes","No"),2)
  IfPlayerPicksChoice(0,"Yes")
   ShowMessageFace("c_a3_fc1",0,0,2,41)
   ShowMessage("\\n<A-3>How kind...")
   125(1,0,1254)
   355("change_friend(25)")
   EndEventProcessing()
   0()
  IfPlayerPicksChoice(1,"No")
   ShowMessageFace("c_a3_fc1",0,0,2,42)
   ShowMessage("\\n<A-3>Want... I want it...")
   EndEventProcessing()
   0()
  404()
  0()
 Else()
  ShowMessageFace("c_a3_fc1",0,0,2,43)
  ShowMessage("\\n<A-3>You've run out of it...")
  EndEventProcessing()
  0()
 EndIf()
 0()
EndIf()
DefineLabel("贈与")
ChangeVariable(13,13,0,2,1,30)
If(1,25,0,1,0)
 ChangeVariable(13,13,0,0,30)
 ChangeVariable(25,25,0,0,0)
 0()
EndIf()
If(1,25,0,2,0)
 ChangeVariable(13,13,0,2,1,20)
 ChangeVariable(25,25,0,0,0)
 0()
EndIf()
If(1,13,0,10,2)
 ShowMessageFace("c_a3_fc1",0,0,2,44)
 ShowMessage("\\n<A-3>Take my cells...")
 250(bytes(0x04,0x08,0x6f,0x3a,0x0c,0x52,0x50,0x47,0x3a,0x3a,0x53,0x45,0x08,0x3a,0x0a,0x40,0x6e,0x61,0x6d,0x65,0x49,0x22,0x0a,0x49,0x74,0x65,0x6d,0x31,0x06,0x3a,0x06,0x45,0x54,0x3a,0x0b,0x40,0x70,0x69,0x74,0x63,0x68,0x69,0x69,0x3a,0x0c,0x40,0x76,0x6f,0x6c,0x75,0x6d,0x65,0x69,0x55))
 ChangeInventory_Item(225,0,0,1)
 ShowMessageFace("",0,0,2,45)
 ShowMessage("A-3 gave you an \\ii[225]!")
 EndEventProcessing()
 0()
EndIf()
If(1,13,0,20,2)
 ShowMessageFace("c_a3_fc1",0,0,2,46)
 ShowMessage("\\n<A-3>Please accept my holy water...")
 250(bytes(0x04,0x08,0x6f,0x3a,0x0c,0x52,0x50,0x47,0x3a,0x3a,0x53,0x45,0x08,0x3a,0x0a,0x40,0x6e,0x61,0x6d,0x65,0x49,0x22,0x0a,0x49,0x74,0x65,0x6d,0x31,0x06,0x3a,0x06,0x45,0x54,0x3a,0x0b,0x40,0x70,0x69,0x74,0x63,0x68,0x69,0x69,0x3a,0x0c,0x40,0x76,0x6f,0x6c,0x75,0x6d,0x65,0x69,0x55))
 ChangeInventory_Item(19,0,0,1)
 ShowMessageFace("",0,0,2,47)
 ShowMessage("A-3 gave you some \\ii[19]!")
 EndEventProcessing()
 0()
EndIf()
If(1,13,0,30,2)
 ShowMessageFace("c_a3_fc1",0,0,2,48)
 ShowMessage("\\n<A-3>Take this money...")
 250(bytes(0x04,0x08,0x6f,0x3a,0x0c,0x52,0x50,0x47,0x3a,0x3a,0x53,0x45,0x08,0x3a,0x0a,0x40,0x6e,0x61,0x6d,0x65,0x49,0x22,0x0a,0x49,0x74,0x65,0x6d,0x31,0x06,0x3a,0x06,0x45,0x54,0x3a,0x0b,0x40,0x70,0x69,0x74,0x63,0x68,0x69,0x69,0x3a,0x0c,0x40,0x76,0x6f,0x6c,0x75,0x6d,0x65,0x69,0x55))
 125(0,0,2090)
 ShowMessageFace("",0,0,2,49)
 ShowMessage("A-3 gave you 2090G!")
 EndEventProcessing()
 0()
EndIf()
0()
