﻿// EVENT 5781
Name "Rミュスカ2"

If(0,443,0)
 205(-1,bytes(0x04,0x08,0x6f,0x3a,0x13,0x52,0x50,0x47,0x3a,0x3a,0x4d,0x6f,0x76,0x65,0x52,0x6f,0x75,0x74,0x65,0x09,0x3a,0x0c,0x40,0x72,0x65,0x70,0x65,0x61,0x74,0x46,0x3a,0x0f,0x40,0x73,0x6b,0x69,0x70,0x70,0x61,0x62,0x6c,0x65,0x46,0x3a,0x0a,0x40,0x77,0x61,0x69,0x74,0x54,0x3a,0x0a,0x40,0x6c,0x69,0x73,0x74,0x5b,0x07,0x6f,0x3a,0x15,0x52,0x50,0x47,0x3a,0x3a,0x4d,0x6f,0x76,0x65,0x43,0x6f,0x6d,0x6d,0x61,0x6e,0x64,0x07,0x3a,0x0a,0x40,0x63,0x6f,0x64,0x65,0x69,0x16,0x3a,0x10,0x40,0x70,0x61,0x72,0x61,0x6d,0x65,0x74,0x65,0x72,0x73,0x5b,0x00,0x6f,0x3b,0x0a,0x07,0x3b,0x0b,0x69,0x00,0x3b,0x0c,0x5b,0x00))
 ChangeSwitch(31,31,0)
 222()
 0()
EndIf()
241(bytes(0x04,0x08,0x6f,0x3a,0x0d,0x52,0x50,0x47,0x3a,0x3a,0x42,0x47,0x4d,0x08,0x3a,0x0a,0x40,0x6e,0x61,0x6d,0x65,0x49,0x22,0x09,0x65,0x72,0x6f,0x31,0x06,0x3a,0x06,0x45,0x54,0x3a,0x0c,0x40,0x76,0x6f,0x6c,0x75,0x6d,0x65,0x69,0x69,0x3a,0x0b,0x40,0x70,0x69,0x74,0x63,0x68,0x69,0x69))
ShowMessageFace("myuska_fc1",5,0,2,1)
ShowMessage("【ミュスカ】")
ShowMessage("それじゃあ、さっそく……")
ShowMessage("いただきまーす♡")
ShowMessageFace("",0,0,2,2)
ShowMessage("【ルカ】")
ShowMessage("あ……あぁぁぁ～～！！")
245(bytes(0x04,0x08,0x6f,0x3a,0x0d,0x52,0x50,0x47,0x3a,0x3a,0x42,0x47,0x53,0x08,0x3a,0x0a,0x40,0x6e,0x61,0x6d,0x65,0x49,0x22,0x1e,0x6d,0x6f,0x6e,0x5f,0x68,0x73,0x65,0x61,0x6e,0x30,0x38,0x5f,0x69,0x6e,0x6e,0x65,0x72,0x77,0x6f,0x72,0x6b,0x73,0x5f,0x61,0x38,0x06,0x3a,0x06,0x45,0x54,0x3a,0x0c,0x40,0x76,0x6f,0x6c,0x75,0x6d,0x65,0x69,0x55,0x3a,0x0b,0x40,0x70,0x69,0x74,0x63,0x68,0x69,0x69))
ChangeSwitch(32,32,0)
211(0)
ShowMessageFace("",0,0,2,3)
ShowMessage("部屋に入るなり、ミュスカに騎乗位で犯されてしまった。")
ShowMessage("熱い肉壺がペニスを咥え込み、ぎゅぅっと締め付けられる。")
ShowMessageFace("",0,0,2,4)
ShowMessage("その快感は凄まじく、まるで肉棒が溶かされているかのよう。")
ShowMessage("だが、これは男の精を搾り尽くす魔膣なのだ――")
ShowMessageFace("",0,0,2,5)
ShowMessage("【ルカ】")
ShowMessage("あぁぁ……た、助けてぇ……！")
ShowMessageFace("myuska_fc1",5,0,2,6)
ShowMessage("【ミュスカ】")
ShowMessage("くすっ、もう逃げられないよぉ？")
ShowMessage("このまま、あたしのごはんにされちゃうんだから……")
ShowMessageFace("",0,0,2,7)
ShowMessage("【ルカ】")
ShowMessage("はぅぅぅぅっ……！")
ShowMessageFace("",0,0,2,8)
ShowMessage("ぎゅぅっと締まる膣内の快感に、たちまち我慢できなくなった。")
ShowMessage("ミュスカに乗られたまま、僕は腰をがくがくと震わせ――")
ShowMessageFace("",0,0,2,9)
ShowMessage("【ルカ】")
ShowMessage("あ……あぁぁぁっ！")
RunCommonEvent(104)
RunCommonEvent(105)
ShowMessageFace("",0,0,2,10)
ShowMessage("そのまま、あえなく膣内に精液を発射する。")
ShowMessage("男の命を奪う魔膣が、ずきゅずきゅと精を貪った――")
ShowMessageFace("",0,0,2,11)
ShowMessage("【ルカ】")
ShowMessage("あぐ……うぅ、あぁぁっ……！")
ShowMessageFace("myuska_fc1",5,0,2,12)
ShowMessage("【ミュスカ】")
ShowMessage("なんだぁ、もう出しちゃったの？")
ShowMessage("異世界の人間も、結局あたしのご飯なんだねぇ……")
ShowMessageFace("myuska_fc1",5,0,2,13)
ShowMessage("【ミュスカ】")
ShowMessage("……もういいや、期待外れだし……飽きちゃった。")
ShowMessage("このまま死んじゃっていいよ。")
ChangeSwitch(33,33,0)
ShowMessageFace("",0,0,2,14)
ShowMessage("【ルカ】")
ShowMessage("あぐ……あぅぅぅ～～！！")
ShowMessageFace("",0,0,2,15)
ShowMessage("ミュスカは、一気に精を吸い上げてきた！")
ShowMessage("柔肉がじゅぶじゅぶとうねり、肉棒をきつく搾り上げる。")
ShowMessageFace("",0,0,2,16)
ShowMessage("無慈悲な快楽は、一秒さえ耐えることを許さず――")
ShowMessage("僕は悶え狂いながら、全身をびくびくと痙攣させ――")
RunCommonEvent(104)
RunCommonEvent(105)
ShowMessageFace("",0,0,2,17)
ShowMessage("【ルカ】")
ShowMessage("あ……あぅ……はぅぅっ……！")
ShowMessageFace("",0,0,2,18)
ShowMessage("そのまま、射精を繰り返す状態に陥った。")
ShowMessage("ミュスカの魔膣の中で、精易が発射され続けているのだ――")
ShowMessageFace("myuska_fc1",5,0,2,19)
ShowMessage("【ミュスカ】")
ShowMessage("へぇ……まだ死んでないんだぁ。")
ShowMessage("生命力は、あるみたいだね。")
ShowMessageFace("",0,0,2,20)
ShowMessage("【ルカ】")
ShowMessage("ぁ……ぅぅ……")
ShowMessageFace("",0,0,2,21)
ShowMessage("サキュバスの体の下で、すっかり虫の息になってしまう。")
ShowMessage("そんな僕を、ミュスカは冷たい目で見下ろし――")
ShowMessageFace("myuska_fc1",5,0,2,22)
ShowMessage("【ミュスカ】")
ShowMessage("でも、これで終わりだよ。")
ShowMessage("ほぉら、死んじゃえ……♡")
ShowMessageFace("",0,0,2,23)
ShowMessage("【ルカ】")
ShowMessage("ひぁ……あぁぁぁ～～！！")
RunCommonEvent(104)
RunCommonEvent(105)
ShowMessageFace("",0,0,2,24)
ShowMessage("強烈な快感が全身を駆け巡り、体がびくびく痙攣し――")
ShowMessage("断末魔の悲鳴と共に、大量の白濁が噴き上がった。")
ShowMessageFace("",0,0,2,25)
ShowMessage("残された精が、ミュスカの膣内に根こそぎ搾り出され――")
ShowMessage("そして、みるみるうちに意識も薄れていき――")
ChangeSwitch(34,34,0)
246(2)
ShowMessageFace("",0,0,2,26)
ShowMessage("【ルカ】")
ShowMessage("……………………")
ShowMessageFace("",0,0,2,27)
ShowMessage("そのまま僕の体は、惨めに干涸らびてしまった。")
ShowMessage("ミュスカに貪り尽くされ、果ててしまったのだ――")
ShowMessageFace("myuska_fc1",5,0,2,28)
ShowMessage("【ミュスカ】")
ShowMessage("あははっ、とっても美味しかったよ♡")
ShowMessage("ごちそうさま……♡")
221()
246(2)
PictureClear(5)
PictureClear(6)
ShowMessageFace("",0,0,2,29)
ShowMessage("・・・・・・・・")
221()
242(1)
Wait(120)
If(0,443,0)
 EndEventProcessing()
 0()
EndIf()
RunCommonEvent(541)
0()
