// EVENT 4296
Name "Centaur"

If(0,25,1)
 221()
 PictureClear(5)
 PictureClear(6)
 ShowMessageFace("",0,0,2,0)
 ShowMessage("......")
 242(2)
 Wait(120)
 241(bytes(0x04,0x08,0x6f,0x3a,0x0d,0x52,0x50,0x47,0x3a,0x3a,0x42,0x47,0x4d,0x08,0x3a,0x0a,0x40,0x6e,0x61,0x6d,0x65,0x49,0x22,0x0c,0x63,0x61,0x73,0x74,0x6c,0x65,0x36,0x06,0x3a,0x06,0x45,0x54,0x3a,0x0c,0x40,0x76,0x6f,0x6c,0x75,0x6d,0x65,0x69,0x69,0x3a,0x0b,0x40,0x70,0x69,0x74,0x63,0x68,0x69,0x69))
 EndEventProcessing()
 0()
EndIf()
PictureDisplay(5,"80_cent2_st01",0,0,0,0,100,100,255,0)
ShowMessageFace("cent2_fc1",0,0,2,1)
ShowMessage("\\n<Lichtina>Y-You want me to violate you? Seriously?")
ShowMessageFace("",0,0,2,2)
ShowMessage("\\n<Luka>P-please...")
ShowMessageFace("cent2_fc1",0,0,2,3)
ShowMessage("\\n<Lichtina>......")
ShowMessageFace("",0,0,2,4)
ShowMessage("Lichtina looks at me appraising eyes.")
ShowMessage("Her eyes seem locked on my crotch.")
ShowMessageFace("cent2_fc1",0,0,2,5)
ShowMessage("\\n<Lichtina>I haven't tried a human's cock before...\n...I-I'll give it a try!")
ShowMessageFace("",0,0,2,6)
ShowMessage("In the next moment, her large body straddles over me.")
ShowMessage("Suddenly, she presses her body against me!")
ShowMessageFace("",0,0,2,7)
ShowMessage("The unexpected weight presses me against the ground.")
ShowMessage("In only seconds, I'm pinned to the floor under her!")
ShowMessageFace("cent2_fc1",0,0,2,8)
ShowMessage("\\n<Lichtina>If it's this size, I should be able to take it...?\nOk, I'll put it in!")
ShowMessageFace("",0,0,2,9)
ShowMessage("\\n<Luka>Ah, aaah!")
ShowMessageFace("",0,0,2,10)
ShowMessage("Lichtina pushes herself down against me...")
241(bytes(0x04,0x08,0x6f,0x3a,0x0d,0x52,0x50,0x47,0x3a,0x3a,0x42,0x47,0x4d,0x08,0x3a,0x0a,0x40,0x6e,0x61,0x6d,0x65,0x49,0x22,0x09,0x65,0x72,0x6f,0x31,0x06,0x3a,0x06,0x45,0x54,0x3a,0x0c,0x40,0x76,0x6f,0x6c,0x75,0x6d,0x65,0x69,0x69,0x3a,0x0b,0x40,0x70,0x69,0x74,0x63,0x68,0x69,0x69))
245(bytes(0x04,0x08,0x6f,0x3a,0x0d,0x52,0x50,0x47,0x3a,0x3a,0x42,0x47,0x53,0x08,0x3a,0x0a,0x40,0x6e,0x61,0x6d,0x65,0x49,0x22,0x1e,0x6d,0x6f,0x6e,0x5f,0x68,0x73,0x65,0x61,0x6e,0x30,0x34,0x5f,0x69,0x6e,0x6e,0x65,0x72,0x77,0x6f,0x72,0x6b,0x73,0x5f,0x61,0x34,0x06,0x3a,0x06,0x45,0x54,0x3a,0x0c,0x40,0x76,0x6f,0x6c,0x75,0x6d,0x65,0x69,0x55,0x3a,0x0b,0x40,0x70,0x69,0x74,0x63,0x68,0x69,0x69))
PictureDisplay(5,"ev_cent2_h1",0,0,0,0,100,100,0,0)
PictureMove(5,null,0,0,0,0,100,100,255,0,30,true)
ShowMessageFace("",0,0,2,11)
ShowMessage("And in the next moment, my penis slips inside her!")
ShowMessage("A strange, warm pressure envelops me.")
ShowMessageFace("",0,0,2,12)
ShowMessage("\\n<Luka>Ah, Ooooh...!")
ShowMessageFace("cent2_fc1",1,0,2,13)
ShowMessage("\\n<Lichtina>I-I put it in...!\nNnnn... This feels pretty good...")
ShowMessageFace("",0,0,2,14)
ShowMessage("My penis is quickly pulled deep inside Lichtina.")
ShowMessage("She's surprisingly warm inside.")
ShowMessageFace("",0,0,2,15)
ShowMessage("She isn't too tight, but there's a strange sensation of oppression.")
ShowMessage("Her soft, fleshy walls welcome me deep inside her.")
ShowMessageFace("cent2_fc1",1,0,2,16)
ShowMessage("\\n<Lichtina>Hmph, I don't want an easy win...\nI'm going to start moving, you better not come anytime soon.")
ShowMessageFace("",0,0,2,17)
ShowMessage("\\n<Luka>S-Slowly please...\nUnnngh...!!")
ShowMessageFace("",0,0,2,18)
ShowMessage("Lichtina's large horse ass goes up and down in front of my eyes.")
ShowMessage("As expected of her movements, it's like a long, deep stroke of my penis with each movement.")
ShowMessageFace("",0,0,2,19)
ShowMessage("An incredible sensation as she pounds me.")
ShowMessage("My penis is helpless in her incredible piston movement.")
ShowMessageFace("cent2_fc1",1,0,2,20)
ShowMessage("\\n<Lichtina>Like this, up and down... Nnnn!")
ShowMessageFace("",0,0,2,21)
ShowMessage("\\n<Luka>D-don't...! Aaah...")
ShowMessageFace("",0,0,2,22)
ShowMessage("When she stands up, my penis is pulled out of her.")
ShowMessage("The head of my penis is caught on her warm flesh as she pulls on me.")
ShowMessageFace("",0,0,2,23)
ShowMessage("And when she sits back down, I'm forced deep back inside.")
ShowMessage("My body trembles as I'm forced all the way into her.")
ShowMessageFace("",0,0,2,24)
ShowMessage("The pleasure assaults me over and over through each round-trip.")
ShowMessage("Lichtina's slow, rhythmic movements force intense pleasure into me.")
ShowMessageFace("",0,0,2,25)
ShowMessage("\\n<Luka>A-Aaaah...!")
ShowMessageFace("cent2_fc1",1,0,2,26)
ShowMessage("\\n<Lichtina>Amazing, this feels so good...\nYour dick is the best! More, give me more...!")
ShowMessageFace("",0,0,2,27)
ShowMessage("Lichtina starts to get more and more heated, increasing her speed.")
ShowMessage("Desiring her own pleasure, her movements start to get faster.")
ShowMessageFace("",0,0,2,28)
ShowMessage("The aggressive movements pull my penis out of her vagina.")
ShowMessage("But as her massive horse body comes back down, I'm forced deep back inside again.")
ShowMessageFace("",0,0,2,29)
ShowMessage("\\n<Luka>T-Too intense...! Aaah...!!")
ShowMessageFace("cent2_fc1",1,0,2,30)
ShowMessage("\\n<Lichtina>Stop complaining!\nI'm almost there...!")
ShowMessageFace("cent2_fc1",1,0,2,31)
ShowMessage("\\n<Lichtina>Nnnn...!\nI'm going to come...!")
ShowMessageFace("",0,0,2,32)
ShowMessage("Selfishly desiring her own pleasure, Lichtina lets out a sweet moan.")
ShowMessage("I'm no more than a tool for her to use to pleasure herself...")
ShowMessageFace("",0,0,2,33)
ShowMessage("But I'm nearing my own limit.")
ShowMessage("A sweet pleasure starts to work its way up my body...")
PictureDisplay(5,"ev_cent2_h2",0,0,0,0,100,100,255,0)
ShowMessageFace("cent2_fc1",1,0,2,34)
ShowMessage("\\n<Lichtina>No, coming...!\nAh, aaah...!!")
ShowMessageFace("",0,0,2,35)
ShowMessage("Suddenly, her body stiffens.")
ShowMessage("Her body starts to tremble as she sighs.")
ShowMessageFace("",0,0,2,36)
ShowMessage("At the same time, the feeling inside her vagina changes.")
ShowMessage("Her soft flesh contracts, intensely rubbing against my penis.")
ShowMessageFace("",0,0,2,37)
ShowMessage("\\n<Luka>Aah...! Aaaah...!!")
ShowMessageFace("",0,0,2,38)
ShowMessage("Lichtina's vagina squirms and rubs against me.")
ShowMessage("It's as if it won't let the man not come at the same time as she did.")
ShowMessageFace("",0,0,2,39)
ShowMessage("I try to endure and hold back the climax...")
ShowMessage("But there was no resisting this.")
ShowMessageFace("",0,0,2,40)
ShowMessage("\\n<Luka>Aaaah...!!")
RunCommonEvent(104)
PictureDisplay(5,"ev_cent2_h3",0,0,0,0,100,100,255,0)
RunCommonEvent(105)
ShowMessageFace("",0,0,2,41)
ShowMessage("I come, almost at the same time as Lichtina.")
ShowMessage("Tasting her vagina, squirming in her own climax, I come inside her.")
ShowMessageFace("",0,0,2,42)
ShowMessage("My semen spurts into her, my body too weak under her to pull out.")
ShowMessage("Mating with her, sending my seed into her body...")
ShowMessageFace("",0,0,2,43)
ShowMessage("I've mated with a monster, and gave her my semen...")
246(2)
PictureDisplay(5,"ev_cent2_h4",0,0,0,0,100,100,255,0)
ShowMessageFace("",0,0,2,44)
ShowMessage("\\n<Luka>Nnngh...")
ShowMessageFace("cent2_fc1",1,0,2,45)
ShowMessage("\\n<Lichtina>Huaaa...That felt so good...")
ShowMessageFace("cent2_fc1",0,0,2,46)
ShowMessage("\\n<Lichtina>......")
ShowMessageFace("cent2_fc1",0,0,2,47)
ShowMessage("\\n<Lichtina>...Hey, what the hell! You came inside me!")
ShowMessageFace("",0,0,2,48)
ShowMessage("\\n<Luka>Eh...?")
ShowMessageFace("cent2_fc1",0,0,2,49)
ShowMessage("\\n<Lichtina>Ahh... So much semen inside my pussy...\nI told you to hold back, didn't I? Sheesh...")
ShowMessageFace("",0,0,2,50)
ShowMessage("\\n<Luka>N...no way...")
ShowMessageFace("cent2_fc1",0,0,2,51)
ShowMessage("\\n<Lichtina>I'll have you take responsibility for this.\nAfter your adventure is over, you'll be my sex slave!")
ShowMessageFace("",0,0,2,52)
ShowMessage("\\n<Luka>That's completely unreasonable...")
ShowMessageFace("",0,0,2,53)
ShowMessage("But right now, I can't even stand up.")
ShowMessage("What's going to happen once my adventure is over...?")
221()
PictureClear(5)
ShowMessageFace("",0,0,2,54)
ShowMessage("......")
242(2)
Wait(120)
241(bytes(0x04,0x08,0x6f,0x3a,0x0d,0x52,0x50,0x47,0x3a,0x3a,0x42,0x47,0x4d,0x08,0x3a,0x0a,0x40,0x6e,0x61,0x6d,0x65,0x49,0x22,0x0c,0x63,0x61,0x73,0x74,0x6c,0x65,0x36,0x06,0x3a,0x06,0x45,0x54,0x3a,0x0c,0x40,0x76,0x6f,0x6c,0x75,0x6d,0x65,0x69,0x69,0x3a,0x0b,0x40,0x70,0x69,0x74,0x63,0x68,0x69,0x69))
0()
