﻿// EVENT 2057
Name "Seduction: Pitcher Plant Girl"

If(0,25,1)
 EndEventProcessing()
 0()
EndIf()
355("$game_troop.lose_event_id = 3057")
ChangeVariable(26,26,0,3,3,1,4)
ChangeVariable(26,26,4,0,10)
ShowMessageFace("utubo_fc1",2,0,2,1)
ShowMessage("\\n<Pitcher Plant Girl>I'll be eliminated at this rate...\nI'll need to make this one weak.")
ShowMessageFace("",0,0,2,2)
ShowMessage("The Pitcher Plant Girl moves a small pitcher plant toward Luka...")
ShowMessageFace("utubo_fc1",1,0,2,3)
ShowMessage("\\n<Pitcher Plant Girl>You should put your penis inside.\nIt will feel amazing! ♪")
ChangeSwitch(98,98,0)
ChangeSwitch(96,96,0)
ShowChoices(strings("Ignore her","Give in to temptation"),1)
IfPlayerPicksChoice(0,"Ignore her")
 ShowMessageFace("",0,0,2,4)
 ShowMessage("Luka resists her temptation!")
 RunCommonEvent(1999)
 EndEventProcessing()
 0()
IfPlayerPicksChoice(1,"誘惑に乗る")
 0()
404()
ShowMessageFace("utubo_fc1",0,0,2,5)
ShowMessage("\\n<Pitcher Plant Girl>You're a boy, so you must want to stick it in, no?\nIt's a pitcher plant for penises, so it will feel amazing♪")
ChangeVariable(26,26,3,0,2)
250(bytes(0x04,0x08,0x6f,0x3a,0x0c,0x52,0x50,0x47,0x3a,0x3a,0x53,0x45,0x08,0x3a,0x0a,0x40,0x6e,0x61,0x6d,0x65,0x49,0x22,0x12,0x6d,0x6f,0x6e,0x5f,0x65,0x72,0x6f,0x5f,0x6e,0x61,0x6d,0x65,0x31,0x06,0x3a,0x06,0x45,0x54,0x3a,0x0b,0x40,0x70,0x69,0x74,0x63,0x68,0x69,0x69,0x3a,0x0c,0x40,0x76,0x6f,0x6c,0x75,0x6d,0x65,0x69,0x69))
311(0,1,1,1,26,true)
ShowMessageFace("",0,0,2,6)
ShowMessage("The pitcher plant covers Luka's penis!\nThe slimy mucus inside stimulates him!\\D")
ShowMessage("Luka takes \\V[26] damage!")
ChangeVariable(27,27,0,3,3,1,2)
If(1,27,0,0,0)
 JumpToLabel("射精1")
 0()
EndIf()
ShowMessageFace("utubo_fc1",0,0,2,7)
ShowMessage("\\n<Pitcher Plant Girl>Well? Isn't it great?\nIt's much better than a human pussy! ♪")
250(bytes(0x04,0x08,0x6f,0x3a,0x0c,0x52,0x50,0x47,0x3a,0x3a,0x53,0x45,0x08,0x3a,0x0a,0x40,0x6e,0x61,0x6d,0x65,0x49,0x22,0x12,0x6d,0x6f,0x6e,0x5f,0x65,0x72,0x6f,0x5f,0x6e,0x61,0x6d,0x65,0x31,0x06,0x3a,0x06,0x45,0x54,0x3a,0x0b,0x40,0x70,0x69,0x74,0x63,0x68,0x69,0x69,0x3a,0x0c,0x40,0x76,0x6f,0x6c,0x75,0x6d,0x65,0x69,0x69))
311(0,1,1,1,26,true)
ShowMessageFace("",0,0,2,8)
ShowMessage("The walls of the pitcher plant rub Luka's penis!\nCovered in mucus, they squeeze him!\\D")
ShowMessage("Luka takes \\V[26] damage!")
ChangeVariable(27,27,0,3,3,1,2)
If(1,27,0,0,0)
 JumpToLabel("射精2")
 0()
EndIf()
ShowMessageFace("utubo_fc1",0,0,2,9)
ShowMessage("\\n<Pitcher Plant Girl>It's wriggling inside, can you feel it?\nI wonder if your penis will melt away like that♪")
250(bytes(0x04,0x08,0x6f,0x3a,0x0c,0x52,0x50,0x47,0x3a,0x3a,0x53,0x45,0x08,0x3a,0x0a,0x40,0x6e,0x61,0x6d,0x65,0x49,0x22,0x12,0x6d,0x6f,0x6e,0x5f,0x65,0x72,0x6f,0x5f,0x6e,0x61,0x6d,0x65,0x31,0x06,0x3a,0x06,0x45,0x54,0x3a,0x0b,0x40,0x70,0x69,0x74,0x63,0x68,0x69,0x69,0x3a,0x0c,0x40,0x76,0x6f,0x6c,0x75,0x6d,0x65,0x69,0x69))
311(0,1,1,1,26,true)
ShowMessageFace("",0,0,2,10)
ShowMessage("The pitcher plant's walls wriggle and squirm against Luka's penis! The strange movements massage Luka's penis!\\D")
ShowMessage("Luka takes \\V[26] damage!")
ChangeVariable(27,27,0,3,3,1,2)
If(1,27,0,0,0)
 JumpToLabel("射精2")
 0()
EndIf()
ShowMessageFace("utubo_fc1",0,0,2,11)
ShowMessage("\\n<Pitcher Plant Girl>Hora, it's time for digestive liquid.\nIs it going to melt? Is your penis going to dissolve?")
250(bytes(0x04,0x08,0x6f,0x3a,0x0c,0x52,0x50,0x47,0x3a,0x3a,0x53,0x45,0x08,0x3a,0x0a,0x40,0x6e,0x61,0x6d,0x65,0x49,0x22,0x12,0x6d,0x6f,0x6e,0x5f,0x65,0x72,0x6f,0x5f,0x6e,0x61,0x6d,0x65,0x31,0x06,0x3a,0x06,0x45,0x54,0x3a,0x0b,0x40,0x70,0x69,0x74,0x63,0x68,0x69,0x69,0x3a,0x0c,0x40,0x76,0x6f,0x6c,0x75,0x6d,0x65,0x69,0x69))
311(0,1,1,1,26,true)
ShowMessageFace("",0,0,2,12)
ShowMessage("More viscous fluid oozes out!\nIt covers every inch of Luka's penis!\\D")
ShowMessage("Luka takes \\V[26] damage!")
ChangeVariable(27,27,0,3,3,1,2)
If(1,27,0,0,0)
 JumpToLabel("射精2")
 0()
EndIf()
ShowMessageFace("utubo_fc1",0,0,2,13)
ShowMessage("\\n<Pitcher Plant Girl>Ahaha, you're going to come soon, aren't you?\nPlease let all of your seed out in my pitcher♪")
250(bytes(0x04,0x08,0x6f,0x3a,0x0c,0x52,0x50,0x47,0x3a,0x3a,0x53,0x45,0x08,0x3a,0x0a,0x40,0x6e,0x61,0x6d,0x65,0x49,0x22,0x12,0x6d,0x6f,0x6e,0x5f,0x65,0x72,0x6f,0x5f,0x6e,0x61,0x6d,0x65,0x31,0x06,0x3a,0x06,0x45,0x54,0x3a,0x0b,0x40,0x70,0x69,0x74,0x63,0x68,0x69,0x69,0x3a,0x0c,0x40,0x76,0x6f,0x6c,0x75,0x6d,0x65,0x69,0x69))
311(0,1,1,1,26,true)
ShowMessageFace("",0,0,2,14)
ShowMessage("The pitcher plant around Luka's penis shrinks!\nCovered in mucus, the walls rubbing against him drive Luka over the edge!\\D")
ShowMessage("Luka takes \\V[26] damage!")
ChangeVariable(27,27,0,3,3,1,2)
If(1,27,0,0,0)
 JumpToLabel("射精2")
 0()
EndIf()
DefineLabel("射精1")
ShowMessageFace("",0,0,2,15)
ShowMessage("\\n<Luka>Aaah... So slimy...")
RunCommonEvent(104)
RunCommonEvent(105)
ShowMessageFace("",0,0,2,16)
ShowMessage("The moment I put myself inside the pitcher plant, I come.\nI couldn't withstand the sexy touch...")
ShowMessageFace("utubo_fc1",0,0,2,17)
ShowMessage("\\n<Pitcher Plant Girl>Ahaha, an instant finish.\nYour penis is even weaker than that other kid's♪")
RunCommonEvent(2000)
EndEventProcessing()
DefineLabel("射精2")
ShowMessageFace("",0,0,2,18)
ShowMessage("\\n<Luka>Aaah... That feels good...")
RunCommonEvent(104)
RunCommonEvent(105)
ShowMessageFace("",0,0,2,19)
ShowMessage("Tasting the sensations of the pitcher plant, I come.\nMy semen gushes out into the strange pitcher plant.")
ShowMessageFace("utubo_fc1",0,0,2,20)
ShowMessage("\\n<Pitcher Plant Girl>Ahaha, look at all the semen inside♪\nI'll take all of it as nutrients...")
RunCommonEvent(2000)
EndEventProcessing()
0()
