﻿


EVENT   2
 PAGE   1
  0()



EVENT   3
 PAGE   1
  0()



EVENT   4
 PAGE   1
  0()



EVENT   5
 PAGE   1
  0()



EVENT   6
 PAGE   1
  0()



EVENT   7
 PAGE   1
  0()



EVENT   8
 PAGE   1
  0()



EVENT   9
 PAGE   1
  0()



EVENT   10
 PAGE   1
  0()



EVENT   11
 PAGE   1
  0()



EVENT   20
 PAGE   1
  281(0)
  250(bytes(0x04,0x08,0x6f,0x3a,0x0c,0x52,0x50,0x47,0x3a,0x3a,0x53,0x45,0x08,0x3a,0x0a,0x40,0x6e,0x61,0x6d,0x65,0x49,0x22,0x09,0x4d,0x6f,0x76,0x65,0x06,0x3a,0x06,0x45,0x54,0x3a,0x0b,0x40,0x70,0x69,0x74,0x63,0x68,0x69,0x69,0x3a,0x0c,0x40,0x76,0x6f,0x6c,0x75,0x6d,0x65,0x69,0x55))
  TeleportPlayer(0,78,33,36,0,0)
  0()



EVENT   19
 PAGE   1
  0()



EVENT   23
 PAGE   1
  ShowMessageFace("People3",5,0,2,1)
  ShowMessage("【メイド】")
  ShowMessage("現在、中庭では業者が剪定作業を行っております。")
  ShowMessage("本日中の立ち入りはご遠慮願います。")
  0()



EVENT   14
 PAGE   1
  ShowMessageFace("zinitauros_fc1",0,0,2,1)
  ShowMessage("【大工Ａ】")
  ShowMessage("補修工事中につき、この階段は使用禁止です。")
  ShowMessage("別の階段を使って下さい。")
  0()



EVENT   15
 PAGE   1
  ShowMessageFace("zinitauros_fc1",0,0,2,1)
  ShowMessage("【大工Ｂ】")
  ShowMessage("手すりがずいぶん痛んでるな、取り替えないと……")
  ShowMessage("……あっ、今日中には終わるのでご心配なく。")
  0()



EVENT   18
 PAGE   1
  // condition: variable 1099 >= 4
  ShowMessageFace("name2_fc2",1,0,2,1)
  ShowMessage("【メルティ】")
  ShowMessage("地下洞窟も清掃中だから、しばらく居場所がないの。")
  ShowMessage("こんな乾いた場所にいると、萎えるわ……")
  ShowMessageFace("name2_fc2",1,0,2,2)
  ShowMessage("【メルティ】")
  ShowMessage("退屈だから、お話でもしない？")
  If(0,2338,0)
   ShowMessageFace("",0,0,2,3)
   ShowMessage("今は、荷物を運んでいる最中だ。")
   ShowMessage("大聖堂に向かうことを優先しよう。")
   EndEventProcessing()
   0()
  EndIf()
  DefineLabel("メイン")
  355("ex_choice_add(\"話に付き合う（時間経過）\",1,")
  655("\"v[1098] >= 5\",0)")
  655("ex_choice_add(\"異変について相談する\",2,")
  655("\"s[2341]\",0)")
  655("ex_choice_add(\"後悔していることについて聞く\",3,")
  655("\"s[2342]\",0)")
  655("ex_choice_add(\"時を繰り返す道具について聞く\",4,")
  655("\"s[2343]\",0)")
  655("ex_choice_add(\"ピザを注文したか聞く\",5,")
  655("\"s[2345]\",0)")
  355("ex_choice_add(\"謎のマキナについて聞く\",6,")
  655("\"s[2365]\",0)")
  655("ex_choice_add(\"作戦に必要な品について聞く\",7,")
  655("\"s[2364]\",0)")
  655("ex_choice_add(\"お茶会に誘う\",8,")
  655("\"s[2378]\",0)")
  655("ex_choice_add(\"立ち去る\",10)")
  355("ex_choice_show(0,11,[0,0])")
  If(1,9,0,1,0)
   ShowMessageFace("name2_fc2",1,0,2,4)
   ShowMessage("【メルティ】")
   ShowMessage("私達が普段いる地下洞窟を清掃中なんだけど……")
   ShowMessage("ジメジメ感がなくなっちゃったら、困るわよね。")
   ShowMessageFace("",0,0,2,5)
   ShowMessage("メルティと他愛ない話をして過ごした……")
   If(1,1099,0,4,0)
    RunCommonEvent(5819)
    EndEventProcessing()
    0()
   EndIf()
   RunCommonEvent(540)
   EndEventProcessing()
   0()
  EndIf()
  If(1,9,0,2,0)
   ShowMessageFace("",0,0,2,6)
   ShowMessage("ルカは、異変について相談した……")
   ShowMessageFace("name2_fc2",1,0,2,7)
   ShowMessage("【メルティ】")
   ShowMessage("あら、それは大変。")
   ShowMessage("それじゃあ、交尾しない？")
   ShowMessageFace("",0,0,2,8)
   ShowMessage("メルティは頼れそうにない……")
   JumpToLabel("メイン")
   0()
  EndIf()
  If(1,9,0,3,0)
   ShowMessageFace("name2_fc2",1,0,2,9)
   ShowMessage("【メルティ】")
   ShowMessage("別にないわね……")
   ShowMessage("私達は、交尾できれば満足なの。")
   ShowMessageFace("",0,0,2,10)
   ShowMessage("有益な情報は得られなかった……")
   JumpToLabel("メイン")
   0()
  EndIf()
  If(1,9,0,4,0)
   ShowMessageFace("name2_fc2",1,0,2,11)
   ShowMessage("【メルティ】")
   ShowMessage("そのアイテムがあれば、交尾がし放題……")
   ShowMessage("面白いわね、ふふっ。")
   ShowMessageFace("",0,0,2,12)
   ShowMessage("有益な情報は得られなかった……")
   JumpToLabel("メイン")
   0()
  EndIf()
  If(1,9,0,5,0)
   ShowMessageFace("name2_fc2",1,0,2,13)
   ShowMessage("【メルティ】")
   ShowMessage("ピザ？　知らないわねぇ……")
   ShowMessageFace("",0,0,2,14)
   ShowMessage("ピザを頼んだのはメルティではないようだ……")
   JumpToLabel("メイン")
   0()
  EndIf()
  If(1,9,0,6,0)
   ShowMessageFace("name2_fc2",1,0,2,15)
   ShowMessage("【メルティ】")
   ShowMessage("マキナとは相性が悪いのよ。")
   ShowMessage("触ったら、ヌメヌメになるし……")
   ShowMessageFace("",0,0,2,16)
   ShowMessage("有益な情報は得られなかった……")
   JumpToLabel("メイン")
   0()
  EndIf()
  If(1,9,0,7,0)
   ShowMessageFace("name2_fc2",1,0,2,17)
   ShowMessage("【メルティ】")
   ShowMessage("なぁんにも持ってないわ……残念ね。")
   ShowMessageFace("",0,0,2,18)
   ShowMessage("有益なアイテムは得られなかった……")
   JumpToLabel("メイン")
   0()
  EndIf()
  If(1,9,0,8,0)
   ShowMessageFace("name2_fc2",3,0,2,19)
   ShowMessage("【メルティ】")
   ShowMessage("く、黒のアリスのお茶会……？")
   ShowMessage("悪いけど、遠慮させてもらうわ……")
   ShowMessageFace("",0,0,2,20)
   ShowMessage("メルティはお茶会の誘いを断った……")
   JumpToLabel("メイン")
   0()
  EndIf()
  EndEventProcessing()
  0()



EVENT   26
 PAGE   1
  RunCommonEvent(574)
  0()
 PAGE   2
  // condition: variable 1099 >= 3
  RunCommonEvent(574)
  0()



EVENT   1
 PAGE   1
  ShowMessageFace("pramia_fc1",0,0,2,1)
  ShowMessage("【プチ】")
  ShowMessage("いらっしゃいませ、プチラミアの宿屋だよ！")
  ShowMessage("少しの時間、休んでいく？")
  If(1,1098,0,3,0)
   ShowMessageFace("",0,0,2,2)
   ShowMessage("今は先に、ピザを届けに行こう。")
   ShowMessage("ステージで練習しているはずだ。")
   EndEventProcessing()
   0()
  EndIf()
  If(1,1098,0,4,0)
   ShowMessageFace("",0,0,2,3)
   ShowMessage("今は先に、一階の食堂に昼ごはんを食べに行こう。")
   EndEventProcessing()
   0()
  EndIf()
  If(1,1098,0,7,0)
   ShowMessageFace("",0,0,2,4)
   ShowMessage("今は先に、ピザを届けに行こう。")
   ShowMessage("ステージで練習しているはずだ。")
   EndEventProcessing()
   0()
  EndIf()
  DefineLabel("メイン")
  If(1,1099,0,1,0)
   355("ex_choice_add(\"二時まで休む（時間経過）\",11,")
   655("\"v[1098] >= 5\",0)")
   655("ex_choice_add(\"三時まで休む（時間経過）\",12,")
   655("\"v[1098] >= 5\",0)")
   655("ex_choice_add(\"四時まで休む（時間経過）\",13,")
   655("\"v[1098] >= 5\",0)")
   0()
  EndIf()
  If(1,1099,0,2,0)
   355("ex_choice_add(\"三時まで休む（時間経過）\",12,")
   655("\"v[1098] >= 5\",0)")
   655("ex_choice_add(\"四時まで休む（時間経過）\",13,")
   655("\"v[1098] >= 5\",0)")
   0()
  EndIf()
  If(1,1099,0,3,0)
   355("ex_choice_add(\"四時まで休む（時間経過）\",13,")
   655("\"v[1098] >= 5\",0)")
   0()
  EndIf()
  355("ex_choice_add(\"異変について相談する\",2,")
  655("\"s[2341]\",0)")
  655("ex_choice_add(\"後悔していることについて聞く\",3,")
  655("\"s[2342]\",0)")
  655("ex_choice_add(\"時を繰り返す道具について聞く\",4,")
  655("\"s[2343]\",0)")
  655("ex_choice_add(\"ピザを注文したか聞く\",5,")
  655("\"s[2345]\",0)")
  355("ex_choice_add(\"謎のマキナについて聞く\",6,")
  655("\"s[2365]\",0)")
  655("ex_choice_add(\"作戦に必要な品について聞く\",7,")
  655("\"s[2364]\",0)")
  655("ex_choice_add(\"お茶会に誘う\",8,")
  655("\"s[2378]\",0)")
  655("ex_choice_add(\"立ち去る\",10)")
  355("ex_choice_show(0,11,[0,0])")
  If(1,9,0,11,0)
   ShowMessageFace("pramia_fc1",0,0,2,5)
   ShowMessage("【プチ】")
   ShowMessage("それじゃあ、中へどうぞ……♪")
   ShowMessageFace("",0,0,2,6)
   ShowMessage("プチラミアの宿屋で、ゆっくり体を休めた……")
   221()
   205(0,bytes(0x04,0x08,0x6f,0x3a,0x13,0x52,0x50,0x47,0x3a,0x3a,0x4d,0x6f,0x76,0x65,0x52,0x6f,0x75,0x74,0x65,0x09,0x3a,0x0c,0x40,0x72,0x65,0x70,0x65,0x61,0x74,0x46,0x3a,0x0f,0x40,0x73,0x6b,0x69,0x70,0x70,0x61,0x62,0x6c,0x65,0x46,0x3a,0x0a,0x40,0x77,0x61,0x69,0x74,0x54,0x3a,0x0a,0x40,0x6c,0x69,0x73,0x74,0x5b,0x07,0x6f,0x3a,0x15,0x52,0x50,0x47,0x3a,0x3a,0x4d,0x6f,0x76,0x65,0x43,0x6f,0x6d,0x6d,0x61,0x6e,0x64,0x07,0x3a,0x0a,0x40,0x63,0x6f,0x64,0x65,0x69,0x17,0x3a,0x10,0x40,0x70,0x61,0x72,0x61,0x6d,0x65,0x74,0x65,0x72,0x73,0x5b,0x00,0x6f,0x3b,0x0a,0x07,0x3b,0x0b,0x69,0x00,0x3b,0x0c,0x5b,0x00))
   ChangeVariable(1099,1099,0,0,1)
   RunCommonEvent(540)
   EndEventProcessing()
   0()
  EndIf()
  If(1,9,0,12,0)
   ShowMessageFace("pramia_fc1",0,0,2,7)
   ShowMessage("【プチ】")
   ShowMessage("それじゃあ、中へどうぞ……♪")
   ShowMessageFace("",0,0,2,8)
   ShowMessage("プチラミアの宿屋で、ゆっくり体を休めた……")
   221()
   205(0,bytes(0x04,0x08,0x6f,0x3a,0x13,0x52,0x50,0x47,0x3a,0x3a,0x4d,0x6f,0x76,0x65,0x52,0x6f,0x75,0x74,0x65,0x09,0x3a,0x0c,0x40,0x72,0x65,0x70,0x65,0x61,0x74,0x46,0x3a,0x0f,0x40,0x73,0x6b,0x69,0x70,0x70,0x61,0x62,0x6c,0x65,0x46,0x3a,0x0a,0x40,0x77,0x61,0x69,0x74,0x54,0x3a,0x0a,0x40,0x6c,0x69,0x73,0x74,0x5b,0x07,0x6f,0x3a,0x15,0x52,0x50,0x47,0x3a,0x3a,0x4d,0x6f,0x76,0x65,0x43,0x6f,0x6d,0x6d,0x61,0x6e,0x64,0x07,0x3a,0x0a,0x40,0x63,0x6f,0x64,0x65,0x69,0x17,0x3a,0x10,0x40,0x70,0x61,0x72,0x61,0x6d,0x65,0x74,0x65,0x72,0x73,0x5b,0x00,0x6f,0x3b,0x0a,0x07,0x3b,0x0b,0x69,0x00,0x3b,0x0c,0x5b,0x00))
   ChangeVariable(1099,1099,0,0,2)
   RunCommonEvent(540)
   EndEventProcessing()
   0()
  EndIf()
  If(1,9,0,13,0)
   ShowMessageFace("pramia_fc1",0,0,2,9)
   ShowMessage("【プチ】")
   ShowMessage("それじゃあ、中へどうぞ……♪")
   ShowMessageFace("",0,0,2,10)
   ShowMessage("プチラミアの宿屋で、ゆっくり体を休めた……")
   221()
   205(0,bytes(0x04,0x08,0x6f,0x3a,0x13,0x52,0x50,0x47,0x3a,0x3a,0x4d,0x6f,0x76,0x65,0x52,0x6f,0x75,0x74,0x65,0x09,0x3a,0x0c,0x40,0x72,0x65,0x70,0x65,0x61,0x74,0x46,0x3a,0x0f,0x40,0x73,0x6b,0x69,0x70,0x70,0x61,0x62,0x6c,0x65,0x46,0x3a,0x0a,0x40,0x77,0x61,0x69,0x74,0x54,0x3a,0x0a,0x40,0x6c,0x69,0x73,0x74,0x5b,0x07,0x6f,0x3a,0x15,0x52,0x50,0x47,0x3a,0x3a,0x4d,0x6f,0x76,0x65,0x43,0x6f,0x6d,0x6d,0x61,0x6e,0x64,0x07,0x3a,0x0a,0x40,0x63,0x6f,0x64,0x65,0x69,0x17,0x3a,0x10,0x40,0x70,0x61,0x72,0x61,0x6d,0x65,0x74,0x65,0x72,0x73,0x5b,0x00,0x6f,0x3b,0x0a,0x07,0x3b,0x0b,0x69,0x00,0x3b,0x0c,0x5b,0x00))
   ChangeVariable(1099,1099,0,0,3)
   RunCommonEvent(540)
   EndEventProcessing()
   0()
  EndIf()
  If(1,9,0,2,0)
   ShowMessageFace("",0,0,2,11)
   ShowMessage("ルカは、異変について相談した……")
   ShowMessageFace("pramia_fc1",2,0,2,12)
   ShowMessage("【プチ】")
   ShowMessage("そんなこと言われても、あたしじゃ何も出来ないよ～！")
   ShowMessageFace("",0,0,2,13)
   ShowMessage("プチは頼れそうにない……")
   JumpToLabel("メイン")
   0()
  EndIf()
  If(1,9,0,3,0)
   ShowMessageFace("pramia_fc1",0,0,2,14)
   ShowMessage("【プチ】")
   ShowMessage("今は、一人前のおかみになるので手一杯だから。")
   ShowMessage("過去を振り返ってるヒマはないかなぁ。")
   ShowMessageFace("",0,0,2,15)
   ShowMessage("有益な情報は得られなかった……")
   JumpToLabel("メイン")
   0()
  EndIf()
  If(1,9,0,4,0)
   ShowMessageFace("pramia_fc1",0,0,2,16)
   ShowMessage("【プチ】")
   ShowMessage("そういうの、詳しくないし……")
   ShowMessage("ヴァニラに聞いてみたら？")
   ShowMessageFace("",0,0,2,17)
   ShowMessage("有益な情報は得られなかった……")
   JumpToLabel("メイン")
   0()
  EndIf()
  If(1,9,0,5,0)
   ShowMessageFace("pramia_fc1",0,0,2,18)
   ShowMessage("【プチ】")
   ShowMessage("ピザなら自分で焼くし……")
   ShowMessage("わざわざ注文したりはしないよ。")
   ShowMessageFace("",0,0,2,19)
   ShowMessage("ピザを頼んだのはプチではないようだ……")
   JumpToLabel("メイン")
   0()
  EndIf()
  If(1,9,0,6,0)
   ShowMessageFace("pramia_fc1",0,0,2,20)
   ShowMessage("【プチ】")
   ShowMessage("これ、マキナ？")
   ShowMessage("あんまり詳しくないから、分かんない……")
   ShowMessageFace("",0,0,2,21)
   ShowMessage("有益な情報は得られなかった……")
   JumpToLabel("メイン")
   0()
  EndIf()
  If(1,9,0,7,0)
   ShowMessageFace("pramia_fc1",0,0,2,22)
   ShowMessage("【プチ】")
   ShowMessage("アイテムの事なら、ヴァニラを頼ってよ。")
   ShowMessage("ここは宿屋なんだし……")
   ShowMessageFace("",0,0,2,23)
   ShowMessage("有益なアイテムは得られなかった……")
   JumpToLabel("メイン")
   0()
  EndIf()
  If(1,9,0,8,0)
   ShowMessageFace("pramia_fc1",4,0,2,24)
   ShowMessage("【プチ】")
   ShowMessage("い、行かない……")
   ShowMessage("宿のお仕事が忙しいし……")
   ShowMessageFace("",0,0,2,25)
   ShowMessage("プチはお茶会の誘いを断った……")
   JumpToLabel("メイン")
   0()
  EndIf()
  EndEventProcessing()
  0()
 PAGE   2
  // condition: variable 1099 >= 4
  0()



EVENT   12
 PAGE   1
  // condition: switch 2337 is ON
  ShowMessageFace("gob_fc1",0,0,2,1)
  ShowMessage("【ゴブ】")
  ShowMessage("今日は冒険お休みだから、配達の仕事をしてるの。")
  ShowMessage("ポケット魔王城から、宅配ピザの注文があったんだよ。")
  ShowMessageFace("ruka_fc1",0,0,2,2)
  ShowMessage("【ルカ】")
  ShowMessage("……………………")
  ShowMessageFace("",0,0,2,3)
  ShowMessage("ピザを受け取ろうか、それとも――")
  ShowChoices(strings("受け取る","受け取らない"),2)
  IfPlayerPicksChoice(0,null)
   ShowMessageFace("gob_fc1",0,0,2,4)
   ShowMessage("【ゴブ】")
   ShowMessage("はい、あつあつだよ！")
   250(bytes(0x04,0x08,0x6f,0x3a,0x0c,0x52,0x50,0x47,0x3a,0x3a,0x53,0x45,0x08,0x3a,0x0a,0x40,0x6e,0x61,0x6d,0x65,0x49,0x22,0x0a,0x49,0x74,0x65,0x6d,0x31,0x06,0x3a,0x06,0x45,0x54,0x3a,0x0b,0x40,0x70,0x69,0x74,0x63,0x68,0x69,0x69,0x3a,0x0c,0x40,0x76,0x6f,0x6c,0x75,0x6d,0x65,0x69,0x55))
   ChangeSwitch(2346,2346,0)
   ShowMessageFace("",0,0,2,5)
   ShowMessage("ルカはゴブからピザを受け取り、代金を立て替えた！")
   ShowMessageFace("gob_fc1",4,0,2,6)
   ShowMessage("【ゴブ】")
   ShowMessage("えっ？　まだ何かあるの？")
   0()
  IfPlayerPicksChoice(1,null)
   ShowMessageFace("gob_fc1",3,0,2,7)
   ShowMessage("【ゴブ】")
   ShowMessage("え～、困るよぉ……")
   ShowMessageFace("ruka_fc1",0,0,2,8)
   ShowMessage("【ルカ】")
   ShowMessage("僕だって困ってるんだ。")
   ShowMessage("いや、たぶん僕の方が困ってる。")
   ShowMessageFace("gob_fc1",4,0,2,9)
   ShowMessage("【ゴブ】")
   ShowMessage("……ど、どうしたの？")
   ShowMessage("何か相談があるなら、聞くよ？")
   0()
  404()
  DefineLabel("メイン")
  355("ex_choice_add(\"異変について相談する\",2,")
  655("\"s[2341]\",0)")
  655("ex_choice_add(\"後悔していることについて聞く\",3,")
  655("\"s[2342]\",0)")
  655("ex_choice_add(\"時を繰り返す道具について聞く\",4,")
  655("\"s[2343]\",0)")
  655("ex_choice_add(\"ピザを注文したか聞く\",5,")
  655("\"s[2345]\",0)")
  355("ex_choice_add(\"謎のマキナについて聞く\",6,")
  655("\"s[2365]\",0)")
  655("ex_choice_add(\"作戦に必要な品について聞く\",7,")
  655("\"s[2364]\",0)")
  655("ex_choice_add(\"お茶会に誘う\",8,")
  655("\"s[2378]\",0)")
  655("ex_choice_add(\"立ち去る\",10)")
  355("ex_choice_show(0,11,[0,0])")
  If(1,9,0,2,0)
   ShowMessageFace("",0,0,2,10)
   ShowMessage("ルカは、異変について相談した……")
   ShowMessageFace("gob_fc1",3,0,2,11)
   ShowMessage("【ゴブ】")
   ShowMessage("それは……ちょっとボクには力になれそうにないね。")
   ShowMessage("もっと頼れる人が他にいるはずだよ。")
   ShowMessageFace("",0,0,2,12)
   ShowMessage("ゴブは頼れそうにない……")
   JumpToLabel("メイン")
   0()
  EndIf()
  If(1,9,0,3,0)
   ShowMessageFace("gob_fc1",0,0,2,13)
   ShowMessage("【ゴブ】")
   ShowMessage("別にないなぁ……")
   ShowMessage("人生経験、まだまだペラペラだからね。")
   ShowMessageFace("gob_fc1",0,0,2,14)
   ShowMessage("【ゴブ】")
   ShowMessage("盗賊稼業に手を染めたこともあったけど……")
   ShowMessage("そこから更正したことも含めて、ボクの人生だし。")
   ShowMessageFace("",0,0,2,15)
   ShowMessage("有益な情報は得られなかった……")
   JumpToLabel("メイン")
   0()
  EndIf()
  If(1,9,0,4,0)
   ShowMessageFace("gob_fc1",4,0,2,16)
   ShowMessage("【ゴブ】")
   ShowMessage("そんな道具、聞いたこともないなぁ……")
   ShowMessageFace("",0,0,2,17)
   ShowMessage("有益な情報は得られなかった……")
   JumpToLabel("メイン")
   0()
  EndIf()
  If(1,9,0,5,0)
   ShowMessageFace("gob_fc1",4,0,2,18)
   ShowMessage("【ゴブ】")
   ShowMessage("ボクじゃないよ。")
   ShowMessage("なんで自分で頼んで、自分で届けなきゃいけないのさ……")
   ShowMessageFace("ruka_fc1",0,0,2,19)
   ShowMessage("【ルカ】")
   ShowMessage("誰が頼んだか、分かるかな？")
   ShowMessageFace("gob_fc1",4,0,2,20)
   ShowMessage("【ゴブ】")
   ShowMessage("ちょっと前に、水晶ネットで予約が入ったみたいだよ。")
   ShowMessage("注文者の名前は空白、住所はここだったんだって。")
   ShowMessageFace("ruka_fc1",0,0,2,21)
   ShowMessage("【ルカ】")
   ShowMessage("ポケット魔王城、住所あったのか……")
   ShowMessage("ともかく、詳しいことは分からないんだね。")
   ShowMessageFace("",0,0,2,22)
   ShowMessage("いったい、誰がピザの配達を頼んだのだろうか。")
   ShowMessage("この異変には関係ないかもしれないが、なんだか気になる……")
   JumpToLabel("メイン")
   0()
  EndIf()
  If(1,9,0,6,0)
   ShowMessageFace("gob_fc1",4,0,2,23)
   ShowMessage("【ゴブ】")
   ShowMessage("マキナぁ？")
   ShowMessage("ボクに分かるわけないでしょ……")
   ShowMessageFace("",0,0,2,24)
   ShowMessage("有益な情報は得られなかった……")
   JumpToLabel("メイン")
   0()
  EndIf()
  If(1,9,0,7,0)
   ShowMessageFace("gob_fc1",4,0,2,25)
   ShowMessage("【ゴブ】")
   ShowMessage("そういうアイテムは持ってないなぁ……")
   ShowMessage("ヴァニラに聞いてみたらどう？")
   ShowMessageFace("",0,0,2,26)
   ShowMessage("有益なアイテムは得られなかった……")
   JumpToLabel("メイン")
   0()
  EndIf()
  If(1,9,0,8,0)
   ShowMessageFace("gob_fc1",3,0,2,27)
   ShowMessage("【ゴブ】")
   ShowMessage("げぇっ！！")
   ShowMessage("そんなの、命がいくつあっても足りないよ！")
   ShowMessageFace("",0,0,2,28)
   ShowMessage("ゴブはお茶会の誘いを断った……")
   JumpToLabel("メイン")
   0()
  EndIf()
  ShowMessageFace("gob_fc1",0,0,2,29)
  ShowMessage("【ゴブ】")
  ShowMessage("それじゃあボクは、配達の仕事に戻るね。")
  ShowMessage("今晩のお祭りに間に合うように、急がないと！")
  205(12,bytes(0x04,0x08,0x6f,0x3a,0x13,0x52,0x50,0x47,0x3a,0x3a,0x4d,0x6f,0x76,0x65,0x52,0x6f,0x75,0x74,0x65,0x09,0x3a,0x0c,0x40,0x72,0x65,0x70,0x65,0x61,0x74,0x46,0x3a,0x0f,0x40,0x73,0x6b,0x69,0x70,0x70,0x61,0x62,0x6c,0x65,0x54,0x3a,0x0a,0x40,0x77,0x61,0x69,0x74,0x46,0x3a,0x0a,0x40,0x6c,0x69,0x73,0x74,0x5b,0x15,0x6f,0x3a,0x15,0x52,0x50,0x47,0x3a,0x3a,0x4d,0x6f,0x76,0x65,0x43,0x6f,0x6d,0x6d,0x61,0x6e,0x64,0x07,0x3a,0x0a,0x40,0x63,0x6f,0x64,0x65,0x69,0x2a,0x3a,0x10,0x40,0x70,0x61,0x72,0x61,0x6d,0x65,0x74,0x65,0x72,0x73,0x5b,0x00,0x6f,0x3b,0x0a,0x07,0x3b,0x0b,0x69,0x22,0x3b,0x0c,0x5b,0x06,0x69,0x0b,0x6f,0x3b,0x0a,0x07,0x3b,0x0b,0x69,0x23,0x3b,0x0c,0x5b,0x06,0x69,0x0a,0x6f,0x3b,0x0a,0x07,0x3b,0x0b,0x69,0x06,0x3b,0x0c,0x5b,0x00,0x6f,0x3b,0x0a,0x07,0x3b,0x0b,0x69,0x06,0x3b,0x0c,0x5b,0x00,0x6f,0x3b,0x0a,0x07,0x3b,0x0b,0x69,0x06,0x3b,0x0c,0x5b,0x00,0x6f,0x3b,0x0a,0x07,0x3b,0x0b,0x69,0x06,0x3b,0x0c,0x5b,0x00,0x6f,0x3b,0x0a,0x07,0x3b,0x0b,0x69,0x06,0x3b,0x0c,0x5b,0x00,0x6f,0x3b,0x0a,0x07,0x3b,0x0b,0x69,0x06,0x3b,0x0c,0x5b,0x00,0x6f,0x3b,0x0a,0x07,0x3b,0x0b,0x69,0x06,0x3b,0x0c,0x5b,0x00,0x6f,0x3b,0x0a,0x07,0x3b,0x0b,0x69,0x06,0x3b,0x0c,0x5b,0x00,0x6f,0x3b,0x0a,0x07,0x3b,0x0b,0x69,0x06,0x3b,0x0c,0x5b,0x00,0x6f,0x3b,0x0a,0x07,0x3b,0x0b,0x69,0x06,0x3b,0x0c,0x5b,0x00,0x6f,0x3b,0x0a,0x07,0x3b,0x0b,0x69,0x06,0x3b,0x0c,0x5b,0x00,0x6f,0x3b,0x0a,0x07,0x3b,0x0b,0x69,0x2c,0x3b,0x0c,0x5b,0x00,0x6f,0x3b,0x0a,0x07,0x3b,0x0b,0x69,0x00,0x3b,0x0c,0x5b,0x00))
  ShowMessageFace("gob_fc1",0,0,2,30)
  ShowMessage("【ゴブ】")
  ShowMessage("ばびゅーん！")
  ShowMessageFace("",0,0,2,31)
  ShowMessage("ゴブは走り去っていった……")
  ShowMessageFace("ruka_fc1",0,0,2,32)
  ShowMessage("【ルカ】")
  ShowMessage("祭り、か……")
  ShowMessage("いつになったら行けるのかなぁ。")
  ChangeSwitch(2337,2337,1)
  EndEventProcessing()
  0()
 PAGE   2
  // condition: variable 1099 >= 2
  0()



EVENT   13
 PAGE   1
  ShowMessageFace("alicetromeria_fc1",0,0,2,1)
  ShowMessage("【アリストロメリア】")
  ShowMessage("あら、あなたですか……")
  ShowMessage("せっかくですので、お茶に付き合ってくれませんか？")
  If(1,1098,0,3,0)
   ShowMessageFace("",0,0,2,2)
   ShowMessage("今は先に、ピザを届けに行こう。")
   ShowMessage("ステージで練習しているはずだ。")
   EndEventProcessing()
   0()
  EndIf()
  If(1,1098,0,4,0)
   ShowMessageFace("",0,0,2,3)
   ShowMessage("今は先に、一階の食堂に昼ごはんを食べに行こう。")
   EndEventProcessing()
   0()
  EndIf()
  If(1,1098,0,7,0)
   ShowMessageFace("",0,0,2,4)
   ShowMessage("今は先に、ピザを届けに行こう。")
   ShowMessage("ステージで練習しているはずだ。")
   EndEventProcessing()
   0()
  EndIf()
  DefineLabel("メイン")
  355("ex_choice_add(\"お茶に付き合う（時間経過）\",1,")
  655("\"v[1098] >= 5\",0)")
  655("ex_choice_add(\"異変について相談する\",2,")
  655("\"s[2341]\",0)")
  655("ex_choice_add(\"後悔していることについて聞く\",3,")
  655("\"s[2342]\",0)")
  655("ex_choice_add(\"時を繰り返す道具について聞く\",4,")
  655("\"s[2343]\",0)")
  655("ex_choice_add(\"ピザを注文したか聞く\",5,")
  655("\"s[2345]\",0)")
  355("ex_choice_add(\"謎のマキナについて聞く\",6,")
  655("\"s[2365]\",0)")
  655("ex_choice_add(\"作戦に必要な品について聞く\",7,")
  655("\"s[2364]\",0)")
  655("ex_choice_add(\"お茶会に誘う\",8,")
  655("\"s[2378]\",0)")
  655("ex_choice_add(\"立ち去る\",10)")
  355("ex_choice_show(0,11,[0,0])")
  If(1,9,0,1,0)
   ShowMessageFace("alicetromeria_fc1",0,0,2,5)
   ShowMessage("【アリストロメリア】")
   ShowMessage("それでは、こちらにどうぞ……")
   221()
   205(0,bytes(0x04,0x08,0x6f,0x3a,0x13,0x52,0x50,0x47,0x3a,0x3a,0x4d,0x6f,0x76,0x65,0x52,0x6f,0x75,0x74,0x65,0x09,0x3a,0x0c,0x40,0x72,0x65,0x70,0x65,0x61,0x74,0x46,0x3a,0x0f,0x40,0x73,0x6b,0x69,0x70,0x70,0x61,0x62,0x6c,0x65,0x46,0x3a,0x0a,0x40,0x77,0x61,0x69,0x74,0x54,0x3a,0x0a,0x40,0x6c,0x69,0x73,0x74,0x5b,0x07,0x6f,0x3a,0x15,0x52,0x50,0x47,0x3a,0x3a,0x4d,0x6f,0x76,0x65,0x43,0x6f,0x6d,0x6d,0x61,0x6e,0x64,0x07,0x3a,0x0a,0x40,0x63,0x6f,0x64,0x65,0x69,0x17,0x3a,0x10,0x40,0x70,0x61,0x72,0x61,0x6d,0x65,0x74,0x65,0x72,0x73,0x5b,0x00,0x6f,0x3b,0x0a,0x07,0x3b,0x0b,0x69,0x00,0x3b,0x0c,0x5b,0x00))
   TeleportPlayer(0,77,10,28,4,2)
   222()
   ShowMessageFace("alicetromeria_fc1",4,0,2,6)
   ShowMessage("【アリストロメリア】")
   ShowMessage("うふふふふ……")
   ShowMessage("うふふふ……")
   ShowMessageFace("ruka_fc1",0,0,2,7)
   ShowMessage("【ルカ】")
   ShowMessage("何がそんなに面白いの……？")
   ShowMessageFace("",0,0,2,8)
   ShowMessage("アリストロメリアとお茶の時間を楽しんだ……")
   RunCommonEvent(540)
   EndEventProcessing()
   0()
  EndIf()
  If(1,9,0,2,0)
   ShowMessageFace("",0,0,2,9)
   ShowMessage("ルカは、異変について相談した……")
   ShowMessageFace("alicetromeria_fc1",0,0,2,10)
   ShowMessage("【アリストロメリア】")
   ShowMessage("あら、愉しそうではありませんか。")
   ShowMessage("出来ることなら、私もご一緒したいほどですわ。")
   ShowMessageFace("alicetromeria_fc1",0,0,2,11)
   ShowMessage("【アリストロメリア】")
   ShowMessage("でも、私でさえ繰り返す時を認識できない以上……")
   ShowMessage("お力添えをすることは出来ませんわ。")
   ShowMessageFace("",0,0,2,12)
   ShowMessage("アリストロメリアは頼れそうにない……")
   JumpToLabel("メイン")
   0()
  EndIf()
  If(1,9,0,3,0)
   ShowMessageFace("alicetromeria_fc1",0,0,2,13)
   ShowMessage("【アリストロメリア】")
   ShowMessage("後悔とは、人生のスパイスのようなもの……")
   ShowMessage("程良い味付けが、生を潤沢にするものです。")
   ShowMessageFace("alicetromeria_fc1",0,0,2,14)
   ShowMessage("【アリストロメリア】")
   ShowMessage("とは言え、この一件に私は関わっておりません。")
   ShowMessage("どうせやるなら、もっと皆が愉しめる趣向にしますわ……")
   ShowMessageFace("",0,0,2,15)
   ShowMessage("有益な情報は得られなかった……")
   JumpToLabel("メイン")
   0()
  EndIf()
  If(1,9,0,4,0)
   ShowMessageFace("alicetromeria_fc1",0,0,2,16)
   ShowMessage("【アリストロメリア】")
   ShowMessage("イリアスなら、そのような道具を作ることも出来るはず……")
   ShowMessage("まあ、この一件に関わっているかどうかは別の話ですが。")
   ShowMessageFace("",0,0,2,17)
   ShowMessage("有益な情報は得られなかった……")
   JumpToLabel("メイン")
   0()
  EndIf()
  If(1,9,0,5,0)
   ShowMessageFace("alicetromeria_fc1",0,0,2,18)
   ShowMessage("【アリストロメリア】")
   ShowMessage("心当たりはありませんわ……")
   ShowMessageFace("",0,0,2,19)
   ShowMessage("ピザを頼んだのはアリストロメリアではないようだ……")
   JumpToLabel("メイン")
   0()
  EndIf()
  If(1,9,0,6,0)
   ShowMessageFace("alicetromeria_fc1",0,0,2,20)
   ShowMessage("【アリストロメリア】")
   ShowMessage("これは、通信型のマキナですわね。")
   ShowMessage("詳しいことは、他の人にお任せしましょう……")
   ShowMessageFace("",0,0,2,21)
   ShowMessage("有益な情報は得られなかった……")
   JumpToLabel("メイン")
   0()
  EndIf()
  If(1,9,0,7,0)
   ShowMessageFace("alicetromeria_fc1",0,0,2,22)
   ShowMessage("【アリストロメリア】")
   ShowMessage("そういった品は、あまり持ち合わせていないので。")
   ShowMessage("残念ですわ……")
   ShowMessageFace("",0,0,2,23)
   ShowMessage("有益なアイテムは得られなかった……")
   JumpToLabel("メイン")
   0()
  EndIf()
  If(1,9,0,8,0)
   ShowMessageFace("alicetromeria_fc1",0,0,2,24)
   ShowMessage("【アリストロメリア】")
   ShowMessage("あら、私のためにお客を集めてくれているのですか？")
   ShowMessage("楽しみです、うふふふっ……")
   EndEventProcessing()
   0()
  EndIf()
  EndEventProcessing()
  0()
 PAGE   2
  // condition: variable 1099 >= 2
  0()



EVENT   16
 PAGE   1
  // condition: variable 1099 >= 2
  ShowMessageFace("heinrich_fc1",7,0,2,1)
  ShowMessage("【ハインリヒ】")
  ShowMessage("やぁ、ルカ君。")
  ShowMessage("せっかくだし、コーヒーでもどうだい？")
  DefineLabel("メイン")
  355("ex_choice_add(\"コーヒーに付き合う（時間経過）\",1,")
  655("\"v[1098] >= 5\",0)")
  655("ex_choice_add(\"異変について相談する\",2,")
  655("\"s[2341]\",0)")
  655("ex_choice_add(\"後悔していることについて聞く\",3,")
  655("\"s[2342]\",0)")
  655("ex_choice_add(\"時を繰り返す道具について聞く\",4,")
  655("\"s[2343]\",0)")
  655("ex_choice_add(\"ピザを注文したか聞く\",5,")
  655("\"s[2345]\",0)")
  355("ex_choice_add(\"謎のマキナについて聞く\",6,")
  655("\"s[2365]\",0)")
  655("ex_choice_add(\"作戦に必要な品について聞く\",7,")
  655("\"s[2364]\",0)")
  655("ex_choice_add(\"お茶会に誘う\",8,")
  655("\"s[2378]\",0)")
  655("ex_choice_add(\"立ち去る\",10)")
  355("ex_choice_show(0,11,[0,0])")
  If(1,9,0,1,0)
   ShowMessageFace("ruka_fc1",0,0,2,2)
   ShowMessage("【ルカ】")
   ShowMessage("喜んで、ご一緒させて頂きます！")
   221()
   205(0,bytes(0x04,0x08,0x6f,0x3a,0x13,0x52,0x50,0x47,0x3a,0x3a,0x4d,0x6f,0x76,0x65,0x52,0x6f,0x75,0x74,0x65,0x09,0x3a,0x0c,0x40,0x72,0x65,0x70,0x65,0x61,0x74,0x46,0x3a,0x0f,0x40,0x73,0x6b,0x69,0x70,0x70,0x61,0x62,0x6c,0x65,0x46,0x3a,0x0a,0x40,0x77,0x61,0x69,0x74,0x54,0x3a,0x0a,0x40,0x6c,0x69,0x73,0x74,0x5b,0x07,0x6f,0x3a,0x15,0x52,0x50,0x47,0x3a,0x3a,0x4d,0x6f,0x76,0x65,0x43,0x6f,0x6d,0x6d,0x61,0x6e,0x64,0x07,0x3a,0x0a,0x40,0x63,0x6f,0x64,0x65,0x69,0x16,0x3a,0x10,0x40,0x70,0x61,0x72,0x61,0x6d,0x65,0x74,0x65,0x72,0x73,0x5b,0x00,0x6f,0x3b,0x0a,0x07,0x3b,0x0b,0x69,0x00,0x3b,0x0c,0x5b,0x00))
   TeleportPlayer(0,77,7,26,6,2)
   222()
   ShowMessageFace("ruka_fc1",0,0,2,3)
   ShowMessage("【ルカ】")
   ShowMessage("ぜひ、ぜひ冒険の話を！")
   ShowMessageFace("heinrich_fc1",7,0,2,4)
   ShowMessage("【ハインリヒ】")
   ShowMessage("そんなに面白い話はないんだけどね。")
   ShowMessage("そうだなぁ、あれはサン・イリアに到着した日――")
   ShowMessageFace("",0,0,2,5)
   ShowMessage("ハインリヒと楽しい時間を過ごした……")
   RunCommonEvent(540)
   EndEventProcessing()
   0()
  EndIf()
  If(1,9,0,2,0)
   ShowMessageFace("",0,0,2,6)
   ShowMessage("ルカは、異変について相談した……")
   ShowMessageFace("heinrich_fc1",0,0,2,7)
   ShowMessage("【ハインリヒ】")
   ShowMessage("それは、厄介な現象だね。")
   ShowMessage("でも、剣をかざして打ち倒せる相手ではないようだ……")
   ShowMessageFace("heinrich_fc1",7,0,2,8)
   ShowMessage("【ハインリヒ】")
   ShowMessage("君の力になれないことを、申し訳なく思う。")
   ShowMessage("何か僕に役立てることがあれば、言ってくれ。")
   ShowMessageFace("",0,0,2,9)
   ShowMessage("ハインリヒは頼れそうにない……")
   JumpToLabel("メイン")
   0()
  EndIf()
  If(1,9,0,3,0)
   ShowMessageFace("heinrich_fc1",7,0,2,10)
   ShowMessage("【ハインリヒ】")
   ShowMessage("後ろを向く余裕があるような旅じゃなかった……")
   ShowMessage("まあ、そんなところだね。")
   ShowMessageFace("",0,0,2,11)
   ShowMessage("有益な情報は得られなかった……")
   JumpToLabel("メイン")
   0()
  EndIf()
  If(1,9,0,4,0)
   ShowMessageFace("heinrich_fc1",7,0,2,12)
   ShowMessage("【ハインリヒ】")
   ShowMessage("知らないなぁ……")
   ShowMessage("長く旅をしてきたけど、そんなアイテムは初めて聞くよ。")
   ShowMessageFace("",0,0,2,13)
   ShowMessage("有益な情報は得られなかった……")
   JumpToLabel("メイン")
   0()
  EndIf()
  If(1,9,0,5,0)
   ShowMessageFace("heinrich_fc1",7,0,2,14)
   ShowMessage("【ハインリヒ】")
   ShowMessage("心当たりはないなぁ……")
   ShowMessage("アリストロメリアなら、そういうパーティも好きそうだね。")
   ShowMessageFace("",0,0,2,15)
   ShowMessage("ピザを頼んだのはハインリヒではないようだ……")
   JumpToLabel("メイン")
   0()
  EndIf()
  If(1,9,0,6,0)
   ShowMessageFace("heinrich_fc1",5,0,2,16)
   ShowMessage("【ハインリヒ】")
   ShowMessage("これは、マキナかい？")
   ShowMessage("すまない、まったく知識がないんだ……")
   ShowMessageFace("",0,0,2,17)
   ShowMessage("有益な情報は得られなかった……")
   JumpToLabel("メイン")
   0()
  EndIf()
  If(1,9,0,7,0)
   ShowMessageFace("heinrich_fc1",5,0,2,18)
   ShowMessage("【ハインリヒ】")
   ShowMessage("割と剣一本でやってきた身だから……")
   ShowMessage("基本消費アイテムくらいしか持ち合わせはないね。")
   ShowMessageFace("",0,0,2,19)
   ShowMessage("有益なアイテムは得られなかった……")
   JumpToLabel("メイン")
   0()
  EndIf()
  If(1,9,0,8,0)
   If(1,1113,0,7,5)
    If(1,1114,0,7,5)
     ShowMessageFace("heinrich_fc1",7,0,2,20)
     ShowMessage("【ハインリヒ】")
     ShowMessage("アリストロメリアのお茶会か。")
     ShowMessage("喜んで参加させてもらうよ！")
     If(1,1116,0,2,0)
      ChangeVariable(1116,1116,0,0,3)
      ChangeVariable(1115,1115,0,0,7)
      ChangeSwitch(2378,2378,1)
      0()
     EndIf()
     If(1,1116,0,1,0)
      ChangeVariable(1116,1116,0,0,2)
      ChangeVariable(1114,1114,0,0,7)
      0()
     EndIf()
     If(1,1116,0,0,0)
      ChangeVariable(1116,1116,0,0,1)
      ChangeVariable(1113,1113,0,0,7)
      0()
     EndIf()
     249(bytes(0x04,0x08,0x6f,0x3a,0x0c,0x52,0x50,0x47,0x3a,0x3a,0x4d,0x45,0x08,0x3a,0x0a,0x40,0x6e,0x61,0x6d,0x65,0x49,0x22,0x10,0x6d,0x6f,0x6e,0x5f,0x66,0x61,0x6e,0x66,0x61,0x6c,0x65,0x06,0x3a,0x06,0x45,0x54,0x3a,0x0b,0x40,0x70,0x69,0x74,0x63,0x68,0x69,0x69,0x3a,0x0c,0x40,0x76,0x6f,0x6c,0x75,0x6d,0x65,0x69,0x69))
     ShowMessageFace("",0,0,2,21)
     ShowMessage("ハインリヒはお茶会の誘いに乗った！")
     If(1,1116,0,1,0)
      ShowMessageFace("",0,0,2,22)
      ShowMessage("黒のアリスのお茶会に招待したのは、これで一人。")
      ShowMessage("あと二人、参加者を集めよう！")
      0()
     EndIf()
     If(1,1116,0,2,0)
      ShowMessageFace("",0,0,2,23)
      ShowMessage("黒のアリスのお茶会に招待したのは、これで二人。")
      ShowMessage("あと一人、参加者を集めよう！")
      0()
     EndIf()
     If(1,1116,0,3,0)
      ShowMessageFace("",0,0,2,24)
      ShowMessage("黒のアリスのお茶会に招待したのは、これで三人。")
      ShowMessage("四時になったら、黒のアリスの部屋に行こう！")
      0()
     EndIf()
     JumpToLabel("メイン")
     0()
    EndIf()
    0()
   EndIf()
   ShowMessageFace("",0,0,2,25)
   ShowMessage("すでにお茶会に招待している……")
   JumpToLabel("メイン")
   0()
  EndIf()
  EndEventProcessing()
  0()
 PAGE   2
  // condition: variable 1099 >= 3
  0()



EVENT   27
 PAGE   1
  // condition: variable 1099 >= 3
  ShowMessageFace("morrigan_fc1",0,0,2,1)
  ShowMessage("【モリガン】")
  ShowMessage("キャッキャッ")
  ShowMessageFace("nuruko_fc1",0,0,2,2)
  ShowMessage("【ヌルコ】")
  ShowMessage("きゅきゅー！")
  ShowMessageFace("",0,0,2,3)
  ShowMessage("モリガンとヌルコは楽しそうに遊んでいる……")
  205(0,bytes(0x04,0x08,0x6f,0x3a,0x13,0x52,0x50,0x47,0x3a,0x3a,0x4d,0x6f,0x76,0x65,0x52,0x6f,0x75,0x74,0x65,0x09,0x3a,0x0c,0x40,0x72,0x65,0x70,0x65,0x61,0x74,0x46,0x3a,0x0f,0x40,0x73,0x6b,0x69,0x70,0x70,0x61,0x62,0x6c,0x65,0x46,0x3a,0x0a,0x40,0x77,0x61,0x69,0x74,0x54,0x3a,0x0a,0x40,0x6c,0x69,0x73,0x74,0x5b,0x09,0x6f,0x3a,0x15,0x52,0x50,0x47,0x3a,0x3a,0x4d,0x6f,0x76,0x65,0x43,0x6f,0x6d,0x6d,0x61,0x6e,0x64,0x07,0x3a,0x0a,0x40,0x63,0x6f,0x64,0x65,0x69,0x29,0x3a,0x10,0x40,0x70,0x61,0x72,0x61,0x6d,0x65,0x74,0x65,0x72,0x73,0x5b,0x00,0x6f,0x3b,0x0a,0x07,0x3b,0x0b,0x69,0x1e,0x3b,0x0c,0x5b,0x00,0x6f,0x3b,0x0a,0x07,0x3b,0x0b,0x69,0x28,0x3b,0x0c,0x5b,0x00,0x6f,0x3b,0x0a,0x07,0x3b,0x0b,0x69,0x00,0x3b,0x0c,0x5b,0x00))
  ShowMessageFace("morrigan_fc1",0,0,2,4)
  ShowMessage("【モリガン】")
  ShowMessage("おっ、ルカじゃないか。")
  ShowMessage("お前も一緒に遊ぼうぜ！")
  If(0,2338,0)
   ShowMessageFace("",0,0,2,5)
   ShowMessage("今は、荷物を運んでいる最中だ。")
   ShowMessage("大聖堂に向かうことを優先しよう。")
   EndEventProcessing()
   0()
  EndIf()
  DefineLabel("メイン")
  355("ex_choice_add(\"一緒に遊ぶ（時間経過）\",1,")
  655("\"v[1098] >= 5\",0)")
  655("ex_choice_add(\"異変について相談する\",2,")
  655("\"s[2341]\",0)")
  655("ex_choice_add(\"後悔していることについて聞く\",3,")
  655("\"s[2342]\",0)")
  655("ex_choice_add(\"時を繰り返す道具について聞く\",4,")
  655("\"s[2343]\",0)")
  655("ex_choice_add(\"ピザを注文したか聞く\",5,")
  655("\"s[2345]\",0)")
  355("ex_choice_add(\"謎のマキナについて聞く\",6,")
  655("\"s[2365]\",0)")
  655("ex_choice_add(\"作戦に必要な品について聞く\",7,")
  655("\"s[2364]\",0)")
  655("ex_choice_add(\"お茶会に誘う\",8,")
  655("\"s[2378]\",0)")
  655("ex_choice_add(\"立ち去る\",10)")
  355("ex_choice_show(0,11,[0,0])")
  If(1,9,0,1,0)
   205(0,bytes(0x04,0x08,0x6f,0x3a,0x13,0x52,0x50,0x47,0x3a,0x3a,0x4d,0x6f,0x76,0x65,0x52,0x6f,0x75,0x74,0x65,0x09,0x3a,0x0c,0x40,0x72,0x65,0x70,0x65,0x61,0x74,0x46,0x3a,0x0f,0x40,0x73,0x6b,0x69,0x70,0x70,0x61,0x62,0x6c,0x65,0x46,0x3a,0x0a,0x40,0x77,0x61,0x69,0x74,0x54,0x3a,0x0a,0x40,0x6c,0x69,0x73,0x74,0x5b,0x09,0x6f,0x3a,0x15,0x52,0x50,0x47,0x3a,0x3a,0x4d,0x6f,0x76,0x65,0x43,0x6f,0x6d,0x6d,0x61,0x6e,0x64,0x07,0x3a,0x0a,0x40,0x63,0x6f,0x64,0x65,0x69,0x29,0x3a,0x10,0x40,0x70,0x61,0x72,0x61,0x6d,0x65,0x74,0x65,0x72,0x73,0x5b,0x00,0x6f,0x3b,0x0a,0x07,0x3b,0x0b,0x69,0x18,0x3b,0x0c,0x5b,0x00,0x6f,0x3b,0x0a,0x07,0x3b,0x0b,0x69,0x28,0x3b,0x0c,0x5b,0x00,0x6f,0x3b,0x0a,0x07,0x3b,0x0b,0x69,0x00,0x3b,0x0c,0x5b,0x00))
   ShowMessageFace("morrigan_fc1",0,0,2,6)
   ShowMessage("【モリガン】")
   ShowMessage("ほら！　リンゴか魚かどっちが食べたい～？")
   ShowMessageFace("nuruko_fc1",0,0,2,7)
   ShowMessage("【ヌルコ】")
   ShowMessage("きゅきゅっ！")
   ShowMessageFace(binary"",0,0,2,8)
   ShowMessage("ヌルコは、触手をリンゴと魚の両方に伸ばした！")
   ShowMessageFace("morrigan_fc1",0,0,2,9)
   ShowMessage("【モリガン】")
   ShowMessage("両方か、食いしんぼだな！")
   ShowMessage("もうすぐお祭りなのに、お腹いっぱいになっちゃうぞ～？")
   ShowMessageFace("nuruko_fc1",0,0,2,10)
   ShowMessage("【ヌルコ】")
   ShowMessage("きゅ、きゅきゅー！")
   ShowMessageFace("",0,0,2,11)
   ShowMessage("モリガンと一緒にヌルコを可愛がった……")
   If(1,1099,0,4,0)
    205(26,bytes(0x04,0x08,0x6f,0x3a,0x13,0x52,0x50,0x47,0x3a,0x3a,0x4d,0x6f,0x76,0x65,0x52,0x6f,0x75,0x74,0x65,0x09,0x3a,0x0c,0x40,0x72,0x65,0x70,0x65,0x61,0x74,0x46,0x3a,0x0f,0x40,0x73,0x6b,0x69,0x70,0x70,0x61,0x62,0x6c,0x65,0x46,0x3a,0x0a,0x40,0x77,0x61,0x69,0x74,0x54,0x3a,0x0a,0x40,0x6c,0x69,0x73,0x74,0x5b,0x07,0x6f,0x3a,0x15,0x52,0x50,0x47,0x3a,0x3a,0x4d,0x6f,0x76,0x65,0x43,0x6f,0x6d,0x6d,0x61,0x6e,0x64,0x07,0x3a,0x0a,0x40,0x63,0x6f,0x64,0x65,0x69,0x27,0x3a,0x10,0x40,0x70,0x61,0x72,0x61,0x6d,0x65,0x74,0x65,0x72,0x73,0x5b,0x00,0x6f,0x3b,0x0a,0x07,0x3b,0x0b,0x69,0x00,0x3b,0x0c,0x5b,0x00))
    ShowMessageFace("nuruko_fc1",2,0,2,12)
    ShowMessage("【ヌルコ】")
    ShowMessage("ＺＺＺ……")
    ShowMessageFace("",0,0,2,13)
    ShowMessage("ヌルコは、遊び疲れて眠ってしまったようだ……")
    RunCommonEvent(5837)
    EndEventProcessing()
    0()
   EndIf()
   RunCommonEvent(540)
   EndEventProcessing()
   0()
  EndIf()
  If(1,9,0,2,0)
   ShowMessageFace("",0,0,2,14)
   ShowMessage("ルカは、異変について相談した……")
   ShowMessageFace("morrigan_fc1",2,0,2,15)
   ShowMessage("【モリガン】")
   ShowMessage("そりゃヤバそうだな……")
   ShowMessage("待ってろ、姉貴達に相談に行ってやるから！")
   ShowMessageFace("morrigan_fc1",6,0,2,16)
   ShowMessage("【モリガン】")
   ShowMessage("でも、往復に対策に……間違いなく四時間以上はかかるぜ。")
   ShowMessage("五時の時点でループだから、間に合わないな。")
   ShowMessageFace("morrigan_fc1",0,0,2,17)
   ShowMessage("【モリガン】")
   ShowMessage("……役に立てなくて、ゴメン！")
   ShowMessageFace("",0,0,2,18)
   ShowMessage("モリガンは頼れそうにない……")
   JumpToLabel("メイン")
   0()
  EndIf()
  If(1,9,0,3,0)
   ShowMessageFace("morrigan_fc1",6,0,2,19)
   ShowMessage("【モリガン】")
   ShowMessage("まあ、後悔してることは色々あるけど……")
   ShowMessage("今回の任務に持ち込んだりはしないぜ。")
   ShowMessageFace("",0,0,2,20)
   ShowMessage("有益な情報は得られなかった……")
   JumpToLabel("メイン")
   0()
  EndIf()
  If(1,9,0,4,0)
   ShowMessageFace("morrigan_fc1",6,0,2,21)
   ShowMessage("【モリガン】")
   ShowMessage("時間系なら、イリアスの術か……？")
   ShowMessage("そういうアイテムを、もしかして作ってたのかもな。")
   ShowMessageFace("",0,0,2,22)
   ShowMessage("曖昧な情報で、あまり役立ちそうにない……")
   JumpToLabel("メイン")
   0()
  EndIf()
  If(1,9,0,5,0)
   ShowMessageFace("morrigan_fc1",0,0,2,23)
   ShowMessage("【モリガン】")
   ShowMessage("えっ、ピザ頼めるのか！？")
   ShowMessage("さっそく頼んでみようぜ、念話でいいのか？")
   ShowMessageFace("",0,0,2,24)
   ShowMessage("ピザを頼んだのはモリガンではないようだ……")
   JumpToLabel("メイン")
   0()
  EndIf()
  If(1,9,0,6,0)
   ShowMessageFace("morrigan_fc1",0,0,2,25)
   ShowMessage("【モリガン】")
   ShowMessage("マキナが詳しいように見えるか？")
   ShowMessage("腕時計さえ三日で壊しちまったぜ！")
   ShowMessageFace("",0,0,2,26)
   ShowMessage("有益な情報は得られなかった……")
   JumpToLabel("メイン")
   0()
  EndIf()
  If(1,9,0,7,0)
   If(1,1108,0,0,0)
    ShowMessageFace("morrigan_fc1",1,0,2,27)
    ShowMessage("【モリガン】")
    ShowMessage("あたしの髪の毛が欲しいって？")
    ShowMessage("頼みを聞いてくれたら、あげてもいいぜ。")
    ShowMessageFace("ruka_fc1",0,0,2,28)
    ShowMessage("【ルカ】")
    ShowMessage("ま……まさか、僕の精を……？")
    ShowMessageFace("morrigan_fc1",0,0,2,29)
    ShowMessage("【モリガン】")
    ShowMessage("なんだ、それが望みなのか？")
    ShowMessage("それなら、いくらでも吸ってやるぜ！")
    ShowMessageFace("ruka_fc1",0,0,2,30)
    ShowMessage("【ルカ】")
    ShowMessage("いや、それは駄目だよ……")
    ShowMessage("頼みっていうのは？")
    ShowMessageFace("morrigan_fc1",0,0,2,31)
    ShowMessage("【モリガン】")
    ShowMessage("あたしは今、仲間としてここにいるわけだけど……")
    ShowMessage("これも立派な任務なんだって、分かるよな？")
    ShowMessageFace("morrigan_fc1",0,0,2,32)
    ShowMessage("【モリガン】")
    ShowMessage("その任務ってのは、チームの監視と……")
    ShowMessage("それに、お前達の信頼を得ることなのさ。")
    ShowMessageFace("ruka_fc1",0,0,2,33)
    ShowMessage("【ルカ】")
    ShowMessage("それ……僕達に言っちゃってもいいの？")
    ShowMessageFace("morrigan_fc1",6,0,2,34)
    ShowMessage("【モリガン】")
    ShowMessage("いいんじゃないかな？")
    ShowMessage("姉貴達からは、言うなって言われてないし……")
    ShowMessageFace("ruka_fc1",0,0,2,35)
    ShowMessage("【ルカ】")
    ShowMessage("……………………")
    ShowMessageFace("",0,0,2,36)
    ShowMessage("まあ、賢い仲間は察してはいるだろうけど。")
    ShowMessage("向こうとしても、わざわざ隠すまでもないのかも。")
    ShowMessageFace("morrigan_fc1",6,0,2,37)
    ShowMessage("【モリガン】")
    ShowMessage("そういう訳で、お前達の信頼を得るのが任務なんだけど……")
    ShowMessage("姉貴達から、色々とせっつかれてるんだよな。")
    ShowMessageFace("morrigan_fc1",6,0,2,38)
    ShowMessage("【モリガン】")
    ShowMessage("ちゃんと仲良くしてるのかとか、迷惑かけてないかとか……")
    ShowMessage("リリス姉もアスタ姉も、心配性なのさ。")
    ShowMessageFace("morrigan_fc1",0,0,2,39)
    ShowMessage("【モリガン】")
    ShowMessage("それで、ルカの口からも言ってほしいんだよ。")
    ShowMessage("あたしがちゃんとやってる、ってさ。")
    ShowMessageFace("ruka_fc1",0,0,2,40)
    ShowMessage("【ルカ】")
    ShowMessage("えっ……？　僕から……？")
    ShowMessageFace("morrigan_fc1",0,0,2,41)
    ShowMessage("【モリガン】")
    ShowMessage("そうそう。雪の間にアスタ姉がいるから、頼むよ。")
    ShowMessage("言ってくれたら、髪の毛をやるからさ。")
    ShowMessageFace("ruka_fc1",0,0,2,42)
    ShowMessage("【ルカ】")
    ShowMessage("僕は、別に構わないけど……")
    ShowMessage("それって……わざとらしくない？")
    ShowMessageFace("morrigan_fc1",6,0,2,43)
    ShowMessage("【モリガン】")
    ShowMessage("そうかな……？")
    ShowMessageFace("",0,0,2,44)
    ShowMessage("まあ、本人がそれで良いというのなら――")
    ShowMessage("髪の毛をもらうため、アスタロトに会いに行こう。")
    ChangeVariable(1108,1108,0,0,1)
    JumpToLabel("メイン")
    0()
   EndIf()
   If(1,1108,0,1,0)
    ShowMessageFace("morrigan_fc1",0,0,2,45)
    ShowMessage("【モリガン】")
    ShowMessage("ルカの口からも言ってほしいんだよ。")
    ShowMessage("あたしがちゃんとやってる、ってさ。")
    ShowMessageFace("morrigan_fc1",0,0,2,46)
    ShowMessage("【モリガン】")
    ShowMessage("雪の間にアスタ姉がいるから、頼むよ。")
    ShowMessage("言ってくれたら、髪の毛をやるからさ。")
    JumpToLabel("メイン")
    0()
   EndIf()
   If(1,1108,0,2,0)
    ShowMessageFace("morrigan_fc1",0,0,2,47)
    ShowMessage("【モリガン】")
    ShowMessage("おっ、言ってきてくれたのか！")
    ShowMessage("約束通り、髪の毛をやるよ！")
    250(bytes(0x04,0x08,0x6f,0x3a,0x0c,0x52,0x50,0x47,0x3a,0x3a,0x53,0x45,0x08,0x3a,0x0a,0x40,0x6e,0x61,0x6d,0x65,0x49,0x22,0x0a,0x49,0x74,0x65,0x6d,0x31,0x06,0x3a,0x06,0x45,0x54,0x3a,0x0b,0x40,0x70,0x69,0x74,0x63,0x68,0x69,0x69,0x3a,0x0c,0x40,0x76,0x6f,0x6c,0x75,0x6d,0x65,0x69,0x55))
    ChangeVariable(1108,1108,0,0,3)
    ChangeSwitch(2354,2354,0)
    ShowMessageFace("",0,0,2,48)
    ShowMessage("モリガンの毛を手に入れた！")
    RunCommonEvent(571)
    ShowMessageFace("morrigan_fc1",1,0,2,49)
    ShowMessage("【モリガン】")
    ShowMessage("これで、あたしもポイントアップだな。")
    ShowMessage("今週はレポート書かずに済むかも……")
    ShowMessageFace("ruka_fc1",0,0,2,50)
    ShowMessage("【ルカ】")
    ShowMessage("レポートなんて書かされてたのか……")
    ShowMessageFace("",0,0,2,51)
    ShowMessage("ともかく、これでサキュバスの毛髪一本を確保した。")
    ShowMessage("さらに準備を進めよう――")
    JumpToLabel("メイン")
    0()
   EndIf()
   If(1,1108,0,3,0)
    ShowMessageFace("morrigan_fc1",6,0,2,52)
    ShowMessage("【モリガン】")
    ShowMessage("あんまりたくさん髪の毛はやれないぜ。")
    ShowMessage("ハゲるだろ……")
    JumpToLabel("メイン")
    0()
   EndIf()
   0()
  EndIf()
  If(1,9,0,8,0)
   ShowMessageFace("morrigan_fc1",6,0,2,53)
   ShowMessage("【モリガン】")
   ShowMessage("あんまり楽しくなさそうだな……")
   ShowMessage("あたしは行かないぜ。")
   ShowMessageFace("",0,0,2,54)
   ShowMessage("モリガンはお茶会の誘いを断った……")
   JumpToLabel("メイン")
   0()
  EndIf()
  EndEventProcessing()
  0()



EVENT   28
 PAGE   1
  ShowMessageFace("name_fc1",0,0,2,1)
  ShowMessage("【メルク】")
  ShowMessage("廊下を歩いただけで、床をヌルヌルにしちゃって……")
  ShowMessage("私は行儀が良いから、掃除してるのよ。")
  ShowMessageFace("name_fc1",0,0,2,2)
  ShowMessage("【メルク】")
  ShowMessage("ああまた、床に粘液が……")
  ShowMessage("動けば動くほど、床がヌルヌルになって……")
  If(1,1098,0,3,0)
   EndEventProcessing()
   0()
  EndIf()
  If(1,1098,0,4,0)
   EndEventProcessing()
   0()
  EndIf()
  If(1,1098,0,7,0)
   EndEventProcessing()
   0()
  EndIf()
  DefineLabel("メイン")
  355("ex_choice_add(\"掃除を手伝う（時間経過）\",1,")
  655("\"v[1098] >= 5\",0)")
  655("ex_choice_add(\"異変について相談する\",2,")
  655("\"s[2341]\",0)")
  655("ex_choice_add(\"後悔していることについて聞く\",3,")
  655("\"s[2342]\",0)")
  655("ex_choice_add(\"時を繰り返す道具について聞く\",4,")
  655("\"s[2343]\",0)")
  655("ex_choice_add(\"ピザを注文したか聞く\",5,")
  655("\"s[2345]\",0)")
  355("ex_choice_add(\"謎のマキナについて聞く\",6,")
  655("\"s[2365]\",0)")
  655("ex_choice_add(\"作戦に必要な品について聞く\",7,")
  655("\"s[2364]\",0)")
  655("ex_choice_add(\"お茶会に誘う\",8,")
  655("\"s[2378]\",0)")
  655("ex_choice_add(\"立ち去る\",10)")
  355("ex_choice_show(0,11,[0,0])")
  If(1,9,0,1,0)
   ShowMessageFace("name_fc1",3,0,2,3)
   ShowMessage("【メルク】")
   ShowMessage("手伝ってくれるの？")
   ShowMessage("……嬉しいわ。")
   ShowMessageFace("",0,0,2,4)
   ShowMessage("メルクと一緒に、床を掃除した……")
   RunCommonEvent(540)
   EndEventProcessing()
   0()
  EndIf()
  If(1,9,0,2,0)
   ShowMessageFace("",0,0,2,5)
   ShowMessage("ルカは、異変について相談した……")
   ShowMessageFace("name_fc1",0,0,2,6)
   ShowMessage("【メルク】")
   ShowMessage("……よく分からないわね。")
   ShowMessage("他の人に相談してくれないかしら。")
   ShowMessageFace("",0,0,2,7)
   ShowMessage("メルクは頼れそうにない……")
   JumpToLabel("メイン")
   0()
  EndIf()
  If(1,9,0,3,0)
   ShowMessageFace("name_fc1",0,0,2,8)
   ShowMessage("【メルク】")
   ShowMessage("じめじめしてるけど、あまり後悔はしないわね……")
   ShowMessageFace("",0,0,2,9)
   ShowMessage("有益な情報は得られなかった……")
   JumpToLabel("メイン")
   0()
  EndIf()
  If(1,9,0,4,0)
   ShowMessageFace("name_fc1",0,0,2,10)
   ShowMessage("【メルク】")
   ShowMessage("おかしなアイテムね……聞いたことがないわ。")
   ShowMessageFace("",0,0,2,11)
   ShowMessage("有益な情報は得られなかった……")
   JumpToLabel("メイン")
   0()
  EndIf()
  If(1,9,0,5,0)
   ShowMessageFace("name_fc1",0,0,2,12)
   ShowMessage("【メルク】")
   ShowMessage("知らないわね、私じゃないわ……")
   ShowMessageFace("",0,0,2,13)
   ShowMessage("ピザを頼んだのはメルクではないようだ……")
   JumpToLabel("メイン")
   0()
  EndIf()
  If(1,9,0,6,0)
   ShowMessageFace("name_fc1",0,0,2,14)
   ShowMessage("【メルク】")
   ShowMessage("マキナに詳しいナメクジなんていないわ……")
   ShowMessageFace("",0,0,2,15)
   ShowMessage("有益な情報は得られなかった……")
   JumpToLabel("メイン")
   0()
  EndIf()
  If(1,9,0,7,0)
   ShowMessageFace("name_fc1",0,0,2,16)
   ShowMessage("【メルク】")
   ShowMessage("オシャレな日傘くらいしか、持ち合わせがないわね……")
   ShowMessageFace("",0,0,2,17)
   ShowMessage("有益なアイテムは得られなかった……")
   JumpToLabel("メイン")
   0()
  EndIf()
  If(1,9,0,8,0)
   ShowMessageFace("name_fc1",0,0,2,18)
   ShowMessage("【メルク】")
   ShowMessage("黒のアリスのお茶会……")
   ShowMessage("世にも恐ろしいわ……")
   ShowMessageFace("",0,0,2,19)
   ShowMessage("メルクはお茶会の誘いを断った……")
   JumpToLabel("メイン")
   0()
  EndIf()
  EndEventProcessing()
  0()
 PAGE   2
  // condition: variable 1099 >= 2
  0()



EVENT   29
 PAGE   1
  If(1,1107,0,1,0)
   ShowMessageFace("ruka_fc1",0,0,2,1)
   ShowMessage("【ルカ】")
   ShowMessage("あの……頼みがあるんだけど。")
   ShowMessage("灰になるまで焼いていいかな？")
   ShowMessageFace("inp_fc1",3,0,2,2)
   ShowMessage("【ラミ】")
   ShowMessage("いいわけないでしょ……")
   ShowMessage("あたし、死んじゃうよね？")
   ShowMessageFace("ruka_fc1",0,0,2,3)
   ShowMessage("【ルカ】")
   ShowMessage("大丈夫、どうせ時間は戻るから。")
   ShowMessage("それじゃあ、火をつけるよ……")
   ShowMessageFace("inp_fc1",2,0,2,4)
   ShowMessage("【ラミ】")
   ShowMessage("たすけて～！！　ころされる～！！")
   ShowMessageFace("",0,0,2,5)
   ShowMessage("やっぱり、反発は激しいようだ。")
   ShowMessage("ここで強引に灰にしてしまうのも、良心が咎めてしまう。")
   ShowMessageFace("",0,0,2,6)
   ShowMessage("……待てよ、本当に必要なのは悪魔の灰なのか？")
   ShowMessage("ドアノブのトラップとやらを無効化すれば、それで済むのでは？")
   ShowMessageFace("ruka_fc1",0,0,2,7)
   ShowMessage("【ルカ】")
   ShowMessage("焼かないから、教えてほしいんだけど……")
   ShowMessage("魔術の無効化とかに詳しい人を知らないかな？")
   ShowMessageFace("inp_fc1",3,0,2,8)
   ShowMessage("【ラミ】")
   ShowMessage("メフィスト先生なら、そういうの詳しいんじゃないかな。")
   ShowMessage("……教えたから、焼かないよね？")
   ShowMessageFace("ruka_fc1",0,0,2,9)
   ShowMessage("【ルカ】")
   ShowMessage("メフィスト……先生？")
   ShowMessage("いつの間にインプの先生になったんだ。")
   ShowMessageFace("",0,0,2,10)
   ShowMessage("確かに、メフィストならそういう知識に詳しいだろう。")
   ShowMessage("ドアノブ破りについては、メフィストをあたってみるか――")
   ChangeVariable(1107,1107,0,0,2)
   EndEventProcessing()
   0()
  EndIf()
  If(1,1107,0,2,0)
   ShowMessageFace("inp_fc1",3,0,2,11)
   ShowMessage("【ラミ】")
   ShowMessage("メフィスト先生なら、そういうの詳しいんじゃないかな。")
   ShowMessage("……教えたから、焼かないよね？")
   ShowMessageFace("",0,0,2,12)
   ShowMessage("確かに、メフィストならそういう知識に詳しいだろう。")
   ShowMessage("ドアノブ破りについては、メフィストをあたってみるか――")
   0()
  EndIf()
  ShowMessageFace("inp_fc1",0,0,2,13)
  ShowMessage("【ラミ】")
  ShowMessage("2時から最後の練習かぁ……")
  ShowMessageFace("ruka_fc1",0,0,2,14)
  ShowMessage("【ルカ】")
  ShowMessage("練習って……なんの？")
  ShowMessageFace("inp_fc1",3,0,2,15)
  ShowMessage("【ラミ】")
  ShowMessage("ひっ……ひみつ！")
  ShowMessageFace("inp_fc2",0,0,2,16)
  ShowMessage("【レミ】")
  ShowMessage("びくびく……")
  ShowMessageFace("inp_fc3",1,0,2,17)
  ShowMessage("【ルミ】")
  ShowMessage("……………………")
  ShowMessageFace("inp_fc1",0,0,2,18)
  ShowMessage("【ラミ】")
  ShowMessage("ねぇ、ヒマなら2時まで一緒に遊ばない？")
  If(1,1098,0,3,0)
   ShowMessageFace("",0,0,2,19)
   ShowMessage("今は先に、ピザを届けに行こう。")
   ShowMessage("ステージで練習しているはずだ。")
   EndEventProcessing()
   0()
  EndIf()
  If(1,1098,0,4,0)
   ShowMessageFace("",0,0,2,20)
   ShowMessage("今は先に、一階の食堂に昼ごはんを食べに行こう。")
   EndEventProcessing()
   0()
  EndIf()
  If(1,1098,0,7,0)
   ShowMessageFace("",0,0,2,21)
   ShowMessage("今は先に、ピザを届けに行こう。")
   ShowMessage("ステージで練習しているはずだ。")
   EndEventProcessing()
   0()
  EndIf()
  DefineLabel("メイン")
  355("ex_choice_add(\"一緒に遊ぶ（時間経過）\",1,")
  655("\"v[1098] >= 5\",0)")
  655("ex_choice_add(\"異変について相談する\",2,")
  655("\"s[2341]\",0)")
  655("ex_choice_add(\"後悔していることについて聞く\",3,")
  655("\"s[2342]\",0)")
  655("ex_choice_add(\"時を繰り返す道具について聞く\",4,")
  655("\"s[2343]\",0)")
  655("ex_choice_add(\"ピザを注文したか聞く\",5,")
  655("\"s[2345]\",0)")
  355("ex_choice_add(\"謎のマキナについて聞く\",6,")
  655("\"s[2365]\",0)")
  655("ex_choice_add(\"作戦に必要な品について聞く\",7,")
  655("\"s[2364]\",0)")
  655("ex_choice_add(\"お茶会に誘う\",8,")
  655("\"s[2378]\",0)")
  655("ex_choice_add(\"立ち去る\",10)")
  355("ex_choice_show(0,11,[0,0])")
  If(1,9,0,1,0)
   ShowMessageFace("ruka_fc1",0,0,2,22)
   ShowMessage("【ルカ】")
   ShowMessage("いいけど……エッチな事は無しだよ。")
   ShowMessageFace("inp_fc1",1,0,2,23)
   ShowMessage("【ラミ】")
   ShowMessage("それじゃあ、いけない遊びしようよ……♪")
   ShowMessageFace("ruka_fc1",0,0,2,24)
   ShowMessage("【ルカ】")
   ShowMessage("エッチな事は無しって言ったんじゃ……")
   ShowMessageFace("inp_fc1",1,0,2,25)
   ShowMessage("【ラミ】")
   ShowMessage("……畑荒らし。")
   ShowMessageFace("ruka_fc1",0,0,2,26)
   ShowMessage("【ルカ】")
   ShowMessage("本当にいけないやつだ。")
   ShowMessageFace("inp_fc2",0,0,2,27)
   ShowMessage("【レミ】")
   ShowMessage("シャベル、いる？")
   ShowMessageFace("inp_fc3",1,0,2,28)
   ShowMessage("【ルミ】")
   ShowMessage("ガソリンとマッチもあるよ……")
   ShowMessageFace("ruka_fc1",0,0,2,29)
   ShowMessage("【ルカ】")
   ShowMessage("畑荒らしっていうか……")
   ShowMessage("産業を根絶やしにするつもりじゃないの？")
   221()
   ShowMessageFace("",0,0,2,30)
   ShowMessage("インプ達と無難に遊んで時間を過ごした……")
   RunCommonEvent(540)
   EndEventProcessing()
   0()
  EndIf()
  If(1,9,0,2,0)
   ShowMessageFace("",0,0,2,31)
   ShowMessage("ルカは、異変について相談した……")
   ShowMessageFace("inp_fc1",3,0,2,32)
   ShowMessage("【ラミ】")
   ShowMessage("えっ……？")
   ShowMessage("そんなこと言われても、分からないよぉ……")
   ShowMessageFace("",0,0,2,33)
   ShowMessage("ラミは頼れそうにない……")
   JumpToLabel("メイン")
   0()
  EndIf()
  If(1,9,0,3,0)
   ShowMessageFace("inp_fc1",0,0,2,34)
   ShowMessage("【ラミ】")
   ShowMessage("あたし、ただの小悪魔だし……")
   ShowMessage("後悔してることなんて、別にないかなぁ。")
   ShowMessageFace("",0,0,2,35)
   ShowMessage("有益な情報は得られなかった……")
   JumpToLabel("メイン")
   0()
  EndIf()
  If(1,9,0,4,0)
   ShowMessageFace("inp_fc1",3,0,2,36)
   ShowMessage("【ラミ】")
   ShowMessage("そんなの、小悪魔のあたしが知ってると思うの……？")
   ShowMessageFace("",0,0,2,37)
   ShowMessage("有益な情報は得られなかった……")
   JumpToLabel("メイン")
   0()
  EndIf()
  If(1,9,0,5,0)
   ShowMessageFace("inp_fc1",0,0,2,38)
   ShowMessage("【ラミ】")
   ShowMessage("あたしじゃないよ？")
   ShowMessage("でも、ピザ食べたいな～♪")
   ShowMessageFace("",0,0,2,39)
   ShowMessage("ピザを頼んだのはラミではないようだ……")
   JumpToLabel("メイン")
   0()
  EndIf()
  If(1,9,0,6,0)
   ShowMessageFace("inp_fc1",0,0,2,40)
   ShowMessage("【ラミ】")
   ShowMessage("何それ、おやつ……？")
   ShowMessageFace("",0,0,2,41)
   ShowMessage("有益な情報は得られなかった……")
   JumpToLabel("メイン")
   0()
  EndIf()
  If(1,9,0,7,0)
   ShowMessageFace("inp_fc1",3,0,2,42)
   ShowMessage("【ラミ】")
   ShowMessage("あたしみたいなインプの持ってるアイテムで、")
   ShowMessage("ミュスカみたいなのを本気でなんとか出来ると思うの……？")
   ShowMessageFace("",0,0,2,43)
   ShowMessage("有益なアイテムは得られなかった……")
   JumpToLabel("メイン")
   0()
  EndIf()
  If(1,9,0,8,0)
   ShowMessageFace("inp_fc1",3,0,2,44)
   ShowMessage("【ラミ】")
   ShowMessage("黒のアリスのお茶会……？")
   ShowMessage("ｶﾞｸｶﾞｸ、ﾌﾞﾙﾌﾞﾙﾌﾞﾙ……")
   ShowMessageFace("",0,0,2,45)
   ShowMessage("ラミはお茶会の誘いを断った……")
   JumpToLabel("メイン")
   0()
  EndIf()
  EndEventProcessing()
  0()
 PAGE   2
  // condition: variable 1099 >= 2
  0()
 PAGE   3
  // condition: switch 2395 is ON
  0()



EVENT   30
 PAGE   1
  ShowMessageFace("inp_fc3",0,0,2,1)
  ShowMessage("【ルミ】")
  ShowMessage("ぐったり……")
  ShowMessageFace("inp_fc1",0,0,2,2)
  ShowMessage("【ラミ】")
  ShowMessage("ルミちゃん、2時から最後の練習って覚えてる？")
  ShowMessageFace("inp_fc3",4,0,2,3)
  ShowMessage("【ルミ】")
  ShowMessage("しゃきーん！")
  ShowMessageFace("",0,0,2,4)
  ShowMessage("ルミの目に光が宿った！")
  ShowMessageFace("ruka_fc1",0,0,2,5)
  ShowMessage("【ルカ】")
  ShowMessage("珍しくルミがやる気を出している……")
  ShowMessage("何の練習なの？")
  ShowMessageFace("inp_fc1",3,0,2,6)
  ShowMessage("【ラミ】")
  ShowMessage("ひっ……ひみつ！")
  ShowMessageFace("inp_fc2",0,0,2,7)
  ShowMessage("【レミ】")
  ShowMessage("びくびく……")
  ShowMessageFace("inp_fc3",1,0,2,8)
  ShowMessage("【ルミ】")
  ShowMessage("……………………")
  ShowMessageFace("inp_fc1",0,0,2,9)
  ShowMessage("【ラミ】")
  ShowMessage("ねぇ、ヒマなら2時まで一緒に遊ばない？")
  If(1,1098,0,3,0)
   ShowMessageFace("",0,0,2,10)
   ShowMessage("今は先に、ピザを届けに行こう。")
   ShowMessage("ステージで練習しているはずだ。")
   EndEventProcessing()
   0()
  EndIf()
  If(1,1098,0,4,0)
   ShowMessageFace("",0,0,2,11)
   ShowMessage("今は先に、一階の食堂に昼ごはんを食べに行こう。")
   EndEventProcessing()
   0()
  EndIf()
  If(1,1098,0,7,0)
   ShowMessageFace("",0,0,2,12)
   ShowMessage("今は先に、ピザを届けに行こう。")
   ShowMessage("ステージで練習しているはずだ。")
   EndEventProcessing()
   0()
  EndIf()
  DefineLabel("メイン")
  355("ex_choice_add(\"一緒に遊ぶ（時間経過）\",1,")
  655("\"v[1098] >= 5\",0)")
  655("ex_choice_add(\"異変について相談する\",2,")
  655("\"s[2341]\",0)")
  655("ex_choice_add(\"後悔していることについて聞く\",3,")
  655("\"s[2342]\",0)")
  655("ex_choice_add(\"時を繰り返す道具について聞く\",4,")
  655("\"s[2343]\",0)")
  655("ex_choice_add(\"ピザを注文したか聞く\",5,")
  655("\"s[2345]\",0)")
  355("ex_choice_add(\"謎のマキナについて聞く\",6,")
  655("\"s[2365]\",0)")
  655("ex_choice_add(\"作戦に必要な品について聞く\",7,")
  655("\"s[2364]\",0)")
  655("ex_choice_add(\"お茶会に誘う\",8,")
  655("\"s[2378]\",0)")
  655("ex_choice_add(\"立ち去る\",10)")
  355("ex_choice_show(0,11,[0,0])")
  If(1,9,0,1,0)
   ShowMessageFace("ruka_fc1",0,0,2,13)
   ShowMessage("【ルカ】")
   ShowMessage("いいけど……エッチな事は無しだよ。")
   ShowMessageFace("inp_fc1",0,0,2,14)
   ShowMessage("【ラミ】")
   ShowMessage("それじゃあ、何して遊ぶ？")
   ShowMessageFace("inp_fc3",0,0,2,15)
   ShowMessage("【ルミ】")
   ShowMessage("かぁごめ、かごめ……♪")
   ShowMessageFace("ruka_fc1",0,0,2,16)
   ShowMessage("【ルカ】")
   ShowMessage("うわっ、なんか歌い出した……")
   ShowMessageFace("inp_fc3",2,0,2,17)
   ShowMessage("【ルミ】")
   ShowMessage("かごのなかのとりは……♪")
   ShowMessageFace("ruka_fc1",0,0,2,18)
   ShowMessage("【ルカ】")
   ShowMessage("つまらなそうに歌ってる……")
   ShowMessage("何これ、すごく怖いんだけど……")
   ShowMessageFace("inp_fc3",2,0,2,19)
   ShowMessage("【ルミ】")
   ShowMessage("いついつでやる……")
   ShowMessage("よあけのばんに……♪")
   ShowMessageFace("ruka_fc1",0,0,2,20)
   ShowMessage("【ルカ】")
   ShowMessage("これが遊び？")
   ShowMessage("それとも、何か召喚してるの？")
   ShowMessageFace("inp_fc3",2,0,2,21)
   ShowMessage("【ルミ】")
   ShowMessage("つると、かめがすべった……♪")
   ShowMessageFace("inp_fc2",2,0,2,22)
   ShowMessage("【レミ】")
   ShowMessage("がくがく、ぶるぶる……")
   ShowMessageFace("ruka_fc1",0,0,2,23)
   ShowMessage("【ルカ】")
   ShowMessage("こっちは異常に怯えてるし……")
   ShowMessage("ちょっと、これ何なの？")
   ShowMessageFace("inp_fc3",0,0,2,24)
   ShowMessage("【ルミ】")
   ShowMessage("うしろの正面……だぁれ……♪")
   ShowMessageFace("ruka_fc1",0,0,2,25)
   ShowMessage("【ルカ】")
   ShowMessage("後ろって――")
   221()
   ShowMessageFace("ruka_fc1",0,0,2,26)
   ShowMessage("【ルカ】")
   ShowMessage("あ……うわぁぁぁぁぁ！！")
   ShowMessageFace("",0,0,2,27)
   ShowMessage("インプ達と遊んで時間を過ごした……")
   RunCommonEvent(540)
   EndEventProcessing()
   0()
  EndIf()
  If(1,9,0,2,0)
   ShowMessageFace("",0,0,2,28)
   ShowMessage("ルカは、異変について相談した……")
   ShowMessageFace("inp_fc3",1,0,2,29)
   ShowMessage("【ルミ】")
   ShowMessage("……………………")
   ShowMessageFace("ruka_fc1",0,0,2,30)
   ShowMessage("【ルカ】")
   ShowMessage("あの、聞いてる……？")
   ShowMessageFace("inp_fc3",2,0,2,31)
   ShowMessage("【ルミ】")
   ShowMessage("……………………")
   ShowMessageFace("",0,0,2,32)
   ShowMessage("ルミは頼れそうにない……")
   JumpToLabel("メイン")
   0()
  EndIf()
  If(1,9,0,3,0)
   ShowMessageFace("inp_fc3",1,0,2,33)
   ShowMessage("【ルミ】")
   ShowMessage("……………………")
   ShowMessageFace("",0,0,2,34)
   ShowMessage("ルミは首を左右に振った！")
   ShowMessage("有益な情報は得られなかった……")
   JumpToLabel("メイン")
   0()
  EndIf()
  If(1,9,0,4,0)
   ShowMessageFace("inp_fc3",1,0,2,35)
   ShowMessage("【ルミ】")
   ShowMessage("……………………")
   ShowMessageFace("",0,0,2,36)
   ShowMessage("ルミは首を左右に振った！")
   ShowMessage("有益な情報は得られなかった……")
   JumpToLabel("メイン")
   0()
  EndIf()
  If(1,9,0,5,0)
   ShowMessageFace("inp_fc3",1,0,2,37)
   ShowMessage("【ルミ】")
   ShowMessage("……………………")
   ShowMessageFace("",0,0,2,38)
   ShowMessage("ルミは首を左右に振った！")
   ShowMessage("ピザを頼んだのはルミではないようだ……")
   JumpToLabel("メイン")
   0()
  EndIf()
  If(1,9,0,6,0)
   ShowMessageFace("inp_fc3",0,0,2,39)
   ShowMessage("【ルミ】")
   ShowMessage("しらない……")
   ShowMessageFace("",0,0,2,40)
   ShowMessage("有益な情報は得られなかった……")
   JumpToLabel("メイン")
   0()
  EndIf()
  If(1,9,0,7,0)
   ShowMessageFace("inp_fc3",0,0,2,41)
   ShowMessage("【ルミ】")
   ShowMessage("ガム、かむ……？")
   ShowMessageFace("ruka_fc1",0,0,2,42)
   ShowMessage("【ルカ】")
   ShowMessage("噛まない……")
   ShowMessageFace("",0,0,2,43)
   ShowMessage("有益なアイテムは得られなかった……")
   JumpToLabel("メイン")
   0()
  EndIf()
  If(1,9,0,8,0)
   ShowMessageFace("inp_fc3",2,0,2,44)
   ShowMessage("【ルミ】")
   ShowMessage("イヤ……")
   ShowMessageFace("",0,0,2,45)
   ShowMessage("ルミはお茶会の誘いを断った……")
   JumpToLabel("メイン")
   0()
  EndIf()
  EndEventProcessing()
  0()
 PAGE   2
  // condition: variable 1099 >= 2
  0()
 PAGE   3
  // condition: switch 2395 is ON
  0()



EVENT   31
 PAGE   1
  ShowMessageFace("inp_fc2",0,0,2,1)
  ShowMessage("【レミ】")
  ShowMessage("びくびく……")
  ShowMessageFace("inp_fc1",0,0,2,2)
  ShowMessage("【ラミ】")
  ShowMessage("レミちゃん、もう緊張してるの？")
  ShowMessage("2時から最後の練習だよ。")
  ShowMessageFace("ruka_fc1",0,0,2,3)
  ShowMessage("【ルカ】")
  ShowMessage("いったい、何の練習なの？")
  ShowMessageFace("inp_fc1",3,0,2,4)
  ShowMessage("【ラミ】")
  ShowMessage("ひっ……ひみつ！")
  ShowMessageFace("inp_fc2",0,0,2,5)
  ShowMessage("【レミ】")
  ShowMessage("びくびく……")
  ShowMessageFace("inp_fc3",1,0,2,6)
  ShowMessage("【ルミ】")
  ShowMessage("……………………")
  ShowMessageFace("inp_fc1",0,0,2,7)
  ShowMessage("【ラミ】")
  ShowMessage("ねぇ、ヒマなら2時まで一緒に遊ばない？")
  If(1,1098,0,3,0)
   ShowMessageFace("",0,0,2,8)
   ShowMessage("今は先に、ピザを届けに行こう。")
   ShowMessage("ステージで練習しているはずだ。")
   EndEventProcessing()
   0()
  EndIf()
  If(1,1098,0,4,0)
   ShowMessageFace("",0,0,2,9)
   ShowMessage("今は先に、一階の食堂に昼ごはんを食べに行こう。")
   EndEventProcessing()
   0()
  EndIf()
  If(1,1098,0,7,0)
   ShowMessageFace("",0,0,2,10)
   ShowMessage("今は先に、ピザを届けに行こう。")
   ShowMessage("ステージで練習しているはずだ。")
   EndEventProcessing()
   0()
  EndIf()
  DefineLabel("メイン")
  355("ex_choice_add(\"一緒に遊ぶ（時間経過）\",1,")
  655("\"v[1098] >= 5\",0)")
  655("ex_choice_add(\"異変について相談する\",2,")
  655("\"s[2341]\",0)")
  655("ex_choice_add(\"後悔していることについて聞く\",3,")
  655("\"s[2342]\",0)")
  655("ex_choice_add(\"時を繰り返す道具について聞く\",4,")
  655("\"s[2343]\",0)")
  655("ex_choice_add(\"ピザを注文したか聞く\",5,")
  655("\"s[2345]\",0)")
  355("ex_choice_add(\"謎のマキナについて聞く\",6,")
  655("\"s[2365]\",0)")
  655("ex_choice_add(\"作戦に必要な品について聞く\",7,")
  655("\"s[2364]\",0)")
  655("ex_choice_add(\"お茶会に誘う\",8,")
  655("\"s[2378]\",0)")
  655("ex_choice_add(\"立ち去る\",10)")
  355("ex_choice_show(0,11,[0,0])")
  If(1,9,0,1,0)
   ShowMessageFace("ruka_fc1",0,0,2,11)
   ShowMessage("【ルカ】")
   ShowMessage("いいけど……エッチな事は無しだよ。")
   ShowMessageFace("inp_fc1",0,0,2,12)
   ShowMessage("【ラミ】")
   ShowMessage("それじゃあ、何して遊ぶ？")
   ShowMessageFace("inp_fc2",0,0,2,13)
   ShowMessage("【レミ】")
   ShowMessage("人狼クライシス地獄変……")
   ShowMessageFace("ruka_fc1",0,0,2,14)
   ShowMessage("【ルカ】")
   ShowMessage("な、なにそれ……")
   ShowMessageFace("inp_fc3",0,0,2,15)
   ShowMessage("【ルミ】")
   ShowMessage("月を見るたび思い出せ……")
   ShowMessageFace("ruka_fc1",0,0,2,16)
   ShowMessage("【ルカ】")
   ShowMessage("ちょっと、何を――")
   221()
   ShowMessageFace("",0,0,2,17)
   ShowMessage("インプ達と遊んで時間を過ごした……")
   RunCommonEvent(540)
   EndEventProcessing()
   0()
  EndIf()
  If(1,9,0,2,0)
   ShowMessageFace("",0,0,2,18)
   ShowMessage("ルカは、異変について相談した……")
   ShowMessageFace("inp_fc2",0,0,2,19)
   ShowMessage("【レミ】")
   ShowMessage("同じ毎日を繰り返す……")
   ShowMessage("世の中、そういうものじゃない？")
   ShowMessageFace("inp_fc2",2,0,2,20)
   ShowMessage("【レミ】")
   ShowMessage("だから世の中は怖い。")
   ShowMessageFace("",0,0,2,21)
   ShowMessage("レミは頼れそうにない……")
   JumpToLabel("メイン")
   0()
  EndIf()
  If(1,9,0,3,0)
   ShowMessageFace("inp_fc2",0,0,2,22)
   ShowMessage("【レミ】")
   ShowMessage("別に後悔はないよ……")
   ShowMessage("ただ、怖いだけ。")
   ShowMessageFace("",0,0,2,23)
   ShowMessage("有益な情報は得られなかった……")
   JumpToLabel("メイン")
   0()
  EndIf()
  If(1,9,0,4,0)
   ShowMessageFace("inp_fc2",0,0,2,24)
   ShowMessage("【レミ】")
   ShowMessage("知らない……")
   ShowMessageFace("",0,0,2,25)
   ShowMessage("有益な情報は得られなかった……")
   JumpToLabel("メイン")
   0()
  EndIf()
  If(1,9,0,5,0)
   ShowMessageFace("inp_fc2",0,0,2,26)
   ShowMessage("【レミ】")
   ShowMessage("私じゃないよ……")
   ShowMessage("配達を受け取るの、怖いし。")
   ShowMessageFace("",0,0,2,27)
   ShowMessage("ピザを頼んだのはレミではないようだ……")
   JumpToLabel("メイン")
   0()
  EndIf()
  If(1,9,0,6,0)
   ShowMessageFace("inp_fc2",0,0,2,28)
   ShowMessage("【レミ】")
   ShowMessage("知らない……")
   ShowMessageFace("",0,0,2,29)
   ShowMessage("有益な情報は得られなかった……")
   JumpToLabel("メイン")
   0()
  EndIf()
  If(1,9,0,7,0)
   ShowMessageFace("inp_fc2",0,0,2,30)
   ShowMessage("【レミ】")
   ShowMessage("酔い止めのお薬なら、あるけど……")
   ShowMessageFace("ruka_fc1",0,0,2,31)
   ShowMessage("【ルカ】")
   ShowMessage("これをどうしろと……")
   ShowMessageFace("",0,0,2,32)
   ShowMessage("有益なアイテムは得られなかった……")
   JumpToLabel("メイン")
   0()
  EndIf()
  If(1,9,0,8,0)
   ShowMessageFace("inp_fc2",2,0,2,33)
   ShowMessage("【レミ】")
   ShowMessage("く、黒のアリスの……お茶会……")
   205(0,bytes(0x04,0x08,0x6f,0x3a,0x13,0x52,0x50,0x47,0x3a,0x3a,0x4d,0x6f,0x76,0x65,0x52,0x6f,0x75,0x74,0x65,0x09,0x3a,0x0c,0x40,0x72,0x65,0x70,0x65,0x61,0x74,0x46,0x3a,0x0f,0x40,0x73,0x6b,0x69,0x70,0x70,0x61,0x62,0x6c,0x65,0x46,0x3a,0x0a,0x40,0x77,0x61,0x69,0x74,0x54,0x3a,0x0a,0x40,0x6c,0x69,0x73,0x74,0x5b,0x07,0x6f,0x3a,0x15,0x52,0x50,0x47,0x3a,0x3a,0x4d,0x6f,0x76,0x65,0x43,0x6f,0x6d,0x6d,0x61,0x6e,0x64,0x07,0x3a,0x0a,0x40,0x63,0x6f,0x64,0x65,0x69,0x27,0x3a,0x10,0x40,0x70,0x61,0x72,0x61,0x6d,0x65,0x74,0x65,0x72,0x73,0x5b,0x00,0x6f,0x3b,0x0a,0x07,0x3b,0x0b,0x69,0x00,0x3b,0x0c,0x5b,0x00))
   ShowMessageFace("inp_fc2",2,0,2,34)
   ShowMessage("【レミ】")
   ShowMessage("……ｯｸﾞｯ")
   ShowMessageFace("",0,0,2,35)
   ShowMessage("恐怖のあまり、レミの呼吸が止まった……")
   ShowMessageFace("inp_fc1",3,0,2,36)
   ShowMessage("【ラミ】")
   ShowMessage("ちょっと！　レミちゃん息してない！！")
   ShowMessageFace("inp_fc3",4,0,2,37)
   ShowMessage("【ルミ】")
   ShowMessage("救急搬送……！")
   250(bytes(0x04,0x08,0x6f,0x3a,0x0c,0x52,0x50,0x47,0x3a,0x3a,0x53,0x45,0x08,0x3a,0x0a,0x40,0x6e,0x61,0x6d,0x65,0x49,0x22,0x10,0x6d,0x6f,0x6e,0x5f,0x61,0x73,0x69,0x6f,0x74,0x6f,0x34,0x06,0x3a,0x06,0x45,0x54,0x3a,0x0b,0x40,0x70,0x69,0x74,0x63,0x68,0x69,0x69,0x3a,0x0c,0x40,0x76,0x6f,0x6c,0x75,0x6d,0x65,0x69,0x69))
   221()
   250(bytes(0x04,0x08,0x6f,0x3a,0x0c,0x52,0x50,0x47,0x3a,0x3a,0x53,0x45,0x08,0x3a,0x0a,0x40,0x6e,0x61,0x6d,0x65,0x49,0x22,0x10,0x6d,0x6f,0x6e,0x5f,0x61,0x73,0x69,0x6f,0x74,0x6f,0x34,0x06,0x3a,0x06,0x45,0x54,0x3a,0x0b,0x40,0x70,0x69,0x74,0x63,0x68,0x69,0x69,0x3a,0x0c,0x40,0x76,0x6f,0x6c,0x75,0x6d,0x65,0x69,0x69))
   ShowMessageFace("",0,0,2,38)
   ShowMessage("レミは医務室に運ばれていった……")
   ChangeSwitch(2395,2395,0)
   222()
   ShowMessageFace("ruka_fc1",0,0,2,39)
   ShowMessage("【ルカ】")
   ShowMessage("……そこまで怖いか。")
   EndEventProcessing()
   0()
  EndIf()
  EndEventProcessing()
  0()
 PAGE   2
  // condition: variable 1099 >= 2
  0()
 PAGE   3
  // condition: switch 2395 is ON
  0()



EVENT   32
 PAGE   1
  If(1,1107,0,4,0)
   ShowMessageFace("vgirl_fc1",0,0,2,1)
   ShowMessage("【ヴァニラ】")
   ShowMessage("「魔断の手袋」……？")
   ShowMessage("もちろん、我が店で扱っているぞ。")
   ShowMessageFace("ruka_fc1",0,0,2,2)
   ShowMessage("【ルカ】")
   ShowMessage("えっ！？　ここで売ってたの……？")
   ShowMessageFace("",0,0,2,3)
   ShowMessage("灯台もと暗し、まさか店で普通に売っていたなんて――")
   ShowMessageFace("vgirl_fc1",0,0,2,4)
   ShowMessage("【ヴァニラ】")
   ShowMessage("1200ゴールドになるが、買うか？")
   ShowChoices(strings("買う","買わない"),2)
   IfPlayerPicksChoice(0,null)
    ShowMessageFace("vgirl_fc1",3,0,2,5)
    ShowMessage("【ヴァニラ】")
    ShowMessage("まいどあり～♪")
    250(bytes(0x04,0x08,0x6f,0x3a,0x0c,0x52,0x50,0x47,0x3a,0x3a,0x53,0x45,0x08,0x3a,0x0a,0x40,0x6e,0x61,0x6d,0x65,0x49,0x22,0x0a,0x49,0x74,0x65,0x6d,0x31,0x06,0x3a,0x06,0x45,0x54,0x3a,0x0b,0x40,0x70,0x69,0x74,0x63,0x68,0x69,0x69,0x3a,0x0c,0x40,0x76,0x6f,0x6c,0x75,0x6d,0x65,0x69,0x55))
    ShowMessageFace("",0,0,2,6)
    ShowMessage("魔断の手袋を手に入れた！")
    ShowMessageFace("ruka_fc1",0,0,2,7)
    ShowMessage("【ルカ】")
    ShowMessage("これがあれば、ドアノブのトラップは回避できるな。")
    ShowMessageFace("",0,0,2,8)
    ShowMessage("これで、作戦の成功に一歩近付いた。")
    ShowMessage("さらに準備を整え、あの家に赴こう――")
    ChangeSwitch(2368,2368,0)
    ChangeSwitch(2398,2398,0)
    ChangeVariable(1107,1107,0,0,6)
    EndEventProcessing()
    0()
   IfPlayerPicksChoice(1,null)
    ShowMessageFace("vgirl_fc1",0,0,2,9)
    ShowMessage("【ヴァニラ】")
    ShowMessage("むむ……そうか。")
    ShowMessage("ヒマだったら、立ち話でもしていかないか？")
    JumpToLabel("メイン")
    0()
   404()
   0()
  EndIf()
  ShowMessageFace("vgirl_fc1",0,0,2,10)
  ShowMessage("【ヴァニラ】")
  ShowMessage("おお、ルカではないか。")
  ShowMessage("ヒマだったら、立ち話でもしていかないか？")
  If(1,1098,0,3,0)
   ShowMessageFace("",0,0,2,11)
   ShowMessage("今は先に、ピザを届けに行こう。")
   ShowMessage("ステージで練習しているはずだ。")
   EndEventProcessing()
   0()
  EndIf()
  If(1,1098,0,4,0)
   ShowMessageFace("",0,0,2,12)
   ShowMessage("今は先に、一階の食堂に昼ごはんを食べに行こう。")
   EndEventProcessing()
   0()
  EndIf()
  If(1,1098,0,7,0)
   ShowMessageFace("",0,0,2,13)
   ShowMessage("今は先に、ピザを届けに行こう。")
   ShowMessage("ステージで練習しているはずだ。")
   EndEventProcessing()
   0()
  EndIf()
  DefineLabel("メイン")
  355("ex_choice_add(\"立ち話をする（時間経過）\",1,")
  655("\"v[1098] >= 5\",0)")
  655("ex_choice_add(\"異変について相談する\",2,")
  655("\"s[2341]\",0)")
  655("ex_choice_add(\"後悔していることについて聞く\",3,")
  655("\"s[2342]\",0)")
  655("ex_choice_add(\"時を繰り返す道具について聞く\",4,")
  655("\"s[2343]\",0)")
  655("ex_choice_add(\"ピザを注文したか聞く\",5,")
  655("\"s[2345]\",0)")
  355("ex_choice_add(\"謎のマキナについて聞く\",6,")
  655("\"s[2365]\",0)")
  655("ex_choice_add(\"作戦に必要な品について聞く\",7,")
  655("\"s[2364]\",0)")
  655("ex_choice_add(\"お茶会に誘う\",8,")
  655("\"s[2378]\",0)")
  655("ex_choice_add(\"立ち去る\",10)")
  355("ex_choice_show(0,11,[0,0])")
  If(1,9,0,1,0)
   ShowMessageFace("ruka_fc1",0,0,2,14)
   ShowMessage("【ルカ】")
   ShowMessage("でも、営業中に立ち話してていいのかな……")
   ShowMessage("迷惑じゃない？")
   ShowMessageFace("vgirl_fc1",0,0,2,15)
   ShowMessage("【ヴァニラ】")
   ShowMessage("普通の店舗なら問題だろうが、ここは身内しかおらん。")
   ShowMessage("気にせず無駄話に興じるがいい。")
   ShowMessageFace("vgirl_fc1",0,0,2,16)
   ShowMessage("【ヴァニラ】")
   ShowMessage("そう言えば先週、ゴブが配達中に――")
   ShowMessageFace("",0,0,2,17)
   ShowMessage("他愛ない立ち話で時間を過ごした……")
   RunCommonEvent(540)
   EndEventProcessing()
   0()
  EndIf()
  If(1,9,0,2,0)
   ShowMessageFace("",0,0,2,18)
   ShowMessage("ルカは、異変について相談した……")
   ShowMessageFace("vgirl_fc1",2,0,2,19)
   ShowMessage("【ヴァニラ】")
   ShowMessage("お、同じ一日を繰り返す……？")
   ShowMessage("なんだか不気味で怖いぞ……")
   ShowMessageFace("",0,0,2,20)
   ShowMessage("ヴァニラは頼れそうにない……")
   JumpToLabel("メイン")
   0()
  EndIf()
  If(1,9,0,3,0)
   ShowMessageFace("vgirl_fc1",0,0,2,21)
   ShowMessage("【ヴァニラ】")
   ShowMessage("我に後悔などない！")
   ShowMessageFace("",0,0,2,22)
   ShowMessage("有益な情報は得られなかった……")
   JumpToLabel("メイン")
   0()
  EndIf()
  If(1,9,0,4,0)
   ShowMessageFace("vgirl_fc1",0,0,2,23)
   ShowMessage("【ヴァニラ】")
   ShowMessage("なんと、そのようなアイテムが存在するのか！？")
   ShowMessage("ぜひ売り物にしたいところだ……")
   ShowMessageFace("",0,0,2,24)
   ShowMessage("有益な情報は得られなかった……")
   JumpToLabel("メイン")
   0()
  EndIf()
  If(1,9,0,5,0)
   ShowMessageFace("vgirl_fc1",0,0,2,25)
   ShowMessage("【ヴァニラ】")
   ShowMessage("宅配サービスか、うちの店舗でも導入を……")
   ShowMessage("ともかく、ピザを頼んだのは我ではないぞ。")
   ShowMessageFace("",0,0,2,26)
   ShowMessage("ピザを頼んだのはヴァニラではないようだ……")
   JumpToLabel("メイン")
   0()
  EndIf()
  If(1,9,0,6,0)
   ShowMessageFace("vgirl_fc1",0,0,2,27)
   ShowMessage("【ヴァニラ】")
   ShowMessage("これは、通信装置のようだが……仕組みが高度すぎるな。")
   ShowMessage("オーパーツの類だろうが、詳細は分からないぞ。")
   ShowMessageFace("",0,0,2,28)
   ShowMessage("有益な情報は得られなかった……")
   JumpToLabel("メイン")
   0()
  EndIf()
  If(1,9,0,7,0)
   If(0,2420,1)
    ShowMessageFace("vgirl_fc1",0,0,2,29)
    ShowMessage("【ヴァニラ】")
    ShowMessage("なるほど……ならば、これはどうだ？")
    ShowMessage("イリアスヴィルでは、インプ退治に用いられる品だ。")
    ChangeSwitch(2420,2420,0)
    250(bytes(0x04,0x08,0x6f,0x3a,0x0c,0x52,0x50,0x47,0x3a,0x3a,0x53,0x45,0x08,0x3a,0x0a,0x40,0x6e,0x61,0x6d,0x65,0x49,0x22,0x0a,0x49,0x74,0x65,0x6d,0x31,0x06,0x3a,0x06,0x45,0x54,0x3a,0x0b,0x40,0x70,0x69,0x74,0x63,0x68,0x69,0x69,0x3a,0x0c,0x40,0x76,0x6f,0x6c,0x75,0x6d,0x65,0x69,0x55))
    ShowMessageFace("",0,0,2,30)
    ShowMessage("爆竹を手に入れた！")
    ShowMessageFace("ruka_fc1",0,0,2,31)
    ShowMessage("【ルカ】")
    ShowMessage("インプ、こんなものをぶつけられてたんだ……")
    ShowMessage("ほとんど害獣扱いだな。")
    ShowMessageFace("vgirl_fc1",0,0,2,32)
    ShowMessage("【ヴァニラ】")
    ShowMessage("あの連中、畑を荒らすわ子供を犯すわ……")
    ShowMessage("村でイタズラ放題だからな。")
    ShowMessageFace("",0,0,2,33)
    ShowMessage("だが、この爆竹がミュスカ達に有効なのか――")
    ShowMessage("正直なところ、かなり怪しいな。")
    JumpToLabel("メイン")
    0()
   EndIf()
   If(0,2420,0)
    ShowMessageFace("vgirl_fc1",0,0,2,34)
    ShowMessage("【ヴァニラ】")
    ShowMessage("相手がインプなら、その爆竹で逃げていくぞ。")
    ShowMessage("インプより強いなら……まあ、効かんな。")
    JumpToLabel("メイン")
    0()
   EndIf()
   0()
  EndIf()
  If(1,9,0,8,0)
   ShowMessageFace("vgirl_fc1",2,0,2,35)
   ShowMessage("【ヴァニラ】")
   ShowMessage("く、黒のアリスのお茶会……！？")
   ShowMessage("別に怖くはないけど、用事があるから遠慮しておくぞ。")
   ShowMessageFace("",0,0,2,36)
   ShowMessage("ヴァニラはお茶会の誘いを断った……")
   JumpToLabel("メイン")
   0()
  EndIf()
  EndEventProcessing()
  0()
 PAGE   2
  // condition: variable 1099 >= 4
  0()



EVENT   33
 PAGE   1
  ShowMessageFace("dragonp_fc1",0,0,2,1)
  ShowMessage("【パピ】")
  ShowMessage("あっ、ちょうど良いところに来たのだ！")
  ShowMessage("仕上げたばかりの剣で、試し斬りをしてほしいのだ！")
  If(1,1098,0,3,0)
   ShowMessageFace("",0,0,2,2)
   ShowMessage("今は先に、ピザを届けに行こう。")
   ShowMessage("ステージで練習しているはずだ。")
   EndEventProcessing()
   0()
  EndIf()
  If(1,1098,0,4,0)
   ShowMessageFace("",0,0,2,3)
   ShowMessage("今は先に、一階の食堂に昼ごはんを食べに行こう。")
   EndEventProcessing()
   0()
  EndIf()
  If(1,1098,0,7,0)
   ShowMessageFace("",0,0,2,4)
   ShowMessage("今は先に、ピザを届けに行こう。")
   ShowMessage("ステージで練習しているはずだ。")
   EndEventProcessing()
   0()
  EndIf()
  DefineLabel("メイン")
  355("ex_choice_add(\"試し斬りをする（時間経過）\",1,")
  655("\"v[1098] >= 5\",0)")
  655("ex_choice_add(\"異変について相談する\",2,")
  655("\"s[2341]\",0)")
  655("ex_choice_add(\"後悔していることについて聞く\",3,")
  655("\"s[2342]\",0)")
  655("ex_choice_add(\"時を繰り返す道具について聞く\",4,")
  655("\"s[2343]\",0)")
  655("ex_choice_add(\"ピザを注文したか聞く\",5,")
  655("\"s[2345]\",0)")
  355("ex_choice_add(\"謎のマキナについて聞く\",6,")
  655("\"s[2365]\",0)")
  655("ex_choice_add(\"作戦に必要な品について聞く\",7,")
  655("\"s[2364]\",0)")
  655("ex_choice_add(\"お茶会に誘う\",8,")
  655("\"s[2378]\",0)")
  655("ex_choice_add(\"立ち去る\",10)")
  355("ex_choice_show(0,11,[0,0])")
  If(1,9,0,1,0)
   ShowMessageFace("ruka_fc1",0,0,2,5)
   ShowMessage("【ルカ】")
   ShowMessage("いいけど……何を斬ればいいの？")
   ShowMessageFace("dragonp_fc1",0,0,2,6)
   ShowMessage("【パピ】")
   ShowMessage("特に何も用意していないけど……")
   ShowMessage("そこのミニでも斬ってみればいいんじゃないかな？")
   ShowMessageFace("phoenix_fc1",2,0,2,7)
   ShowMessage("【ミニ】")
   ShowMessage("なんとー！？")
   ShowMessageFace("dragonp_fc1",0,0,2,8)
   ShowMessage("【パピ】")
   ShowMessage("フェニックスだから、大丈夫！")
   ShowMessageFace("phoenix_fc1",0,0,2,9)
   ShowMessage("【ミニ】")
   ShowMessage("そう言えば、そうだな。")
   ShowMessage("あたしはフェニックスだから、死なないぞ。")
   ShowMessageFace("ruka_fc1",0,0,2,10)
   ShowMessage("【ルカ】")
   ShowMessage("君達の感覚が分からなくなる……")
   ShowMessage("ヴァニラのお店で、リンゴ買ってくるよ。")
   ShowMessageFace("",0,0,2,11)
   ShowMessage("パピの剣で試し斬りを行い、時間を潰した……")
   RunCommonEvent(540)
   EndEventProcessing()
   0()
  EndIf()
  If(1,9,0,2,0)
   ShowMessageFace("",0,0,2,12)
   ShowMessage("ルカは、異変について相談した……")
   ShowMessageFace("dragonp_fc1",0,0,2,13)
   ShowMessage("【パピ】")
   ShowMessage("…………？？？")
   ShowMessageFace("",0,0,2,14)
   ShowMessage("パピは頼れそうにない……")
   JumpToLabel("メイン")
   0()
  EndIf()
  If(1,9,0,3,0)
   ShowMessageFace("dragonp_fc1",0,0,2,15)
   ShowMessage("【パピ】")
   ShowMessage("盗賊時代は、色々な人に迷惑をかけたのだ。")
   ShowMessage("でも、過去に戻ってやりなおしたいとは思わないぞ！")
   ShowMessageFace("",0,0,2,16)
   ShowMessage("有益な情報は得られなかった……")
   JumpToLabel("メイン")
   0()
  EndIf()
  If(1,9,0,4,0)
   ShowMessageFace("dragonp_fc1",0,0,2,17)
   ShowMessage("【パピ】")
   ShowMessage("そんなアイテム、聞いたこともないのだ。")
   ShowMessageFace("",0,0,2,18)
   ShowMessage("有益な情報は得られなかった……")
   JumpToLabel("メイン")
   0()
  EndIf()
  If(1,9,0,5,0)
   ShowMessageFace("dragonp_fc1",0,0,2,19)
   ShowMessage("【パピ】")
   ShowMessage("あたしじゃないけど……")
   ShowMessage("ピザの話を聞いたら、おなかが減ってきたぞ。")
   ShowMessageFace("",0,0,2,20)
   ShowMessage("ピザを頼んだのはパピではないようだ……")
   JumpToLabel("メイン")
   0()
  EndIf()
  If(1,9,0,6,0)
   ShowMessageFace("dragonp_fc1",0,0,2,21)
   ShowMessage("【パピ】")
   ShowMessage("なんだこれ、食べていいのか？")
   ShowMessageFace("ruka_fc1",0,0,2,22)
   ShowMessage("【ルカ】")
   ShowMessage("ダメだよ！")
   ShowMessageFace("",0,0,2,23)
   ShowMessage("有益な情報は得られなかった……")
   JumpToLabel("メイン")
   0()
  EndIf()
  If(1,9,0,7,0)
   ShowMessageFace("dragonp_fc1",0,0,2,24)
   ShowMessage("【パピ】")
   ShowMessage("アイテムの事なら、ヴァニラを頼るのだ！")
   ShowMessageFace("",0,0,2,25)
   ShowMessage("有益なアイテムは得られなかった……")
   JumpToLabel("メイン")
   0()
  EndIf()
  If(1,9,0,8,0)
   ShowMessageFace("dragonp_fc1",5,0,2,26)
   ShowMessage("【パピ】")
   ShowMessage("怖いに決まってるだろ！")
   ShowMessage("行きたくないー！！")
   ShowMessageFace("",0,0,2,27)
   ShowMessage("パピはお茶会の誘いを断った……")
   JumpToLabel("メイン")
   0()
  EndIf()
  EndEventProcessing()
  0()
 PAGE   2
  // condition: variable 1099 >= 3
  0()



EVENT   34
 PAGE   1
  ShowMessageFace("phoenix_fc1",4,0,2,1)
  ShowMessage("【ミニ】")
  ShowMessage("頼みがあるのだ！")
  ShowMessage("毛がボサボサになったから、クシで整えてくれないか？")
  If(1,1098,0,3,0)
   ShowMessageFace("",0,0,2,2)
   ShowMessage("今は先に、ピザを届けに行こう。")
   ShowMessage("ステージで練習しているはずだ。")
   EndEventProcessing()
   0()
  EndIf()
  If(1,1098,0,4,0)
   ShowMessageFace("",0,0,2,3)
   ShowMessage("今は先に、一階の食堂に昼ごはんを食べに行こう。")
   EndEventProcessing()
   0()
  EndIf()
  If(1,1098,0,7,0)
   ShowMessageFace("",0,0,2,4)
   ShowMessage("今は先に、ピザを届けに行こう。")
   ShowMessage("ステージで練習しているはずだ。")
   EndEventProcessing()
   0()
  EndIf()
  DefineLabel("メイン")
  355("ex_choice_add(\"整えてあげる（時間経過）\",1,")
  655("\"v[1098] >= 5\",0)")
  655("ex_choice_add(\"異変について相談する\",2,")
  655("\"s[2341]\",0)")
  655("ex_choice_add(\"後悔していることについて聞く\",3,")
  655("\"s[2342]\",0)")
  655("ex_choice_add(\"時を繰り返す道具について聞く\",4,")
  655("\"s[2343]\",0)")
  655("ex_choice_add(\"ピザを注文したか聞く\",5,")
  655("\"s[2345]\",0)")
  355("ex_choice_add(\"謎のマキナについて聞く\",6,")
  655("\"s[2365]\",0)")
  655("ex_choice_add(\"作戦に必要な品について聞く\",7,")
  655("\"s[2364]\",0)")
  655("ex_choice_add(\"お茶会に誘う\",8,")
  655("\"s[2378]\",0)")
  655("ex_choice_add(\"立ち去る\",10)")
  355("ex_choice_show(0,11,[0,0])")
  If(1,9,0,1,0)
   ShowMessageFace("phoenix_fc1",0,0,2,5)
   ShowMessage("【ミニ】")
   ShowMessage("すまないな！")
   ShowMessage("あたしの手、不器用だからやりにくいんだぞ。")
   ShowMessageFace("ruka_fc1",0,0,2,6)
   ShowMessage("【ルカ】")
   ShowMessage("あちち……！　なんか毛が燃えてるんだけど……！")
   ShowMessageFace("phoenix_fc1",3,0,2,7)
   ShowMessage("【ミニ】")
   ShowMessage("フェニックスだからな……")
   ShowMessageFace("ruka_fc1",0,0,2,8)
   ShowMessage("【ルカ】")
   ShowMessage("わぁっ、袖に引火した！！")
   ShowMessageFace("phoenix_fc1",2,0,2,9)
   ShowMessage("【ミニ】")
   ShowMessage("か、火事だー！！")
   205(33,bytes(0x04,0x08,0x6f,0x3a,0x13,0x52,0x50,0x47,0x3a,0x3a,0x4d,0x6f,0x76,0x65,0x52,0x6f,0x75,0x74,0x65,0x09,0x3a,0x0c,0x40,0x72,0x65,0x70,0x65,0x61,0x74,0x46,0x3a,0x0f,0x40,0x73,0x6b,0x69,0x70,0x70,0x61,0x62,0x6c,0x65,0x46,0x3a,0x0a,0x40,0x77,0x61,0x69,0x74,0x54,0x3a,0x0a,0x40,0x6c,0x69,0x73,0x74,0x5b,0x07,0x6f,0x3a,0x15,0x52,0x50,0x47,0x3a,0x3a,0x4d,0x6f,0x76,0x65,0x43,0x6f,0x6d,0x6d,0x61,0x6e,0x64,0x07,0x3a,0x0a,0x40,0x63,0x6f,0x64,0x65,0x69,0x17,0x3a,0x10,0x40,0x70,0x61,0x72,0x61,0x6d,0x65,0x74,0x65,0x72,0x73,0x5b,0x00,0x6f,0x3b,0x0a,0x07,0x3b,0x0b,0x69,0x00,0x3b,0x0c,0x5b,0x00))
   ShowMessageFace("dragonp_fc1",3,0,2,10)
   ShowMessage("【パピ】")
   ShowMessage("ははははは！！")
   ShowMessageFace("phoenix_fc1",5,0,2,11)
   ShowMessage("【ミニ】")
   ShowMessage("笑ってる場合じゃないのだ～！！")
   221()
   250(bytes(0x04,0x08,0x6f,0x3a,0x0c,0x52,0x50,0x47,0x3a,0x3a,0x53,0x45,0x08,0x3a,0x0a,0x40,0x6e,0x61,0x6d,0x65,0x49,0x22,0x0b,0x57,0x61,0x74,0x65,0x72,0x31,0x06,0x3a,0x06,0x45,0x54,0x3a,0x0b,0x40,0x70,0x69,0x74,0x63,0x68,0x69,0x69,0x3a,0x0c,0x40,0x76,0x6f,0x6c,0x75,0x6d,0x65,0x69,0x55))
   ShowMessageFace("",0,0,2,12)
   ShowMessage("なんとか火事を消し止めた……")
   205(33,bytes(0x04,0x08,0x6f,0x3a,0x13,0x52,0x50,0x47,0x3a,0x3a,0x4d,0x6f,0x76,0x65,0x52,0x6f,0x75,0x74,0x65,0x09,0x3a,0x0c,0x40,0x72,0x65,0x70,0x65,0x61,0x74,0x46,0x3a,0x0f,0x40,0x73,0x6b,0x69,0x70,0x70,0x61,0x62,0x6c,0x65,0x46,0x3a,0x0a,0x40,0x77,0x61,0x69,0x74,0x54,0x3a,0x0a,0x40,0x6c,0x69,0x73,0x74,0x5b,0x07,0x6f,0x3a,0x15,0x52,0x50,0x47,0x3a,0x3a,0x4d,0x6f,0x76,0x65,0x43,0x6f,0x6d,0x6d,0x61,0x6e,0x64,0x07,0x3a,0x0a,0x40,0x63,0x6f,0x64,0x65,0x69,0x18,0x3a,0x10,0x40,0x70,0x61,0x72,0x61,0x6d,0x65,0x74,0x65,0x72,0x73,0x5b,0x00,0x6f,0x3b,0x0a,0x07,0x3b,0x0b,0x69,0x00,0x3b,0x0c,0x5b,0x00))
   RunCommonEvent(540)
   EndEventProcessing()
   0()
  EndIf()
  If(1,9,0,2,0)
   ShowMessageFace("",0,0,2,13)
   ShowMessage("ルカは、異変について相談した……")
   ShowMessageFace("phoenix_fc1",3,0,2,14)
   ShowMessage("【ミニ】")
   ShowMessage("なんだか、むずかしい話だな。")
   ShowMessage("あたしじゃ力になれないぞ……")
   ShowMessageFace("",0,0,2,15)
   ShowMessage("ミニは頼れそうにない……")
   JumpToLabel("メイン")
   0()
  EndIf()
  If(1,9,0,3,0)
   ShowMessageFace("phoenix_fc1",4,0,2,16)
   ShowMessage("【ミニ】")
   ShowMessage("後悔なんて、まったくないぞ！")
   ShowMessage("フェニックスだからな！")
   ShowMessageFace("",0,0,2,17)
   ShowMessage("有益な情報は得られなかった……")
   JumpToLabel("メイン")
   0()
  EndIf()
  If(1,9,0,4,0)
   ShowMessageFace("phoenix_fc1",3,0,2,18)
   ShowMessage("【ミニ】")
   ShowMessage("死と再生を繰り返す……か。")
   ShowMessage("フェニックスっぽいけど、あたしは知らないぞ。")
   ShowMessageFace("",0,0,2,19)
   ShowMessage("有益な情報は得られなかった……")
   JumpToLabel("メイン")
   0()
  EndIf()
  If(1,9,0,5,0)
   ShowMessageFace("phoenix_fc1",4,0,2,20)
   ShowMessage("【ミニ】")
   ShowMessage("ここ、ピザが頼めるのか！？")
   ShowMessage("初めて知ったぞー！")
   ShowMessageFace("",0,0,2,21)
   ShowMessage("ピザを頼んだのはミニではないようだ……")
   JumpToLabel("メイン")
   0()
  EndIf()
  If(1,9,0,6,0)
   ShowMessageFace("phoenix_fc1",3,0,2,22)
   ShowMessage("【ミニ】")
   ShowMessage("あたしが触ると、すぐマキナが誤動作するんだ……")
   ShowMessage("体から変な電波が出てるって言われたぞ。")
   ShowMessageFace("phoenix_fc1",3,0,2,23)
   ShowMessage("【ミニ】")
   ShowMessage("あたしもマキナかもしれないな……")
   ShowMessageFace("",0,0,2,24)
   ShowMessage("有益な情報は得られなかった……")
   JumpToLabel("メイン")
   0()
  EndIf()
  If(1,9,0,7,0)
   ShowMessageFace("phoenix_fc1",3,0,2,25)
   ShowMessage("【ミニ】")
   ShowMessage("あたしは何も持ってないぞ……")
   ShowMessage("フェニックスだからな。")
   ShowMessageFace("",0,0,2,26)
   ShowMessage("有益なアイテムは得られなかった……")
   JumpToLabel("メイン")
   0()
  EndIf()
  If(1,9,0,8,0)
   ShowMessageFace("phoenix_fc1",5,0,2,27)
   ShowMessage("【ミニ】")
   ShowMessage("こわいぞ！　イヤだぞ！！")
   ShowMessageFace("",0,0,2,28)
   ShowMessage("ミニはお茶会の誘いを断った……")
   JumpToLabel("メイン")
   0()
  EndIf()
  EndEventProcessing()
  0()
 PAGE   2
  // condition: variable 1099 >= 3
  0()



EVENT   17
 PAGE   1
  ShowMessageFace("ruka_fc1",0,0,2,1)
  ShowMessage("【ルカ】")
  ShowMessage("まだ、ポケット魔王城から出るわけにはいかないな……")
  205(-1,bytes(0x04,0x08,0x6f,0x3a,0x13,0x52,0x50,0x47,0x3a,0x3a,0x4d,0x6f,0x76,0x65,0x52,0x6f,0x75,0x74,0x65,0x09,0x3a,0x0c,0x40,0x72,0x65,0x70,0x65,0x61,0x74,0x46,0x3a,0x0f,0x40,0x73,0x6b,0x69,0x70,0x70,0x61,0x62,0x6c,0x65,0x46,0x3a,0x0a,0x40,0x77,0x61,0x69,0x74,0x54,0x3a,0x0a,0x40,0x6c,0x69,0x73,0x74,0x5b,0x07,0x6f,0x3a,0x15,0x52,0x50,0x47,0x3a,0x3a,0x4d,0x6f,0x76,0x65,0x43,0x6f,0x6d,0x6d,0x61,0x6e,0x64,0x07,0x3a,0x0a,0x40,0x63,0x6f,0x64,0x65,0x69,0x09,0x3a,0x10,0x40,0x70,0x61,0x72,0x61,0x6d,0x65,0x74,0x65,0x72,0x73,0x5b,0x00,0x6f,0x3b,0x0a,0x07,0x3b,0x0b,0x69,0x00,0x3b,0x0c,0x5b,0x00))
  EndEventProcessing()
  0()



EVENT   35
 PAGE   1
  ShowMessageFace("ruka_fc1",0,0,2,1)
  ShowMessage("【ルカ】")
  ShowMessage("まだ、ポケット魔王城から出るわけにはいかないな……")
  205(-1,bytes(0x04,0x08,0x6f,0x3a,0x13,0x52,0x50,0x47,0x3a,0x3a,0x4d,0x6f,0x76,0x65,0x52,0x6f,0x75,0x74,0x65,0x09,0x3a,0x0c,0x40,0x72,0x65,0x70,0x65,0x61,0x74,0x46,0x3a,0x0f,0x40,0x73,0x6b,0x69,0x70,0x70,0x61,0x62,0x6c,0x65,0x46,0x3a,0x0a,0x40,0x77,0x61,0x69,0x74,0x54,0x3a,0x0a,0x40,0x6c,0x69,0x73,0x74,0x5b,0x07,0x6f,0x3a,0x15,0x52,0x50,0x47,0x3a,0x3a,0x4d,0x6f,0x76,0x65,0x43,0x6f,0x6d,0x6d,0x61,0x6e,0x64,0x07,0x3a,0x0a,0x40,0x63,0x6f,0x64,0x65,0x69,0x09,0x3a,0x10,0x40,0x70,0x61,0x72,0x61,0x6d,0x65,0x74,0x65,0x72,0x73,0x5b,0x00,0x6f,0x3b,0x0a,0x07,0x3b,0x0b,0x69,0x00,0x3b,0x0c,0x5b,0x00))
  EndEventProcessing()
  0()



EVENT   36
 PAGE   1
  ShowMessageFace("ruka_fc1",0,0,2,1)
  ShowMessage("【ルカ】")
  ShowMessage("まだ、ポケット魔王城から出るわけにはいかないな……")
  205(-1,bytes(0x04,0x08,0x6f,0x3a,0x13,0x52,0x50,0x47,0x3a,0x3a,0x4d,0x6f,0x76,0x65,0x52,0x6f,0x75,0x74,0x65,0x09,0x3a,0x0c,0x40,0x72,0x65,0x70,0x65,0x61,0x74,0x46,0x3a,0x0f,0x40,0x73,0x6b,0x69,0x70,0x70,0x61,0x62,0x6c,0x65,0x46,0x3a,0x0a,0x40,0x77,0x61,0x69,0x74,0x54,0x3a,0x0a,0x40,0x6c,0x69,0x73,0x74,0x5b,0x07,0x6f,0x3a,0x15,0x52,0x50,0x47,0x3a,0x3a,0x4d,0x6f,0x76,0x65,0x43,0x6f,0x6d,0x6d,0x61,0x6e,0x64,0x07,0x3a,0x0a,0x40,0x63,0x6f,0x64,0x65,0x69,0x09,0x3a,0x10,0x40,0x70,0x61,0x72,0x61,0x6d,0x65,0x74,0x65,0x72,0x73,0x5b,0x00,0x6f,0x3b,0x0a,0x07,0x3b,0x0b,0x69,0x00,0x3b,0x0c,0x5b,0x00))
  EndEventProcessing()
  0()



EVENT   37
 PAGE   1
  RunCommonEvent(543)
  0()



EVENT   38
 PAGE   1
  RunCommonEvent(543)
  0()



EVENT   39
 PAGE   1
  RunCommonEvent(543)
  0()



EVENT   24
 PAGE   1
  ShowMessageFace("ogretooth_fc1",0,0,2,1)
  ShowMessage("【オーガトゥース】")
  ShowMessage("こりゃいい武器だな。")
  ShowMessage("おっ、勇者サマか……ちょっと付き合いな！")
  If(1,1098,0,3,0)
   ShowMessageFace("",0,0,2,2)
   ShowMessage("今は先に、ピザを届けに行こう。")
   ShowMessage("ステージで練習しているはずだ。")
   EndEventProcessing()
   0()
  EndIf()
  If(1,1098,0,4,0)
   ShowMessageFace("",0,0,2,3)
   ShowMessage("今は先に、一階の食堂に昼ごはんを食べに行こう。")
   EndEventProcessing()
   0()
  EndIf()
  If(1,1098,0,7,0)
   ShowMessageFace("",0,0,2,4)
   ShowMessage("今は先に、ピザを届けに行こう。")
   ShowMessage("ステージで練習しているはずだ。")
   EndEventProcessing()
   0()
  EndIf()
  DefineLabel("メイン")
  355("ex_choice_add(\"ちょっと付き合う（時間経過）\",1,")
  655("\"v[1098] >= 5\",0)")
  655("ex_choice_add(\"異変について相談する\",2,")
  655("\"s[2341]\",0)")
  655("ex_choice_add(\"後悔していることについて聞く\",3,")
  655("\"s[2342]\",0)")
  655("ex_choice_add(\"時を繰り返す道具について聞く\",4,")
  655("\"s[2343]\",0)")
  655("ex_choice_add(\"ピザを注文したか聞く\",5,")
  655("\"s[2345]\",0)")
  355("ex_choice_add(\"謎のマキナについて聞く\",6,")
  655("\"s[2365]\",0)")
  655("ex_choice_add(\"作戦に必要な品について聞く\",7,")
  655("\"s[2364]\",0)")
  655("ex_choice_add(\"お茶会に誘う\",8,")
  655("\"s[2378]\",0)")
  655("ex_choice_add(\"立ち去る\",10)")
  355("ex_choice_show(0,11,[0,0])")
  If(1,9,0,1,0)
   ShowMessageFace("",0,0,2,5)
   ShowMessage("オーガトゥースの戦闘訓練に付き合った……")
   ShowMessageFace("ogretooth_fc1",0,0,2,6)
   ShowMessage("【オーガトゥース】")
   ShowMessage("ホラ、なんつったか？")
   ShowMessage("あの魔王軍四天王の竜人……")
   ShowMessageFace("ruka_fc1",0,0,2,7)
   ShowMessage("【ルカ】")
   ShowMessage("それは……グランベリアのこと？")
   ShowMessageFace("ogretooth_fc1",0,0,2,8)
   ShowMessage("【オーガトゥース】")
   ShowMessage("そうそう！　四天王っていうからには強ぇんだろ？")
   ShowMessage("なぁ……アイツと一回ヤらせてくれねえか？")
   ShowMessageFace("ruka_fc1",0,0,2,9)
   ShowMessage("【ルカ】")
   ShowMessage("僕もあんまり面識ないし……")
   ShowMessage("それに、いったいどうする気？")
   ShowMessageFace("ogretooth_fc1",0,0,2,10)
   ShowMessage("【オーガトゥース】")
   ShowMessage("ちょっとしたお手合わせだよ、")
   ShowMessage("楽しい楽しいレクリエーションな！")
   ShowMessageFace("ogretooth_fc1",0,0,2,11)
   ShowMessage("【オーガトゥース】")
   ShowMessage("他にも強そうな奴らは何人か見てきたが、")
   ShowMessage("アイツからは色々学べそうな気もしてな……")
   ShowMessageFace("ruka_fc1",0,0,2,12)
   ShowMessage("【ルカ】")
   ShowMessage("（ただの戦闘狂ってわけでもないみたいだな。")
   ShowMessage("　何か、強くなる目的があるのかも……）")
   RunCommonEvent(540)
   EndEventProcessing()
   0()
  EndIf()
  If(1,9,0,2,0)
   ShowMessageFace("",0,0,2,13)
   ShowMessage("ルカは、異変について相談した……")
   ShowMessageFace("ogretooth_fc1",0,0,2,14)
   ShowMessage("【オーガトゥース】")
   ShowMessage("おいおい、頭でも打ったかあ？")
   ShowMessage("今日は今日だろうが！")
   ShowMessageFace("",0,0,2,15)
   ShowMessage("オーガトゥースは頼れそうにない……")
   JumpToLabel("メイン")
   0()
  EndIf()
  If(1,9,0,3,0)
   ShowMessageFace("ogretooth_fc1",0,0,2,16)
   ShowMessage("【オーガトゥース】")
   ShowMessage("あぁ？　後悔だぁ？")
   ShowMessage("あの時天使の奴らを前に自分の無力を何度呪ったか……")
   ShowMessageFace("ogretooth_fc1",0,0,2,17)
   ShowMessage("【オーガトゥース】")
   ShowMessage("だから俺は強くなる！")
   ShowMessage("邪魔者は全員ぶちのめすくらいまでな！")
   ShowMessageFace("",0,0,2,18)
   ShowMessage("有益な情報は得られなかった……")
   JumpToLabel("メイン")
   0()
  EndIf()
  If(1,9,0,4,0)
   ShowMessageFace("ogretooth_fc1",0,0,2,19)
   ShowMessage("【オーガトゥース】")
   ShowMessage("難しい話は分からねえ、姉貴にでも聞きな。")
   ShowMessageFace("",0,0,2,20)
   ShowMessage("有益な情報は得られなかった……")
   JumpToLabel("メイン")
   0()
  EndIf()
  If(1,9,0,5,0)
   ShowMessageFace("ogretooth_fc1",0,0,2,21)
   ShowMessage("【オーガトゥース】")
   ShowMessage("ピザってアレかぁ～？")
   ShowMessage("お前ら人間が食ってる美味そうな奴……")
   ShowMessageFace("",0,0,2,22)
   ShowMessage("ピザを頼んだのはオーガトゥースではないようだ……")
   JumpToLabel("メイン")
   0()
  EndIf()
  If(1,9,0,6,0)
   ShowMessageFace("ogretooth_fc1",0,0,2,23)
   ShowMessage("【オーガトゥース】")
   ShowMessage("機械のことなんて、俺が知るわけないだろ。")
   ShowMessageFace("",0,0,2,24)
   ShowMessage("有益な情報は得られなかった……")
   JumpToLabel("メイン")
   0()
  EndIf()
  If(1,9,0,7,0)
   ShowMessageFace("ogretooth_fc1",0,0,2,25)
   ShowMessage("【オーガトゥース】")
   ShowMessage("足止めアイテムなんて持ってねぇよ。")
   ShowMessage("戦いに役立つのは、この身ひとつだぜ！")
   ShowMessageFace("",0,0,2,26)
   ShowMessage("有益なアイテムは得られなかった……")
   JumpToLabel("メイン")
   0()
  EndIf()
  If(1,9,0,8,0)
   ShowMessageFace("ogretooth_fc1",0,0,2,27)
   ShowMessage("【オーガトゥース】")
   ShowMessage("お茶会だぁ？")
   ShowMessage("んな、お上品なところに連れてってどうするつもりだよ？")
   ShowMessageFace("",0,0,2,28)
   ShowMessage("オーガトゥースはお茶会の誘いを断った……")
   JumpToLabel("メイン")
   0()
  EndIf()
  EndEventProcessing()
  0()
 PAGE   2
  // condition: variable 1099 >= 2
  0()



EVENT   25
 PAGE   1
  // condition: variable 1099 >= 3
  RunCommonEvent(561)
  0()
 PAGE   2
  // condition: variable 1099 >= 4
  0()
 PAGE   3
  // condition: switch 2375 is ON
  0()



EVENT   40
 PAGE   1
  // condition: variable 1100 >= 13
  ShowMessageFace("sirousagi_fc2",0,0,2,1)
  ShowMessage("【■■】")
  ShowMessage("……………………")
  ShowMessageFace("ruka_fc1",0,0,2,2)
  ShowMessage("【ルカ】")
  ShowMessage("白兎……だよね？")
  ShowMessage("今回の異変も、まさかお前が……？")
  ShowMessageFace("sirousagi_fc2",0,0,2,3)
  ShowMessage("【■■】")
  ShowMessage("私はこの異変には無関係だ。")
  ShowMessage("しかし、時空平面の大きな揺らぎにより接触は容易になった。")
  DefineLabel("メイン")
  355("ex_choice_add(\"異変について相談する\",2,")
  655("\"s[2341]\",0)")
  655("ex_choice_add(\"後悔していることについて聞く\",3,")
  655("\"s[2342]\",0)")
  655("ex_choice_add(\"時を繰り返す道具について聞く\",4,")
  655("\"s[2343]\",0)")
  655("ex_choice_add(\"ピザを注文したか聞く\",5,")
  655("\"s[2345]\",0)")
  655("ex_choice_add(\"立ち去る\",10)")
  355("ex_choice_show(0,11,[0,0])")
  If(1,9,0,2,0)
   ShowMessageFace("sirousagi_fc2",0,0,2,4)
   ShowMessage("【■■】")
   ShowMessage("電気と磁気が同一であるように……")
   ShowMessage("質量とエネルギーも、本質的には相互変換可能だ。")
   ShowMessageFace("sirousagi_fc2",0,0,2,5)
   ShowMessage("【■■】")
   ShowMessage("時間と空間も、現代物理学においてまた同質。")
   ShowMessage("相対性理論において、時間も空間も物質も統合された。")
   ShowMessageFace("sirousagi_fc2",0,0,2,6)
   ShowMessage("【■■】")
   ShowMessage("その全ては、同じ■■の側面に過ぎない。")
   ShowMessage("あらゆる物理理論は、■■に統合されていく。")
   ShowMessageFace("sirousagi_fc2",0,0,2,7)
   ShowMessage("【■■】")
   ShowMessage("その力とは、■■。")
   ShowMessage("つまり、時間も空間も■■という原初の力の側面に過ぎない。")
   JumpToLabel("メイン")
   0()
  EndIf()
  If(1,9,0,3,0)
   ShowMessageFace("sirousagi_fc2",0,0,2,8)
   ShowMessage("【■■】")
   ShowMessage("かつて■■が存在した。")
   ShowMessage("宇宙創成前は、ただ■■だけがあった。")
   ShowMessageFace("sirousagi_fc2",0,0,2,9)
   ShowMessage("【■■】")
   ShowMessage("そしてビッグバンにより、宇宙が生まれた。")
   ShowMessage("■■は物質となり、時間となり、空間となり、宇宙を作った。")
   ShowMessageFace("sirousagi_fc2",0,0,2,10)
   ShowMessage("【■■】")
   ShowMessage("■■以外の全てには、寿命がある。")
   ShowMessage("宇宙にももちろん寿命がある。")
   ShowMessageFace("sirousagi_fc2",0,0,2,11)
   ShowMessage("【■■】")
   ShowMessage("やがて宇宙そのものが収束し、ビッグクランチが起きた。")
   ShowMessage("ビッグバンと対となる、宇宙の終焉だ。")
   ShowMessageFace("sirousagi_fc2",0,0,2,12)
   ShowMessage("【■■】")
   ShowMessage("だが、終わりは新たな始まりとなる。")
   ShowMessage("ビッグクランチによる宇宙の終焉は、次のビッグバンを導く。")
   ShowMessageFace("sirousagi_fc2",0,0,2,13)
   ShowMessage("【■■】")
   ShowMessage("そのビッグバンにより、次の宇宙が生み出され――")
   ShowMessage("こうして宇宙は、創成と滅びを何度か繰り返してきた。")
   ShowMessageFace("sirousagi_fc2",0,0,2,14)
   ShowMessage("【■■】")
   ShowMessage("今の宇宙は九番目なんだよ、ルカ。")
   JumpToLabel("メイン")
   0()
  EndIf()
  If(1,9,0,4,0)
   ShowMessageFace("sirousagi_fc2",0,0,2,15)
   ShowMessage("【■■】")
   ShowMessage("時間が流れる、っていう表現は間違いなんだ。")
   ShowMessage("時間は直線のように、一直線に進むものじゃない。")
   ShowMessageFace("sirousagi_fc2",0,0,2,16)
   ShowMessage("【■■】")
   ShowMessage("直線じゃないからといって、面でもない。")
   ShowMessage("時間とは波、確率的分布の揺らぎなんだ。")
   ShowMessageFace("sirousagi_fc2",0,0,2,17)
   ShowMessage("【■■】")
   ShowMessage("時間は流れない。時間は直線ではない。")
   ShowMessage("等速直線運動下において、一般観測者が見ているのは過去。")
   ShowMessageFace("sirousagi_fc2",0,0,2,18)
   ShowMessage("【■■】")
   ShowMessage("君は相対性を完全に無視する特異点だ。")
   ShowMessage("君は絶対座標であり、君自身が絶対空間だ。")
   ShowMessageFace("sirousagi_fc2",0,0,2,19)
   ShowMessage("【■■】")
   ShowMessage("君だけが、絶対的に時間を見る。")
   ShowMessage("君だけが、相対的に偏在しない。")
   ShowMessageFace("sirousagi_fc2",0,0,2,20)
   ShowMessage("【■■】")
   ShowMessage("君は絶対空間にいて、絶対時間を見る。")
   ShowMessage("君は■■だ。")
   JumpToLabel("メイン")
   0()
  EndIf()
  If(1,9,0,5,0)
   ShowMessageFace("sirousagi_fc2",0,0,2,21)
   ShowMessage("【■■】")
   ShowMessage("「眼」は常に、あらゆる時空を視ている。")
   ShowMessage("全ての時空を監視し、時に干渉している。")
   ShowMessageFace("sirousagi_fc2",0,0,2,22)
   ShowMessage("【■■】")
   ShowMessage("今この瞬間も、あの「眼」に視られている。")
   ShowMessage("「眼」は、あらゆる時間および空間を監視している。")
   ShowMessageFace("sirousagi_fc2",0,0,2,23)
   ShowMessage("【■■】")
   ShowMessage("だが、決してこちらから「眼」を見返してはならない。")
   ShowMessage("あれを観測した時、破滅の世界線が確定する。")
   ShowMessageFace("sirousagi_fc2",0,0,2,24)
   ShowMessage("【■■】")
   ShowMessage("「眼」が視ているのが分かっても、無視するんだ。")
   ShowMessage("絶対に接触するな、観測するな、視るんじゃない。")
   ShowMessageFace("sirousagi_fc2",0,0,2,25)
   ShowMessage("【■■】")
   ShowMessage("「眼」を視るな。「眼」を視るな。「眼」を視るな。")
   ShowMessage("「眼」を視るな。「眼」を視るな。「眼」を視るな。")
   ShowMessage("「眼」を視るな。「眼」を視るな。「眼」を視るな。")
   JumpToLabel("メイン")
   0()
  EndIf()
  Wait(30)
  212(0,542,false)
  Wait(60)
  ChangeSwitch(2418,2418,0)
  Wait(60)
  EndEventProcessing()
  0()
 PAGE   2
  // condition: variable 1100 >= 14
  0()
 PAGE   3
  // condition: switch 2418 is ON
  0()



EVENT   21
 PAGE   1
  281(0)
  250(bytes(0x04,0x08,0x6f,0x3a,0x0c,0x52,0x50,0x47,0x3a,0x3a,0x53,0x45,0x08,0x3a,0x0a,0x40,0x6e,0x61,0x6d,0x65,0x49,0x22,0x09,0x4d,0x6f,0x76,0x65,0x06,0x3a,0x06,0x45,0x54,0x3a,0x0b,0x40,0x70,0x69,0x74,0x63,0x68,0x69,0x69,0x3a,0x0c,0x40,0x76,0x6f,0x6c,0x75,0x6d,0x65,0x69,0x55))
  TeleportPlayer(0,78,33,36,0,0)
  0()



EVENT   22
 PAGE   1
  281(0)
  250(bytes(0x04,0x08,0x6f,0x3a,0x0c,0x52,0x50,0x47,0x3a,0x3a,0x53,0x45,0x08,0x3a,0x0a,0x40,0x6e,0x61,0x6d,0x65,0x49,0x22,0x09,0x4d,0x6f,0x76,0x65,0x06,0x3a,0x06,0x45,0x54,0x3a,0x0b,0x40,0x70,0x69,0x74,0x63,0x68,0x69,0x69,0x3a,0x0c,0x40,0x76,0x6f,0x6c,0x75,0x6d,0x65,0x69,0x55))
  TeleportPlayer(0,78,33,36,0,0)
  0()
