﻿
DisplayName "Mithra Sealed Castle"



EVENT   1
 PAGE   1
  250(bytes(0x04,0x08,0x6f,0x3a,0x0c,0x52,0x50,0x47,0x3a,0x3a,0x53,0x45,0x08,0x3a,0x0a,0x40,0x6e,0x61,0x6d,0x65,0x49,0x22,0x0b,0x45,0x61,0x72,0x74,0x68,0x34,0x06,0x3a,0x06,0x45,0x54,0x3a,0x0b,0x40,0x70,0x69,0x74,0x63,0x68,0x69,0x69,0x3a,0x0c,0x40,0x76,0x6f,0x6c,0x75,0x6d,0x65,0x69,0x55))
  205(0,bytes(0x04,0x08,0x6f,0x3a,0x13,0x52,0x50,0x47,0x3a,0x3a,0x4d,0x6f,0x76,0x65,0x52,0x6f,0x75,0x74,0x65,0x09,0x3a,0x0c,0x40,0x72,0x65,0x70,0x65,0x61,0x74,0x46,0x3a,0x0f,0x40,0x73,0x6b,0x69,0x70,0x70,0x61,0x62,0x6c,0x65,0x46,0x3a,0x0a,0x40,0x77,0x61,0x69,0x74,0x54,0x3a,0x0a,0x40,0x6c,0x69,0x73,0x74,0x5b,0x0c,0x6f,0x3a,0x15,0x52,0x50,0x47,0x3a,0x3a,0x4d,0x6f,0x76,0x65,0x43,0x6f,0x6d,0x6d,0x61,0x6e,0x64,0x07,0x3a,0x0a,0x40,0x63,0x6f,0x64,0x65,0x69,0x16,0x3a,0x10,0x40,0x70,0x61,0x72,0x61,0x6d,0x65,0x74,0x65,0x72,0x73,0x5b,0x00,0x6f,0x3b,0x0a,0x07,0x3b,0x0b,0x69,0x14,0x3b,0x0c,0x5b,0x06,0x69,0x08,0x6f,0x3b,0x0a,0x07,0x3b,0x0b,0x69,0x17,0x3b,0x0c,0x5b,0x00,0x6f,0x3b,0x0a,0x07,0x3b,0x0b,0x69,0x14,0x3b,0x0c,0x5b,0x06,0x69,0x08,0x6f,0x3b,0x0a,0x07,0x3b,0x0b,0x69,0x18,0x3b,0x0c,0x5b,0x00,0x6f,0x3b,0x0a,0x07,0x3b,0x0b,0x69,0x2a,0x3b,0x0c,0x5b,0x00,0x6f,0x3b,0x0a,0x07,0x3b,0x0b,0x69,0x00,0x3b,0x0c,0x5b,0x00))
  205(-1,bytes(0x04,0x08,0x6f,0x3a,0x13,0x52,0x50,0x47,0x3a,0x3a,0x4d,0x6f,0x76,0x65,0x52,0x6f,0x75,0x74,0x65,0x09,0x3a,0x0c,0x40,0x72,0x65,0x70,0x65,0x61,0x74,0x46,0x3a,0x0f,0x40,0x73,0x6b,0x69,0x70,0x70,0x61,0x62,0x6c,0x65,0x54,0x3a,0x0a,0x40,0x77,0x61,0x69,0x74,0x54,0x3a,0x0a,0x40,0x6c,0x69,0x73,0x74,0x5b,0x07,0x6f,0x3a,0x15,0x52,0x50,0x47,0x3a,0x3a,0x4d,0x6f,0x76,0x65,0x43,0x6f,0x6d,0x6d,0x61,0x6e,0x64,0x07,0x3a,0x0a,0x40,0x63,0x6f,0x64,0x65,0x69,0x11,0x3a,0x10,0x40,0x70,0x61,0x72,0x61,0x6d,0x65,0x74,0x65,0x72,0x73,0x5b,0x00,0x6f,0x3b,0x0a,0x07,0x3b,0x0b,0x69,0x00,0x3b,0x0c,0x5b,0x00))
  281(0)
  250(bytes(0x04,0x08,0x6f,0x3a,0x0c,0x52,0x50,0x47,0x3a,0x3a,0x53,0x45,0x08,0x3a,0x0a,0x40,0x6e,0x61,0x6d,0x65,0x49,0x22,0x09,0x4d,0x6f,0x76,0x65,0x06,0x3a,0x06,0x45,0x54,0x3a,0x0b,0x40,0x70,0x69,0x74,0x63,0x68,0x69,0x69,0x3a,0x0c,0x40,0x76,0x6f,0x6c,0x75,0x6d,0x65,0x69,0x55))
  TeleportPlayer(0,460,45,61,8,0)
  If(0,2031,1)
   ChangeSwitch(2031,2031,0)
   ShowMessageFace("ruka_fc1",0,0,2,1)
   ShowMessage("\\n<Luka>Wow, what IS this place?")
   205(-1,bytes(0x04,0x08,0x6f,0x3a,0x13,0x52,0x50,0x47,0x3a,0x3a,0x4d,0x6f,0x76,0x65,0x52,0x6f,0x75,0x74,0x65,0x09,0x3a,0x0c,0x40,0x72,0x65,0x70,0x65,0x61,0x74,0x46,0x3a,0x0f,0x40,0x73,0x6b,0x69,0x70,0x70,0x61,0x62,0x6c,0x65,0x46,0x3a,0x0a,0x40,0x77,0x61,0x69,0x74,0x46,0x3a,0x0a,0x40,0x6c,0x69,0x73,0x74,0x5b,0x0b,0x6f,0x3a,0x15,0x52,0x50,0x47,0x3a,0x3a,0x4d,0x6f,0x76,0x65,0x43,0x6f,0x6d,0x6d,0x61,0x6e,0x64,0x07,0x3a,0x0a,0x40,0x63,0x6f,0x64,0x65,0x69,0x09,0x3a,0x10,0x40,0x70,0x61,0x72,0x61,0x6d,0x65,0x74,0x65,0x72,0x73,0x5b,0x00,0x6f,0x3b,0x0a,0x07,0x3b,0x0b,0x69,0x09,0x3b,0x0c,0x5b,0x00,0x6f,0x3b,0x0a,0x07,0x3b,0x0b,0x69,0x09,0x3b,0x0c,0x5b,0x00,0x6f,0x3b,0x0a,0x07,0x3b,0x0b,0x69,0x09,0x3b,0x0c,0x5b,0x00,0x6f,0x3b,0x0a,0x07,0x3b,0x0b,0x69,0x09,0x3b,0x0c,0x5b,0x00,0x6f,0x3b,0x0a,0x07,0x3b,0x0b,0x69,0x00,0x3b,0x0c,0x5b,0x00))
   If(0,6,0)
    ShowMessageFace("sonia_fc3",7,0,2,2)
    ShowMessage("\\n<Sonya>It's full of these weird pedestals with stone monuments on top. It looks like there are words engraved into the monuments, too.")
    0()
   Else()
    ShowMessageFace("ruka_fc1",0,0,2,3)
    ShowMessage("\\n<Luka>Rows of pedestals, and those monuments look like they have words inscribed on them.")
    0()
   EndIf()
   If(0,4,0)
    ShowMessageFace("alice_fc5",0,0,2,4)
    ShowMessage("\\n<Alice>Oh, I remember this. Tamamo... That is, my teacher, told me about this castle.")
    ShowMessageFace("alice_fc5",0,0,2,5)
    ShowMessage("\\n<Alice>Long ago, twenty divine weapons were enshrined here. They were created by the Goddesses but sealed because of their tremendous power.")
    ShowMessageFace("alice_fc5",0,0,2,6)
    ShowMessage("\\n<Alice>However, once the Great Monster Wars broke out, they retrieved the divine weapons and put them to use anyway.")
    ShowMessageFace("alice_fc5",3,0,2,7)
    ShowMessage("\\n<Alice>All of them were supposedly lost, but no one knows whether that's true or not.")
    ShowMessageFace("alice_fc5",0,0,2,8)
    ShowMessage("\\n<Alice>Anyway, even I as the Monster Lord barely know anything about this castle. I doubt anyone else knows much about it either.")
    If(0,6,0)
     ShowMessageFace("sonia_fc2",2,0,2,9)
     ShowMessage("\\n<Sonya>Those divine weapons sound cool, but too bad they aren't here anymore. If only we had come here thousands of years ago...")
     ShowMessageFace("ruka_fc1",0,0,2,10)
     ShowMessage("\\n<Luka>Don't be ridiculous.")
     0()
    EndIf()
    0()
   EndIf()
   If(0,5,0)
    ShowMessageFace("iriasu_fc4",7,0,2,11)
    ShowMessage("\\n<Ilias>I knew it! It IS Mithra Castle, but what is it doing here...?")
    ShowMessageFace("ruka_fc1",0,0,2,12)
    ShowMessage("\\n<Luka>Mithra? Whose castle was this?")
    ShowMessageFace("iriasu_fc4",7,0,2,13)
    ShowMessage("\\n<Ilias>It dates from ages ago, before even the Great Monster Wars. When the Dark Goddess and I first became aware of one another, we shared a mutual hostility.")
    ShowMessageFace("iriasu_fc4",7,0,2,14)
    ShowMessage("\\n<Ilias>Our divine powers are those of infinite creation, and in our confrontation, our hostility manifested itself through those powers.")
    ShowMessageFace("iriasu_fc4",7,0,2,15)
    ShowMessage("\\n<Ilias>It wasn't intentional, but that hostility was embodied in twenty weapons, created through a mixture of light and darkness.")
    ShowMessageFace("iriasu_fc4",7,0,2,16)
    ShowMessage("\\n<Ilias>Those weapons would have been extremely dangerous had they fell into the wrong hands. Thus, we created this castle and sealed them inside.")
    ShowMessageFace("iriasu_fc4",7,0,2,17)
    ShowMessage("\\n<Ilias>The castle stood for ages. Then, a millennium ago, my confrontation with the Dark Goddess reached its peak.")
    ShowMessageFace("iriasu_fc4",7,0,2,18)
    ShowMessage("\\n<Ilias>The Great Monster Wars broke out, and the twenty weapons were unsealed.")
    ShowMessageFace("iriasu_fc4",7,0,2,19)
    ShowMessage("\\n<Ilias>Both our armies waged war with the weapons, and then they were lost. At the end of the wars, not a single one remained.")
    ShowMessageFace("iriasu_fc4",2,0,2,20)
    ShowMessage("\\n<Ilias>The castle no longer had a purpose and was banished to a void in spacetime, yet here it stands.")
    ShowMessageFace("ruka_fc1",0,0,2,21)
    ShowMessage("\\n<Luka>Wow, what a story. It's pretty hard to believe...")
    If(0,6,0)
     ShowMessageFace("sonia_fc2",2,0,2,22)
     ShowMessage("\\n<Sonya>Yeah, plus you make it sound like this Dark Goddess is your equal. Since you created the world, you must have created her too, right?")
     ShowMessageFace("iriasu_fc4",5,0,2,23)
     ShowMessage("\\n<Ilias>...oh! Y-yes, of course.")
     ShowMessageFace("iriasu_fc4",0,0,2,24)
     ShowMessage("\\n<Ilias>I am the Goddess, your Creator, and all in this world belongs to me. The one I mentioned is no more than someone I created to keep myself occupied.")
     ShowMessageFace("sonia_fc2",2,0,2,25)
     ShowMessage("\\n<Sonya>If that's true, then the story you just told doesn't make much sense...")
     ShowMessageFace("iriasu_fc4",2,0,2,26)
     ShowMessage("\\n<Ilias>Forget everything I said before. Or I'll send you straight to hell.")
     ShowMessageFace("ruka_fc1",0,0,2,27)
     ShowMessage("\\n<Luka>......")
     0()
    EndIf()
    0()
   EndIf()
   ShowMessageFace("",0,0,2,28)
   ShowMessage("At any rate, there isn't anything of value left in this castle now, let alone any legendary divine weapons.")
   0()
  EndIf()
  0()



EVENT   2
 PAGE   1
  250(bytes(0x04,0x08,0x6f,0x3a,0x0c,0x52,0x50,0x47,0x3a,0x3a,0x53,0x45,0x08,0x3a,0x0a,0x40,0x6e,0x61,0x6d,0x65,0x49,0x22,0x09,0x4d,0x6f,0x76,0x65,0x06,0x3a,0x06,0x45,0x54,0x3a,0x0b,0x40,0x70,0x69,0x74,0x63,0x68,0x69,0x69,0x3a,0x0c,0x40,0x76,0x6f,0x6c,0x75,0x6d,0x65,0x69,0x55))
  TeleportPlayer(0,2,235,353,0,0)
  0()



EVENT   3
 PAGE   1
  250(bytes(0x04,0x08,0x6f,0x3a,0x0c,0x52,0x50,0x47,0x3a,0x3a,0x53,0x45,0x08,0x3a,0x0a,0x40,0x6e,0x61,0x6d,0x65,0x49,0x22,0x09,0x4d,0x6f,0x76,0x65,0x06,0x3a,0x06,0x45,0x54,0x3a,0x0b,0x40,0x70,0x69,0x74,0x63,0x68,0x69,0x69,0x3a,0x0c,0x40,0x76,0x6f,0x6c,0x75,0x6d,0x65,0x69,0x55))
  TeleportPlayer(0,2,236,353,0,0)
  0()



EVENT   4
 PAGE   1
  250(bytes(0x04,0x08,0x6f,0x3a,0x0c,0x52,0x50,0x47,0x3a,0x3a,0x53,0x45,0x08,0x3a,0x0a,0x40,0x6e,0x61,0x6d,0x65,0x49,0x22,0x09,0x4d,0x6f,0x76,0x65,0x06,0x3a,0x06,0x45,0x54,0x3a,0x0b,0x40,0x70,0x69,0x74,0x63,0x68,0x69,0x69,0x3a,0x0c,0x40,0x76,0x6f,0x6c,0x75,0x6d,0x65,0x69,0x55))
  TeleportPlayer(0,2,236,353,0,0)
  0()
