﻿


EVENT   1
 PAGE   1
  0()
 PAGE   2
  // condition: switch 652 is ON
  // condition: switch 31 is ON
  0()



EVENT   2
 PAGE   1
  0()



EVENT   3
 PAGE   1
  0()
 PAGE   2
  // condition: switch 652 is ON
  // condition: switch 31 is ON
  0()



EVENT   4
 PAGE   1
  0()



EVENT   5
 PAGE   1
  0()
 PAGE   2
  // condition: switch 652 is ON
  // condition: switch 31 is ON
  0()



EVENT   6
 PAGE   1
  0()



EVENT   7
 PAGE   1
  0()
 PAGE   2
  // condition: switch 652 is ON
  // condition: switch 31 is ON
  0()



EVENT   8
 PAGE   1
  0()



EVENT   9
 PAGE   1
  0()



EVENT   10
 PAGE   1
  0()



EVENT   11
 PAGE   1
  0()



EVENT   12
 PAGE   1
  0()
 PAGE   2
  // condition: switch 652 is ON
  // condition: switch 31 is ON
  0()



EVENT   13
 PAGE   1
  0()
 PAGE   2
  // condition: switch 652 is ON
  // condition: switch 31 is ON
  0()



EVENT   14
 PAGE   1
  0()



EVENT   15
 PAGE   1
  0()



EVENT   16
 PAGE   1
  0()



EVENT   17
 PAGE   1
  0()



EVENT   18
 PAGE   1
  0()
 PAGE   2
  // condition: switch 652 is ON
  // condition: switch 31 is ON
  0()



EVENT   19
 PAGE   1
  0()



EVENT   20
 PAGE   1
  0()
 PAGE   2
  // condition: switch 652 is ON
  // condition: switch 31 is ON
  0()



EVENT   21
 PAGE   1
  // condition: switch 651 is ON
  241(bytes(0x04,0x08,0x6f,0x3a,0x0d,0x52,0x50,0x47,0x3a,0x3a,0x42,0x47,0x4d,0x08,0x3a,0x0a,0x40,0x6e,0x61,0x6d,0x65,0x49,0x22,0x0b,0x73,0x74,0x61,0x67,0x65,0x31,0x06,0x3a,0x06,0x45,0x54,0x3a,0x0c,0x40,0x76,0x6f,0x6c,0x75,0x6d,0x65,0x69,0x69,0x3a,0x0b,0x40,0x70,0x69,0x74,0x63,0x68,0x69,0x69))
  ShowMessageFace("eden_fc1",0,0,2,1)
  ShowMessage("\\n<Eden>Let's sing a song that praises Ilias!")
  ShowMessageFace("micaelac_fc1",3,0,2,2)
  ShowMessage("\\n<Micaela-chan>Oh, Goddess of Creation! ♪")
  ShowMessage("Light of hope, dazzling star! ♪")
  ShowMessageFace("rucyfinac_fc1",0,0,2,3)
  ShowMessage("\\n<Lucifina-chan>Oh, Goddess from heaven! ♪")
  ShowMessage("Have mercy on your earthly children! ♪")
  212(-1,723,false)
  ShowMessageFace("eden_fc1",0,0,2,4)
  ShowMessage("\\n<Eden>Yourrrrr beeeeeeautiful whiiiiiite goooooown!!\nHaahaa!! Shhhh!!")
  ShowMessageFace("",0,0,2,5)
  ShowMessage("\\n<Audience A>Gah! My ears!")
  ShowMessageFace("",0,0,2,6)
  ShowMessage("\\n<Audience B>My eardrums are bursting... Gah!")
  205(32,bytes(0x04,0x08,0x6f,0x3a,0x13,0x52,0x50,0x47,0x3a,0x3a,0x4d,0x6f,0x76,0x65,0x52,0x6f,0x75,0x74,0x65,0x09,0x3a,0x0c,0x40,0x72,0x65,0x70,0x65,0x61,0x74,0x46,0x3a,0x0f,0x40,0x73,0x6b,0x69,0x70,0x70,0x61,0x62,0x6c,0x65,0x46,0x3a,0x0a,0x40,0x77,0x61,0x69,0x74,0x46,0x3a,0x0a,0x40,0x6c,0x69,0x73,0x74,0x5b,0x07,0x6f,0x3a,0x15,0x52,0x50,0x47,0x3a,0x3a,0x4d,0x6f,0x76,0x65,0x43,0x6f,0x6d,0x6d,0x61,0x6e,0x64,0x07,0x3a,0x0a,0x40,0x63,0x6f,0x64,0x65,0x69,0x18,0x3a,0x10,0x40,0x70,0x61,0x72,0x61,0x6d,0x65,0x74,0x65,0x72,0x73,0x5b,0x00,0x6f,0x3b,0x0a,0x07,0x3b,0x0b,0x69,0x00,0x3b,0x0c,0x5b,0x00))
  205(33,bytes(0x04,0x08,0x6f,0x3a,0x13,0x52,0x50,0x47,0x3a,0x3a,0x4d,0x6f,0x76,0x65,0x52,0x6f,0x75,0x74,0x65,0x09,0x3a,0x0c,0x40,0x72,0x65,0x70,0x65,0x61,0x74,0x46,0x3a,0x0f,0x40,0x73,0x6b,0x69,0x70,0x70,0x61,0x62,0x6c,0x65,0x46,0x3a,0x0a,0x40,0x77,0x61,0x69,0x74,0x54,0x3a,0x0a,0x40,0x6c,0x69,0x73,0x74,0x5b,0x07,0x6f,0x3a,0x15,0x52,0x50,0x47,0x3a,0x3a,0x4d,0x6f,0x76,0x65,0x43,0x6f,0x6d,0x6d,0x61,0x6e,0x64,0x07,0x3a,0x0a,0x40,0x63,0x6f,0x64,0x65,0x69,0x18,0x3a,0x10,0x40,0x70,0x61,0x72,0x61,0x6d,0x65,0x74,0x65,0x72,0x73,0x5b,0x00,0x6f,0x3b,0x0a,0x07,0x3b,0x0b,0x69,0x00,0x3b,0x0c,0x5b,0x00))
  ShowMessageFace("rucyfinac_fc1",1,0,2,7)
  ShowMessage("\\n<Lucifina-chan>Sister Eden's singing is bad! ♪")
  ShowMessageFace("micaelac_fc1",1,0,2,8)
  ShowMessage("\\n<Micaela-chan>Hehe, she practiced so much too...")
  ShowMessageFace("eden_fc1",0,0,2,9)
  ShowMessage("\\n<Eden>Hehehe... Your sister totally failed♪")
  ShowMessageFace("",0,0,2,10)
  ShowMessage("\\n<Audience A>Help... I'm bleeding from my ears...")
  ShowMessageFace("",0,0,2,11)
  ShowMessage("\\n<Audience B>Oh, I can't hear anything...")
  ShowMessage("Did the sound system malfunction? Why isn't anyone talking...?")
  ShowMessageFace("",0,0,2,12)
  ShowMessage("The show is in chaos!")
  Wait(30)
  221()
  242(1)
  Wait(60)
  211(1)
  281(1)
  TeleportPlayer(0,624,63,27,6,2)
  ChangeSwitch(2119,2119,0)
  222()
  ShowMessageFace("",0,0,2,13)
  ShowMessage("\\n<Manager>I'm bleeding from my ears, from my nose... and from my eyes...")
  ShowMessageFace("rucyfinac_fc1",1,0,2,14)
  ShowMessage("\\n<Lucifina-chan>He's spilling lots of blood. It's funny! ♪")
  If(2,"A",1)
   ChangeSelfSwitch("A",0)
   250(bytes(0x04,0x08,0x6f,0x3a,0x0c,0x52,0x50,0x47,0x3a,0x3a,0x53,0x45,0x08,0x3a,0x0a,0x40,0x6e,0x61,0x6d,0x65,0x49,0x22,0x0a,0x49,0x74,0x65,0x6d,0x31,0x06,0x3a,0x06,0x45,0x54,0x3a,0x0b,0x40,0x70,0x69,0x74,0x63,0x68,0x69,0x69,0x3a,0x0c,0x40,0x76,0x6f,0x6c,0x75,0x6d,0x65,0x69,0x55))
   ChangeInventoryArmor(1518,0,0,1,false)
   0()
  EndIf()
  ChangeSwitch(2119,2119,1)
  EndEventProcessing()
  0()



EVENT   22
 PAGE   1
  // condition: switch 652 is ON
  241(bytes(0x04,0x08,0x6f,0x3a,0x0d,0x52,0x50,0x47,0x3a,0x3a,0x42,0x47,0x4d,0x08,0x3a,0x0a,0x40,0x6e,0x61,0x6d,0x65,0x49,0x22,0x0e,0x6b,0x75,0x72,0x6f,0x61,0x6c,0x69,0x63,0x65,0x06,0x3a,0x06,0x45,0x54,0x3a,0x0c,0x40,0x76,0x6f,0x6c,0x75,0x6d,0x65,0x69,0x69,0x3a,0x0b,0x40,0x70,0x69,0x74,0x63,0x68,0x69,0x69))
  ShowMessageFace("alicetromeria_fc1",0,0,2,1)
  ShowMessage("\\n<Alicetroemeria>Ufufu... It's often said that the world is our stage.")
  ShowMessageFace("alicetromeria_fc1",0,0,2,2)
  ShowMessage("\\n<Alicetroemeria>So, let's invite everyone to a tea party...")
  250(bytes(0x04,0x08,0x6f,0x3a,0x0c,0x52,0x50,0x47,0x3a,0x3a,0x53,0x45,0x08,0x3a,0x0a,0x40,0x6e,0x61,0x6d,0x65,0x49,0x22,0x0b,0x53,0x63,0x72,0x65,0x61,0x6d,0x06,0x3a,0x06,0x45,0x54,0x3a,0x0b,0x40,0x70,0x69,0x74,0x63,0x68,0x69,0x69,0x3a,0x0c,0x40,0x76,0x6f,0x6c,0x75,0x6d,0x65,0x69,0x55))
  221()
  ShowMessageFace("alicetromeria_fc1",4,0,2,3)
  ShowMessage("\\n<Alicetroemeria>...Welcome to hell.")
  ShowMessageFace("",0,0,2,4)
  ShowMessage("\\n<Audience A>Hey! What happened!?")
  ShowMessageFace("",0,0,2,5)
  ShowMessage("\\n<Audience B>Was there a blackout...!?")
  ShowMessageFace("",0,0,2,6)
  ShowMessage("\\n<Audience C>Ayaaah!")
  ChangeSwitch(31,31,0)
  222()
  ShowMessageFace("alicetromeria_fc1",1,0,2,7)
  ShowMessage("\\n<Alicetroemeria>...I'm just kidding.")
  ShowMessage("Ufufu, were you surprised...?")
  ShowMessageFace("alicetromeria_fc1",1,0,2,8)
  ShowMessage("\\n<Alicetroemeria>Although, such an idea would be fun as well.\nUfufu...")
  ShowMessageFace("",0,0,2,9)
  ShowMessage("\\n<Audience A>Whew, that was scary...")
  ShowMessageFace("",0,0,2,10)
  ShowMessage("\\n<Audience B>Wait... Weren't there more people in the audience a minute ago? Where did the guy next to me go?")
  ShowMessageFace("alicetromeria_fc1",4,0,2,11)
  ShowMessage("\\n<Alicetroemeria>Ufufufu...")
  ShowMessageFace("",0,0,2,12)
  ShowMessage("The stage falls silent...")
  Wait(30)
  221()
  ChangeSwitch(31,31,1)
  242(1)
  Wait(60)
  211(1)
  281(1)
  TeleportPlayer(0,624,63,27,6,2)
  ChangeSwitch(2119,2119,0)
  222()
  ShowMessageFace("",0,0,2,13)
  ShowMessage("\\n<Manager>Well, that was a dangerous performance.")
  If(2,"A",1)
   ChangeSelfSwitch("A",0)
   250(bytes(0x04,0x08,0x6f,0x3a,0x0c,0x52,0x50,0x47,0x3a,0x3a,0x53,0x45,0x08,0x3a,0x0a,0x40,0x6e,0x61,0x6d,0x65,0x49,0x22,0x0a,0x49,0x74,0x65,0x6d,0x31,0x06,0x3a,0x06,0x45,0x54,0x3a,0x0b,0x40,0x70,0x69,0x74,0x63,0x68,0x69,0x69,0x3a,0x0c,0x40,0x76,0x6f,0x6c,0x75,0x6d,0x65,0x69,0x55))
   ChangeInventoryArmor(1522,0,0,1,false)
   0()
  EndIf()
  ChangeSwitch(2119,2119,1)
  EndEventProcessing()
  0()



EVENT   23
 PAGE   1
  // condition: switch 653 is ON
  241(bytes(0x04,0x08,0x6f,0x3a,0x0d,0x52,0x50,0x47,0x3a,0x3a,0x42,0x47,0x4d,0x08,0x3a,0x0a,0x40,0x6e,0x61,0x6d,0x65,0x49,0x22,0x0b,0x73,0x74,0x61,0x67,0x65,0x31,0x06,0x3a,0x06,0x45,0x54,0x3a,0x0c,0x40,0x76,0x6f,0x6c,0x75,0x6d,0x65,0x69,0x69,0x3a,0x0b,0x40,0x70,0x69,0x74,0x63,0x68,0x69,0x69))
  ShowMessageFace("bonny_fc1",1,0,2,1)
  ShowMessage("\\n<Bonnie>All right, we'll sing a pirate song of the Fishy Pirates!")
  ShowMessageFace("k_mermaid_fc1",2,0,2,2)
  ShowMessage("\\n<Mermaid Pirate A>Eh, what's that...!?")
  ShowMessageFace("k_mermaid_fc1",2,0,2,3)
  ShowMessage("\\n<Mermaid Pirate B>We have such a song...!?")
  205(36,bytes(0x04,0x08,0x6f,0x3a,0x13,0x52,0x50,0x47,0x3a,0x3a,0x4d,0x6f,0x76,0x65,0x52,0x6f,0x75,0x74,0x65,0x09,0x3a,0x0c,0x40,0x72,0x65,0x70,0x65,0x61,0x74,0x46,0x3a,0x0f,0x40,0x73,0x6b,0x69,0x70,0x70,0x61,0x62,0x6c,0x65,0x46,0x3a,0x0a,0x40,0x77,0x61,0x69,0x74,0x54,0x3a,0x0a,0x40,0x6c,0x69,0x73,0x74,0x5b,0x07,0x6f,0x3a,0x15,0x52,0x50,0x47,0x3a,0x3a,0x4d,0x6f,0x76,0x65,0x43,0x6f,0x6d,0x6d,0x61,0x6e,0x64,0x07,0x3a,0x0a,0x40,0x63,0x6f,0x64,0x65,0x69,0x16,0x3a,0x10,0x40,0x70,0x61,0x72,0x61,0x6d,0x65,0x74,0x65,0x72,0x73,0x5b,0x00,0x6f,0x3b,0x0a,0x07,0x3b,0x0b,0x69,0x00,0x3b,0x0c,0x5b,0x00))
  ShowMessageFace("ashel_fc1",0,0,2,4)
  ShowMessage("\\n<Ashel>Milady... No one knows our song.")
  205(36,bytes(0x04,0x08,0x6f,0x3a,0x13,0x52,0x50,0x47,0x3a,0x3a,0x4d,0x6f,0x76,0x65,0x52,0x6f,0x75,0x74,0x65,0x09,0x3a,0x0c,0x40,0x72,0x65,0x70,0x65,0x61,0x74,0x46,0x3a,0x0f,0x40,0x73,0x6b,0x69,0x70,0x70,0x61,0x62,0x6c,0x65,0x46,0x3a,0x0a,0x40,0x77,0x61,0x69,0x74,0x54,0x3a,0x0a,0x40,0x6c,0x69,0x73,0x74,0x5b,0x07,0x6f,0x3a,0x15,0x52,0x50,0x47,0x3a,0x3a,0x4d,0x6f,0x76,0x65,0x43,0x6f,0x6d,0x6d,0x61,0x6e,0x64,0x07,0x3a,0x0a,0x40,0x63,0x6f,0x64,0x65,0x69,0x15,0x3a,0x10,0x40,0x70,0x61,0x72,0x61,0x6d,0x65,0x74,0x65,0x72,0x73,0x5b,0x00,0x6f,0x3b,0x0a,0x07,0x3b,0x0b,0x69,0x00,0x3b,0x0c,0x5b,0x00))
  ShowMessageFace("bonny_fc1",0,0,2,5)
  ShowMessage("\\n<Bonnie>.........")
  ShowMessageFace("bonny_fc1",1,0,2,6)
  ShowMessage("\\n<Bonnie>Let's do pirate gymnastics then!")
  ShowMessage("Move your arms to your waist and lean your body forward!")
  ShowMessageFace("",0,0,2,7)
  ShowMessage("\\n<Audience A>.........")
  ShowMessageFace("bonny_fc1",2,0,2,8)
  ShowMessage("\\n<Bonnie>I can't, my waist won't bend...")
  ShowMessage("Ashel, push on my back!")
  205(36,bytes(0x04,0x08,0x6f,0x3a,0x13,0x52,0x50,0x47,0x3a,0x3a,0x4d,0x6f,0x76,0x65,0x52,0x6f,0x75,0x74,0x65,0x09,0x3a,0x0c,0x40,0x72,0x65,0x70,0x65,0x61,0x74,0x46,0x3a,0x0f,0x40,0x73,0x6b,0x69,0x70,0x70,0x61,0x62,0x6c,0x65,0x46,0x3a,0x0a,0x40,0x77,0x61,0x69,0x74,0x46,0x3a,0x0a,0x40,0x6c,0x69,0x73,0x74,0x5b,0x07,0x6f,0x3a,0x15,0x52,0x50,0x47,0x3a,0x3a,0x4d,0x6f,0x76,0x65,0x43,0x6f,0x6d,0x6d,0x61,0x6e,0x64,0x07,0x3a,0x0a,0x40,0x63,0x6f,0x64,0x65,0x69,0x07,0x3a,0x10,0x40,0x70,0x61,0x72,0x61,0x6d,0x65,0x74,0x65,0x72,0x73,0x5b,0x00,0x6f,0x3b,0x0a,0x07,0x3b,0x0b,0x69,0x00,0x3b,0x0c,0x5b,0x00))
  ShowMessageFace("ashel_fc1",2,0,2,9)
  ShowMessage("\\n<Ashel>Oh dear...")
  ShowMessageFace("",0,0,2,10)
  ShowMessage("\\n<Audience B>Is she good at anything...?")
  ShowMessageFace("",0,0,2,11)
  ShowMessage("The performance is running into some issues...")
  Wait(30)
  221()
  242(1)
  Wait(60)
  211(1)
  281(1)
  TeleportPlayer(0,624,63,27,6,2)
  ChangeSwitch(2119,2119,0)
  222()
  ShowMessageFace("",0,0,2,12)
  ShowMessage("\\n<Manager>Well, try harder next time.")
  ShowMessageFace("bonny_fc1",2,0,2,13)
  ShowMessage("\\n<Bonnie>Uuh!")
  If(2,"A",1)
   ChangeSelfSwitch("A",0)
   250(bytes(0x04,0x08,0x6f,0x3a,0x0c,0x52,0x50,0x47,0x3a,0x3a,0x53,0x45,0x08,0x3a,0x0a,0x40,0x6e,0x61,0x6d,0x65,0x49,0x22,0x0a,0x49,0x74,0x65,0x6d,0x31,0x06,0x3a,0x06,0x45,0x54,0x3a,0x0b,0x40,0x70,0x69,0x74,0x63,0x68,0x69,0x69,0x3a,0x0c,0x40,0x76,0x6f,0x6c,0x75,0x6d,0x65,0x69,0x55))
   ChangeInventoryArmor(1654,0,0,1,false)
   0()
  EndIf()
  ChangeSwitch(2119,2119,1)
  EndEventProcessing()
  0()



EVENT   24
 PAGE   1
  // condition: switch 654 is ON
  241(bytes(0x04,0x08,0x6f,0x3a,0x0d,0x52,0x50,0x47,0x3a,0x3a,0x42,0x47,0x4d,0x08,0x3a,0x0a,0x40,0x6e,0x61,0x6d,0x65,0x49,0x22,0x0b,0x73,0x74,0x61,0x67,0x65,0x31,0x06,0x3a,0x06,0x45,0x54,0x3a,0x0c,0x40,0x76,0x6f,0x6c,0x75,0x6d,0x65,0x69,0x69,0x3a,0x0b,0x40,0x70,0x69,0x74,0x63,0x68,0x69,0x69))
  ShowMessageFace("levia_fc1",0,0,2,1)
  ShowMessage("\\n<Levia>Come on everyone, sing the navy song!")
  ShowMessageFace("tatunoko_k_fc1",1,0,2,2)
  ShowMessage("\\n<Seahorse Marine A>Flag of justice! ♪\nAcross these white waves! ♪")
  ShowMessageFace("tatunoko_k_fc1",1,0,2,3)
  ShowMessage("\\n<Seahorse Marine B>Flying high! ♪\nAbove the blue sky! ♪")
  ShowMessageFace("tatunoko_k_fc1",1,0,2,4)
  ShowMessage("\\n<Seahorse Marine C>Having a delicious meal! ♪\nWhite rice I will eat! ♪")
  ShowMessageFace("levia_fc1",2,0,2,5)
  ShowMessage("\\n<Levia>Just because you forgot the lyrics, you don't have to start making up new ones!")
  ShowMessageFace("umiusi_k_fc1",0,0,2,6)
  ShowMessage("\\n<Sea Slug Marine>Nananananana! ♪\nNananana! ♪")
  ShowMessageFace("levia_fc1",2,0,2,7)
  ShowMessage("\\n<Levia>Just because you forgot the lyrics, you don't have to start humming!")
  ShowMessageFace("tatunoko_k_fc1",2,0,2,8)
  ShowMessage("\\n<Seahorse Marine D>Oh...\nWe...\nZzzz...")
  ShowMessageFace("levia_fc1",2,0,2,9)
  ShowMessage("\\n<Levia>Don't fall asleep!")
  ShowMessageFace("",0,0,2,10)
  ShowMessage("\\n<Audience A>.........")
  ShowMessageFace("",0,0,2,11)
  ShowMessage("\\n<Audience B>.........")
  ShowMessageFace("",0,0,2,12)
  ShowMessage("The performance is running into some issues...")
  Wait(30)
  221()
  242(1)
  Wait(60)
  211(1)
  281(1)
  TeleportPlayer(0,624,63,27,6,2)
  ChangeSwitch(2119,2119,0)
  222()
  ShowMessageFace("",0,0,2,13)
  ShowMessage("\\n<Manager>Naval discipline is surprisingly lax...")
  ShowMessageFace("levia_fc1",2,0,2,14)
  ShowMessage("\\n<Levia>Ugh... We're embarrassing ourselves up here...")
  If(2,"A",1)
   ChangeSelfSwitch("A",0)
   250(bytes(0x04,0x08,0x6f,0x3a,0x0c,0x52,0x50,0x47,0x3a,0x3a,0x53,0x45,0x08,0x3a,0x0a,0x40,0x6e,0x61,0x6d,0x65,0x49,0x22,0x0a,0x49,0x74,0x65,0x6d,0x31,0x06,0x3a,0x06,0x45,0x54,0x3a,0x0b,0x40,0x70,0x69,0x74,0x63,0x68,0x69,0x69,0x3a,0x0c,0x40,0x76,0x6f,0x6c,0x75,0x6d,0x65,0x69,0x55))
   ChangeInventoryArmor(1217,0,0,1,false)
   0()
  EndIf()
  ChangeSwitch(2119,2119,1)
  EndEventProcessing()
  0()



EVENT   25
 PAGE   1
  // condition: switch 655 is ON
  241(bytes(0x04,0x08,0x6f,0x3a,0x0d,0x52,0x50,0x47,0x3a,0x3a,0x42,0x47,0x4d,0x08,0x3a,0x0a,0x40,0x6e,0x61,0x6d,0x65,0x49,0x22,0x0b,0x73,0x74,0x61,0x67,0x65,0x31,0x06,0x3a,0x06,0x45,0x54,0x3a,0x0c,0x40,0x76,0x6f,0x6c,0x75,0x6d,0x65,0x69,0x69,0x3a,0x0b,0x40,0x70,0x69,0x74,0x63,0x68,0x69,0x69))
  ShowMessageFace("durahan_fc1",0,0,2,1)
  ShowMessage("\\n<Arthur>I usually fight in front of a crowd of people...")
  ShowMessage("But it's my first time being on stage.")
  ShowMessageFace("kerberos_fc1",0,0,2,2)
  ShowMessage("\\n<Caesar>Oh well, what should we do...")
  ShowMessage("How about I bowl with your head?")
  ShowMessageFace("durahan_fc1",0,0,2,3)
  ShowMessage("\\n<Arthur>No... How about a disobedient dog training show?")
  205(42,bytes(0x04,0x08,0x6f,0x3a,0x13,0x52,0x50,0x47,0x3a,0x3a,0x4d,0x6f,0x76,0x65,0x52,0x6f,0x75,0x74,0x65,0x09,0x3a,0x0c,0x40,0x72,0x65,0x70,0x65,0x61,0x74,0x46,0x3a,0x0f,0x40,0x73,0x6b,0x69,0x70,0x70,0x61,0x62,0x6c,0x65,0x46,0x3a,0x0a,0x40,0x77,0x61,0x69,0x74,0x54,0x3a,0x0a,0x40,0x6c,0x69,0x73,0x74,0x5b,0x07,0x6f,0x3a,0x15,0x52,0x50,0x47,0x3a,0x3a,0x4d,0x6f,0x76,0x65,0x43,0x6f,0x6d,0x6d,0x61,0x6e,0x64,0x07,0x3a,0x0a,0x40,0x63,0x6f,0x64,0x65,0x69,0x16,0x3a,0x10,0x40,0x70,0x61,0x72,0x61,0x6d,0x65,0x74,0x65,0x72,0x73,0x5b,0x00,0x6f,0x3b,0x0a,0x07,0x3b,0x0b,0x69,0x00,0x3b,0x0c,0x5b,0x00))
  ShowMessageFace("kerberos_fc1",2,0,2,4)
  ShowMessage("\\n<Caesar>What did you say!? You wanna fight?")
  205(41,bytes(0x04,0x08,0x6f,0x3a,0x13,0x52,0x50,0x47,0x3a,0x3a,0x4d,0x6f,0x76,0x65,0x52,0x6f,0x75,0x74,0x65,0x09,0x3a,0x0c,0x40,0x72,0x65,0x70,0x65,0x61,0x74,0x46,0x3a,0x0f,0x40,0x73,0x6b,0x69,0x70,0x70,0x61,0x62,0x6c,0x65,0x46,0x3a,0x0a,0x40,0x77,0x61,0x69,0x74,0x54,0x3a,0x0a,0x40,0x6c,0x69,0x73,0x74,0x5b,0x07,0x6f,0x3a,0x15,0x52,0x50,0x47,0x3a,0x3a,0x4d,0x6f,0x76,0x65,0x43,0x6f,0x6d,0x6d,0x61,0x6e,0x64,0x07,0x3a,0x0a,0x40,0x63,0x6f,0x64,0x65,0x69,0x17,0x3a,0x10,0x40,0x70,0x61,0x72,0x61,0x6d,0x65,0x74,0x65,0x72,0x73,0x5b,0x00,0x6f,0x3b,0x0a,0x07,0x3b,0x0b,0x69,0x00,0x3b,0x0c,0x5b,0x00))
  ShowMessageFace("durahan_fc1",0,0,2,5)
  ShowMessage("\\n<Arthur>Hmph, I accept!")
  ShowMessageFace("",0,0,2,6)
  ShowMessage("\\n<Audience A>Whoa, a stage brawl!?")
  ShowMessageFace("",0,0,2,7)
  ShowMessage("\\n<Audience B>Oh, yeah!")
  ShowMessageFace("durahan_fc1",2,0,2,8)
  ShowMessage("\\n<Arthur>...Actually, I don't feel like it.")
  ShowMessage("Shall we settle this later?")
  ShowMessageFace("kerberos_fc1",2,0,2,9)
  ShowMessage("\\n<Caesar>...Sounds good.")
  ShowMessageFace("",0,0,2,10)
  ShowMessage("The audience is full of excitement!")
  Wait(30)
  221()
  242(1)
  Wait(60)
  211(1)
  281(1)
  TeleportPlayer(0,624,63,27,6,2)
  ChangeSwitch(2119,2119,0)
  222()
  ShowMessageFace("",0,0,2,11)
  ShowMessage("\\n<Manager>Oh crap, please don't have a duel on stage...")
  If(2,"A",1)
   ChangeSelfSwitch("A",0)
   250(bytes(0x04,0x08,0x6f,0x3a,0x0c,0x52,0x50,0x47,0x3a,0x3a,0x53,0x45,0x08,0x3a,0x0a,0x40,0x6e,0x61,0x6d,0x65,0x49,0x22,0x0a,0x49,0x74,0x65,0x6d,0x31,0x06,0x3a,0x06,0x45,0x54,0x3a,0x0b,0x40,0x70,0x69,0x74,0x63,0x68,0x69,0x69,0x3a,0x0c,0x40,0x76,0x6f,0x6c,0x75,0x6d,0x65,0x69,0x55))
   ChangeInventoryArmor(1274,0,0,1,false)
   0()
  EndIf()
  ChangeSwitch(2119,2119,1)
  EndEventProcessing()
  0()



EVENT   26
 PAGE   1
  // condition: switch 656 is ON
  241(bytes(0x04,0x08,0x6f,0x3a,0x0d,0x52,0x50,0x47,0x3a,0x3a,0x42,0x47,0x4d,0x08,0x3a,0x0a,0x40,0x6e,0x61,0x6d,0x65,0x49,0x22,0x13,0x73,0x63,0x65,0x6e,0x65,0x5f,0x6f,0x64,0x61,0x79,0x61,0x6b,0x61,0x31,0x06,0x3a,0x06,0x45,0x54,0x3a,0x0c,0x40,0x76,0x6f,0x6c,0x75,0x6d,0x65,0x69,0x69,0x3a,0x0b,0x40,0x70,0x69,0x74,0x63,0x68,0x69,0x69))
  ShowMessageFace("",0,0,2,1)
  ShowMessage("\\n<Audience A>.........")
  ShowMessageFace("",0,0,2,2)
  ShowMessage("\\n<Audience B>.........")
  ShowMessageFace("nekomata_fc1",2,0,2,3)
  ShowMessage("\\n<Tama>Zzz...")
  ShowMessageFace("",0,0,2,4)
  ShowMessage("\\n<Audience A>So cute...")
  ShowMessageFace("",0,0,2,5)
  ShowMessage("\\n<Audience B>How adorable...")
  ShowMessageFace("nekomata_fc1",2,0,2,6)
  ShowMessage("\\n<Tama>Zzz...")
  ShowMessageFace("",0,0,2,7)
  ShowMessage("\\n<Audience A>.........")
  ShowMessageFace("",0,0,2,8)
  ShowMessage("\\n<Audience B>.........")
  ShowMessageFace("nekomata_fc1",2,0,2,9)
  ShowMessage("\\n<Tama>Zzz...")
  ShowMessageFace("",0,0,2,10)
  ShowMessage("The performance is very relaxing...")
  Wait(30)
  221()
  242(1)
  Wait(60)
  211(1)
  281(1)
  TeleportPlayer(0,624,63,27,6,2)
  ChangeSwitch(2119,2119,0)
  222()
  ShowMessageFace("",0,0,2,11)
  ShowMessage("\\n<Manager>Aah, I'm falling asleep...")
  If(2,"A",1)
   ChangeSelfSwitch("A",0)
   250(bytes(0x04,0x08,0x6f,0x3a,0x0c,0x52,0x50,0x47,0x3a,0x3a,0x53,0x45,0x08,0x3a,0x0a,0x40,0x6e,0x61,0x6d,0x65,0x49,0x22,0x0a,0x49,0x74,0x65,0x6d,0x31,0x06,0x3a,0x06,0x45,0x54,0x3a,0x0b,0x40,0x70,0x69,0x74,0x63,0x68,0x69,0x69,0x3a,0x0c,0x40,0x76,0x6f,0x6c,0x75,0x6d,0x65,0x69,0x55))
   ChangeInventoryArmor(1698,0,0,1,false)
   0()
  EndIf()
  ChangeSwitch(2119,2119,1)
  EndEventProcessing()
  0()



EVENT   27
 PAGE   1
  // condition: switch 657 is ON
  241(bytes(0x04,0x08,0x6f,0x3a,0x0d,0x52,0x50,0x47,0x3a,0x3a,0x42,0x47,0x4d,0x08,0x3a,0x0a,0x40,0x6e,0x61,0x6d,0x65,0x49,0x22,0x10,0x73,0x63,0x65,0x6e,0x65,0x5f,0x63,0x6f,0x6d,0x69,0x32,0x06,0x3a,0x06,0x45,0x54,0x3a,0x0c,0x40,0x76,0x6f,0x6c,0x75,0x6d,0x65,0x69,0x69,0x3a,0x0b,0x40,0x70,0x69,0x74,0x63,0x68,0x69,0x69))
  ShowMessageFace("nyumaou_fc1",0,0,2,1)
  ShowMessage("\\n<Cow Demon Queen>My fellow minotaurs!\nRaise your voices!")
  ShowMessageFace("mino_fc1",0,0,2,2)
  ShowMessage("\\n<Mina>Uoooooooo! Beef bowl!")
  ShowMessageFace("h_mino_fc1",3,0,2,3)
  ShowMessage("\\n<Carol>So many boobs... I'll do my best!")
  ShowMessageFace("m_mino_fc1",3,0,2,4)
  ShowMessage("\\n<Odette>My body is burning with pleasure, ufufufu...")
  ShowMessageFace("zinitauros_fc1",1,0,2,5)
  ShowMessage("\\n<Taura>If it's about brain power, leave it to me!")
  ShowMessageFace("sonia_fc1",3,0,2,6)
  ShowMessage("\\n<Sonya>My passion burns brightly through my club!")
  205(49,bytes(0x04,0x08,0x6f,0x3a,0x13,0x52,0x50,0x47,0x3a,0x3a,0x4d,0x6f,0x76,0x65,0x52,0x6f,0x75,0x74,0x65,0x09,0x3a,0x0c,0x40,0x72,0x65,0x70,0x65,0x61,0x74,0x46,0x3a,0x0f,0x40,0x73,0x6b,0x69,0x70,0x70,0x61,0x62,0x6c,0x65,0x46,0x3a,0x0a,0x40,0x77,0x61,0x69,0x74,0x54,0x3a,0x0a,0x40,0x6c,0x69,0x73,0x74,0x5b,0x07,0x6f,0x3a,0x15,0x52,0x50,0x47,0x3a,0x3a,0x4d,0x6f,0x76,0x65,0x43,0x6f,0x6d,0x6d,0x61,0x6e,0x64,0x07,0x3a,0x0a,0x40,0x63,0x6f,0x64,0x65,0x69,0x16,0x3a,0x10,0x40,0x70,0x61,0x72,0x61,0x6d,0x65,0x74,0x65,0x72,0x73,0x5b,0x00,0x6f,0x3b,0x0a,0x07,0x3b,0x0b,0x69,0x00,0x3b,0x0c,0x5b,0x00))
  ShowMessageFace("sonia_fc3",2,0,2,7)
  ShowMessage("\\n<Sonya>...Why am I lumped in with all of these cows!?")
  ShowMessageFace("mino_fc1",1,0,2,8)
  ShowMessage("\\n<Mina>Well, you're a girl who can pack some punch...")
  ShowMessageFace("h_mino_fc1",0,0,2,9)
  ShowMessage("\\n<Carol>And you also have big boobs...")
  205(49,bytes(0x04,0x08,0x6f,0x3a,0x13,0x52,0x50,0x47,0x3a,0x3a,0x4d,0x6f,0x76,0x65,0x52,0x6f,0x75,0x74,0x65,0x09,0x3a,0x0c,0x40,0x72,0x65,0x70,0x65,0x61,0x74,0x46,0x3a,0x0f,0x40,0x73,0x6b,0x69,0x70,0x70,0x61,0x62,0x6c,0x65,0x46,0x3a,0x0a,0x40,0x77,0x61,0x69,0x74,0x46,0x3a,0x0a,0x40,0x6c,0x69,0x73,0x74,0x5b,0x08,0x6f,0x3a,0x15,0x52,0x50,0x47,0x3a,0x3a,0x4d,0x6f,0x76,0x65,0x43,0x6f,0x6d,0x6d,0x61,0x6e,0x64,0x07,0x3a,0x0a,0x40,0x63,0x6f,0x64,0x65,0x69,0x13,0x3a,0x10,0x40,0x70,0x61,0x72,0x61,0x6d,0x65,0x74,0x65,0x72,0x73,0x5b,0x07,0x69,0x00,0x69,0x00,0x6f,0x3b,0x0a,0x07,0x3b,0x0b,0x69,0x13,0x3b,0x0c,0x5b,0x07,0x69,0x00,0x69,0x00,0x6f,0x3b,0x0a,0x07,0x3b,0x0b,0x69,0x00,0x3b,0x0c,0x5b,0x00))
  ShowMessageFace("sonia_fc3",2,0,2,10)
  ShowMessage("\\n<Sonya>Those aren't reasons to treat me like a minotauros!")
  ShowMessageFace("",0,0,2,11)
  ShowMessage("The performance is running into some issues...")
  Wait(30)
  221()
  242(1)
  Wait(60)
  211(1)
  281(1)
  TeleportPlayer(0,624,63,27,6,2)
  ChangeSwitch(2119,2119,0)
  222()
  ShowMessageFace("",0,0,2,12)
  ShowMessage("\\n<Manager>For some reason, I want to eat a beef bowl now...")
  If(2,"A",1)
   ChangeSelfSwitch("A",0)
   250(bytes(0x04,0x08,0x6f,0x3a,0x0c,0x52,0x50,0x47,0x3a,0x3a,0x53,0x45,0x08,0x3a,0x0a,0x40,0x6e,0x61,0x6d,0x65,0x49,0x22,0x0a,0x49,0x74,0x65,0x6d,0x31,0x06,0x3a,0x06,0x45,0x54,0x3a,0x0b,0x40,0x70,0x69,0x74,0x63,0x68,0x69,0x69,0x3a,0x0c,0x40,0x76,0x6f,0x6c,0x75,0x6d,0x65,0x69,0x55))
   ChangeInventoryArmor(1307,0,0,1,false)
   0()
  EndIf()
  ChangeSwitch(2119,2119,1)
  EndEventProcessing()
  0()



EVENT   28
 PAGE   1
  // condition: switch 658 is ON
  241(bytes(0x04,0x08,0x6f,0x3a,0x0d,0x52,0x50,0x47,0x3a,0x3a,0x42,0x47,0x4d,0x08,0x3a,0x0a,0x40,0x6e,0x61,0x6d,0x65,0x49,0x22,0x10,0x73,0x63,0x65,0x6e,0x65,0x5f,0x63,0x6f,0x6d,0x69,0x32,0x06,0x3a,0x06,0x45,0x54,0x3a,0x0c,0x40,0x76,0x6f,0x6c,0x75,0x6d,0x65,0x69,0x69,0x3a,0x0b,0x40,0x70,0x69,0x74,0x63,0x68,0x69,0x69))
  ShowMessageFace("a_emp_fc1",2,0,2,1)
  ShowMessage("\\n<Priestess>Please, leave me alone!\nI'm too tired!")
  ShowMessageFace("a_alm_fc1",0,0,2,2)
  ShowMessage("\\n<Arum>If you need help, please let us know.")
  ShowMessage("Everyone's concerned about you, Priestess...")
  ShowMessageFace("a_emp_fc1",2,0,2,3)
  ShowMessage("\\n<Priestess>That's exactly what's wrong!")
  ShowMessage("I just want to be left alone...")
  ShowMessageFace("a_looty_fc1",0,0,2,4)
  ShowMessage("\\n<Rooty>I've got it! Let's go drinking together! That's what humans do!")
  ShowMessageFace("a_emp_fc1",2,0,2,5)
  ShowMessage("\\n<Priestess>NOOO!")
  ShowMessageFace("a_vore_fc1",1,0,2,6)
  ShowMessage("\\n<Vore>Sickness and health start with the mind.")
  ShowMessage("Let's change that attitude and blow away that depression!")
  ShowMessageFace("a_emp_fc1",2,0,2,7)
  ShowMessage("\\n<Priestess>You should be the ones who blow away!")
  ShowMessageFace("a_parasol_fc1",0,0,2,8)
  ShowMessage("\\n<Parasol>It's okay, Priestess...")
  ShowMessage("No matter how hard it may seem, there will always be a tomorrow.")
  ShowMessageFace("a_emp_fc1",2,0,2,9)
  ShowMessage("\\n<Priestess>Tomorrow will be just as painful as today!")
  ShowMessageFace("a_prison_fc1",0,0,2,10)
  ShowMessage("\\n<Prison>Cheer up, Priestess! I'm here to support you!")
  ShowMessageFace("a_emp_fc1",2,0,2,11)
  ShowMessage("\\n<Priestess>I need to get some sunlight and replenish my serotonin!")
  ShowMessageFace("a_mash_fc1",0,0,2,12)
  ShowMessage("\\n<Shroom>Ukekekeke!!")
  ShowMessageFace("a_emp_fc1",1,0,2,13)
  ShowMessage("\\n<Priestess>Ukekeke!!")
  ShowMessageFace("",0,0,2,14)
  ShowMessage("\\n<Audience A>I've got a stomachache for some reason...")
  ShowMessageFace("",0,0,2,15)
  ShowMessage("\\n<Audience B>I think I might quit my job...")
  ShowMessageFace("",0,0,2,16)
  ShowMessage("The stage is filled with a strange atmosphere...")
  Wait(30)
  221()
  242(1)
  Wait(60)
  211(1)
  281(1)
  TeleportPlayer(0,624,63,27,6,2)
  ChangeSwitch(2119,2119,0)
  222()
  ShowMessageFace("",0,0,2,17)
  ShowMessage("\\n<Manager>I want to quit my job.")
  If(2,"A",1)
   ChangeSelfSwitch("A",0)
   250(bytes(0x04,0x08,0x6f,0x3a,0x0c,0x52,0x50,0x47,0x3a,0x3a,0x53,0x45,0x08,0x3a,0x0a,0x40,0x6e,0x61,0x6d,0x65,0x49,0x22,0x0a,0x49,0x74,0x65,0x6d,0x31,0x06,0x3a,0x06,0x45,0x54,0x3a,0x0b,0x40,0x70,0x69,0x74,0x63,0x68,0x69,0x69,0x3a,0x0c,0x40,0x76,0x6f,0x6c,0x75,0x6d,0x65,0x69,0x55))
   ChangeInventoryArmor(1397,0,0,1,false)
   0()
  EndIf()
  ChangeSwitch(2119,2119,1)
  EndEventProcessing()
  0()



EVENT   29
 PAGE   1
  // condition: switch 659 is ON
  241(bytes(0x04,0x08,0x6f,0x3a,0x0d,0x52,0x50,0x47,0x3a,0x3a,0x42,0x47,0x4d,0x08,0x3a,0x0a,0x40,0x6e,0x61,0x6d,0x65,0x49,0x22,0x10,0x73,0x63,0x65,0x6e,0x65,0x5f,0x63,0x6f,0x6d,0x69,0x32,0x06,0x3a,0x06,0x45,0x54,0x3a,0x0c,0x40,0x76,0x6f,0x6c,0x75,0x6d,0x65,0x69,0x69,0x3a,0x0b,0x40,0x70,0x69,0x74,0x63,0x68,0x69,0x69))
  ShowMessageFace("ant_fc1",0,0,2,1)
  ShowMessage("\\n<Ant>OUR QUEEN IS BIGGER AND STRONGER!")
  ShowMessageFace("suzumebati_fc1",0,0,2,2)
  ShowMessage("\\n<Bii>OUR QUEEN IS NICER AND KINDER!")
  ShowMessageFace("queenant_fc1",0,0,2,3)
  ShowMessage("\\n<Antine Ann>Our daughters are always fighting...")
  ShowMessageFace("queenbee_fc1",0,0,2,4)
  ShowMessage("\\n<Miria>Yes, we all should get along...")
  ShowMessageFace("queenant_fc1",0,0,2,5)
  ShowMessage("\\n<Antine Ann>Well, she's correct saying that I'm stronger, though...")
  ShowMessageFace("queenbee_fc1",2,0,2,6)
  ShowMessage("\\n<Miria>Hmm? But I'm nice and kind. I'd say that makes me the better queen...")
  ShowMessageFace("queenant_fc1",1,0,2,7)
  ShowMessage("\\n<Antine Ann>We may be related, but I can't ignore that. Shall we find out who's the better queen right here, right now?")
  205(54,bytes(0x04,0x08,0x6f,0x3a,0x13,0x52,0x50,0x47,0x3a,0x3a,0x4d,0x6f,0x76,0x65,0x52,0x6f,0x75,0x74,0x65,0x09,0x3a,0x0c,0x40,0x72,0x65,0x70,0x65,0x61,0x74,0x46,0x3a,0x0f,0x40,0x73,0x6b,0x69,0x70,0x70,0x61,0x62,0x6c,0x65,0x46,0x3a,0x0a,0x40,0x77,0x61,0x69,0x74,0x54,0x3a,0x0a,0x40,0x6c,0x69,0x73,0x74,0x5b,0x07,0x6f,0x3a,0x15,0x52,0x50,0x47,0x3a,0x3a,0x4d,0x6f,0x76,0x65,0x43,0x6f,0x6d,0x6d,0x61,0x6e,0x64,0x07,0x3a,0x0a,0x40,0x63,0x6f,0x64,0x65,0x69,0x16,0x3a,0x10,0x40,0x70,0x61,0x72,0x61,0x6d,0x65,0x74,0x65,0x72,0x73,0x5b,0x00,0x6f,0x3b,0x0a,0x07,0x3b,0x0b,0x69,0x00,0x3b,0x0c,0x5b,0x00))
  205(56,bytes(0x04,0x08,0x6f,0x3a,0x13,0x52,0x50,0x47,0x3a,0x3a,0x4d,0x6f,0x76,0x65,0x52,0x6f,0x75,0x74,0x65,0x09,0x3a,0x0c,0x40,0x72,0x65,0x70,0x65,0x61,0x74,0x46,0x3a,0x0f,0x40,0x73,0x6b,0x69,0x70,0x70,0x61,0x62,0x6c,0x65,0x46,0x3a,0x0a,0x40,0x77,0x61,0x69,0x74,0x54,0x3a,0x0a,0x40,0x6c,0x69,0x73,0x74,0x5b,0x07,0x6f,0x3a,0x15,0x52,0x50,0x47,0x3a,0x3a,0x4d,0x6f,0x76,0x65,0x43,0x6f,0x6d,0x6d,0x61,0x6e,0x64,0x07,0x3a,0x0a,0x40,0x63,0x6f,0x64,0x65,0x69,0x17,0x3a,0x10,0x40,0x70,0x61,0x72,0x61,0x6d,0x65,0x74,0x65,0x72,0x73,0x5b,0x00,0x6f,0x3b,0x0a,0x07,0x3b,0x0b,0x69,0x00,0x3b,0x0c,0x5b,0x00))
  ShowMessageFace("ant_fc1",0,0,2,8)
  ShowMessage("\\n<Ant>QUEEN, FIGHTING BAD...")
  ShowMessageFace("suzumebati_fc1",0,0,2,9)
  ShowMessage("\\n<Bii>QUEEN, GET ALONG...")
  ShowMessageFace("",0,0,2,10)
  ShowMessage("\\n<Audience>This is what happens when parents get involved in their kids' disputes...")
  ShowMessageFace("",0,0,2,11)
  ShowMessage("The audience is in a delicate situation...")
  Wait(30)
  221()
  242(1)
  Wait(60)
  211(1)
  281(1)
  TeleportPlayer(0,624,63,27,6,2)
  ChangeSwitch(2119,2119,0)
  222()
  ShowMessageFace("",0,0,2,12)
  ShowMessage("\\n<Manager>Bee girls and ant girls are gathering around the theater...")
  If(2,"A",1)
   ChangeSelfSwitch("A",0)
   250(bytes(0x04,0x08,0x6f,0x3a,0x0c,0x52,0x50,0x47,0x3a,0x3a,0x53,0x45,0x08,0x3a,0x0a,0x40,0x6e,0x61,0x6d,0x65,0x49,0x22,0x0a,0x49,0x74,0x65,0x6d,0x31,0x06,0x3a,0x06,0x45,0x54,0x3a,0x0b,0x40,0x70,0x69,0x74,0x63,0x68,0x69,0x69,0x3a,0x0c,0x40,0x76,0x6f,0x6c,0x75,0x6d,0x65,0x69,0x55))
   ChangeInventoryArmor(1394,0,0,1,false)
   0()
  EndIf()
  ChangeSwitch(2119,2119,1)
  EndEventProcessing()
  0()



EVENT   30
 PAGE   1
  // condition: switch 660 is ON
  241(bytes(0x04,0x08,0x6f,0x3a,0x0d,0x52,0x50,0x47,0x3a,0x3a,0x42,0x47,0x4d,0x08,0x3a,0x0a,0x40,0x6e,0x61,0x6d,0x65,0x49,0x22,0x0d,0x64,0x75,0x6e,0x67,0x65,0x6f,0x6e,0x31,0x06,0x3a,0x06,0x45,0x54,0x3a,0x0c,0x40,0x76,0x6f,0x6c,0x75,0x6d,0x65,0x69,0x69,0x3a,0x0b,0x40,0x70,0x69,0x74,0x63,0x68,0x69,0x69))
  ShowMessageFace("beelzebub_fc1",0,0,2,1)
  ShowMessage("\\n<Barbarella>Cower in fear, humans...\nWe are the Great Queens of Monster Flies.")
  ShowMessageFace("",0,0,2,2)
  ShowMessage("\\n<Audience A>Wow!? They're huge fly girls!")
  ShowMessageFace("",0,0,2,3)
  ShowMessage("\\n<Audience B>With lots of boobs!")
  ShowMessageFace("beelzebub_fc1",2,0,2,4)
  ShowMessage("\\n<Barbarella>Why aren't these humans afraid of us...?")
  ShowMessageFace("beelzebub_fc2",2,0,2,5)
  ShowMessage("\\n<Striga>I don't know...\nThis era is rather frightening.")
  ShowMessageFace("beelzebub_fc3",0,0,2,6)
  ShowMessage("\\n<Media>I think they were selling dango in the shop over there...")
  ShowMessageFace("beelzebub_fc1",2,0,2,7)
  ShowMessage("\\n<Barbarella>Oh, how I want to go back to our time...")
  ShowMessageFace("beelzebub_fc2",2,0,2,8)
  ShowMessage("\\n<Striga>The past was so nice...")
  ShowMessageFace("beelzebub_fc3",0,0,2,9)
  ShowMessage("\\n<Media>Why don't you just get used to this era?\n...Want to go eat dango?")
  ShowMessageFace("",0,0,2,10)
  ShowMessage("The stage is filled with a strange atmosphere...")
  Wait(30)
  221()
  242(1)
  Wait(60)
  211(1)
  281(1)
  TeleportPlayer(0,624,63,27,6,2)
  ChangeSwitch(2119,2119,0)
  222()
  ShowMessageFace("",0,0,2,11)
  ShowMessage("\\n<Manager>Is their dango any good?")
  ShowMessageFace("beelzebub_fc3",0,0,2,12)
  ShowMessage("\\n<Media>Yes...")
  If(2,"A",1)
   ChangeSelfSwitch("A",0)
   250(bytes(0x04,0x08,0x6f,0x3a,0x0c,0x52,0x50,0x47,0x3a,0x3a,0x53,0x45,0x08,0x3a,0x0a,0x40,0x6e,0x61,0x6d,0x65,0x49,0x22,0x0a,0x49,0x74,0x65,0x6d,0x31,0x06,0x3a,0x06,0x45,0x54,0x3a,0x0b,0x40,0x70,0x69,0x74,0x63,0x68,0x69,0x69,0x3a,0x0c,0x40,0x76,0x6f,0x6c,0x75,0x6d,0x65,0x69,0x55))
   ChangeInventory_Item(408,0,0,10)
   ChangeInventory_Item(409,0,0,10)
   ChangeInventory_Item(410,0,0,10)
   0()
  EndIf()
  ChangeSwitch(2119,2119,1)
  EndEventProcessing()
  0()



EVENT   31
 PAGE   1
  // condition: switch 651 is ON
  0()



EVENT   32
 PAGE   1
  // condition: switch 651 is ON
  0()



EVENT   33
 PAGE   1
  // condition: switch 651 is ON
  0()



EVENT   34
 PAGE   1
  // condition: switch 652 is ON
  0()



EVENT   35
 PAGE   1
  // condition: switch 653 is ON
  0()



EVENT   36
 PAGE   1
  // condition: switch 653 is ON
  0()



EVENT   37
 PAGE   1
  // condition: switch 653 is ON
  0()



EVENT   38
 PAGE   1
  // condition: switch 654 is ON
  0()



EVENT   39
 PAGE   1
  // condition: switch 654 is ON
  0()



EVENT   40
 PAGE   1
  // condition: switch 654 is ON
  0()



EVENT   41
 PAGE   1
  // condition: switch 655 is ON
  0()



EVENT   42
 PAGE   1
  // condition: switch 655 is ON
  0()



EVENT   43
 PAGE   1
  // condition: switch 656 is ON
  0()



EVENT   44
 PAGE   1
  // condition: switch 657 is ON
  0()



EVENT   45
 PAGE   1
  // condition: switch 657 is ON
  0()



EVENT   46
 PAGE   1
  // condition: switch 657 is ON
  0()



EVENT   47
 PAGE   1
  // condition: switch 657 is ON
  0()



EVENT   48
 PAGE   1
  // condition: switch 657 is ON
  0()



EVENT   49
 PAGE   1
  // condition: switch 657 is ON
  0()



EVENT   50
 PAGE   1
  // condition: switch 658 is ON
  0()



EVENT   51
 PAGE   1
  // condition: switch 658 is ON
  0()



EVENT   52
 PAGE   1
  // condition: switch 658 is ON
  0()



EVENT   53
 PAGE   1
  // condition: switch 659 is ON
  0()



EVENT   54
 PAGE   1
  // condition: switch 659 is ON
  0()



EVENT   56
 PAGE   1
  // condition: switch 659 is ON
  0()



EVENT   57
 PAGE   1
  // condition: switch 659 is ON
  0()



EVENT   58
 PAGE   1
  // condition: switch 660 is ON
  0()



EVENT   59
 PAGE   1
  // condition: switch 660 is ON
  0()



EVENT   60
 PAGE   1
  // condition: switch 660 is ON
  0()



EVENT   61
 PAGE   1
  // condition: switch 658 is ON
  0()



EVENT   62
 PAGE   1
  // condition: switch 658 is ON
  0()



EVENT   63
 PAGE   1
  // condition: switch 658 is ON
  0()



EVENT   64
 PAGE   1
  // condition: switch 658 is ON
  0()



EVENT   65
 PAGE   1
  // condition: switch 653 is ON
  0()



EVENT   66
 PAGE   1
  // condition: switch 653 is ON
  0()



EVENT   67
 PAGE   1
  // condition: switch 653 is ON
  0()



EVENT   68
 PAGE   1
  // condition: switch 653 is ON
  0()



EVENT   69
 PAGE   1
  // condition: switch 653 is ON
  0()



EVENT   70
 PAGE   1
  // condition: switch 653 is ON
  0()



EVENT   71
 PAGE   1
  // condition: switch 653 is ON
  0()



EVENT   72
 PAGE   1
  // condition: switch 654 is ON
  0()



EVENT   73
 PAGE   1
  // condition: switch 654 is ON
  0()



EVENT   74
 PAGE   1
  // condition: switch 654 is ON
  0()



EVENT   75
 PAGE   1
  // condition: switch 654 is ON
  0()



EVENT   76
 PAGE   1
  // condition: switch 654 is ON
  0()



EVENT   77
 PAGE   1
  // condition: switch 654 is ON
  0()



EVENT   78
 PAGE   1
  // condition: switch 654 is ON
  0()



EVENT   79
 PAGE   1
  // condition: switch 654 is ON
  0()
