﻿
DisplayName "Shidara Settlement"



EVENT   1
 PAGE   1
  281(1)
  250(bytes(0x04,0x08,0x6f,0x3a,0x0c,0x52,0x50,0x47,0x3a,0x3a,0x53,0x45,0x08,0x3a,0x0a,0x40,0x6e,0x61,0x6d,0x65,0x49,0x22,0x09,0x4d,0x6f,0x76,0x65,0x06,0x3a,0x06,0x45,0x54,0x3a,0x0b,0x40,0x70,0x69,0x74,0x63,0x68,0x69,0x69,0x3a,0x0c,0x40,0x76,0x6f,0x6c,0x75,0x6d,0x65,0x69,0x55))
  TeleportPlayer(0,868,13,36,0,0)
  0()



EVENT   3
 PAGE   1
  281(1)
  250(bytes(0x04,0x08,0x6f,0x3a,0x0c,0x52,0x50,0x47,0x3a,0x3a,0x53,0x45,0x08,0x3a,0x0a,0x40,0x6e,0x61,0x6d,0x65,0x49,0x22,0x09,0x4d,0x6f,0x76,0x65,0x06,0x3a,0x06,0x45,0x54,0x3a,0x0b,0x40,0x70,0x69,0x74,0x63,0x68,0x69,0x69,0x3a,0x0c,0x40,0x76,0x6f,0x6c,0x75,0x6d,0x65,0x69,0x55))
  TeleportPlayer(0,868,17,14,0,0)
  If(1,1204,0,1,0)
   RunCommonEvent(535)
   0()
  EndIf()
  0()



EVENT   2
 PAGE   1
  281(1)
  250(bytes(0x04,0x08,0x6f,0x3a,0x0c,0x52,0x50,0x47,0x3a,0x3a,0x53,0x45,0x08,0x3a,0x0a,0x40,0x6e,0x61,0x6d,0x65,0x49,0x22,0x09,0x4d,0x6f,0x76,0x65,0x06,0x3a,0x06,0x45,0x54,0x3a,0x0b,0x40,0x70,0x69,0x74,0x63,0x68,0x69,0x69,0x3a,0x0c,0x40,0x76,0x6f,0x6c,0x75,0x6d,0x65,0x69,0x55))
  TeleportPlayer(0,868,34,33,0,0)
  0()



EVENT   4
 PAGE   1
  RunCommonEvent(508)
  0()



EVENT   5
 PAGE   1
  RunCommonEvent(508)
  0()



EVENT   6
 PAGE   1
  RunCommonEvent(508)
  0()



EVENT   7
 PAGE   1
  ChangeVariable(1204,1204,0,0,1)
  205(-1,bytes(0x04,0x08,0x6f,0x3a,0x13,0x52,0x50,0x47,0x3a,0x3a,0x4d,0x6f,0x76,0x65,0x52,0x6f,0x75,0x74,0x65,0x09,0x3a,0x0c,0x40,0x72,0x65,0x70,0x65,0x61,0x74,0x46,0x3a,0x0f,0x40,0x73,0x6b,0x69,0x70,0x70,0x61,0x62,0x6c,0x65,0x46,0x3a,0x0a,0x40,0x77,0x61,0x69,0x74,0x54,0x3a,0x0a,0x40,0x6c,0x69,0x73,0x74,0x5b,0x09,0x6f,0x3a,0x15,0x52,0x50,0x47,0x3a,0x3a,0x4d,0x6f,0x76,0x65,0x43,0x6f,0x6d,0x6d,0x61,0x6e,0x64,0x07,0x3a,0x0a,0x40,0x63,0x6f,0x64,0x65,0x69,0x09,0x3a,0x10,0x40,0x70,0x61,0x72,0x61,0x6d,0x65,0x74,0x65,0x72,0x73,0x5b,0x00,0x6f,0x3b,0x0a,0x07,0x3b,0x0b,0x69,0x09,0x3b,0x0c,0x5b,0x00,0x6f,0x3b,0x0a,0x07,0x3b,0x0b,0x69,0x09,0x3b,0x0c,0x5b,0x00,0x6f,0x3b,0x0a,0x07,0x3b,0x0b,0x69,0x00,0x3b,0x0c,0x5b,0x00))
  ShowMessageFace("rovissa_fc1",0,0,2,1)
  ShowMessage("\\n<Rovissa>This is the Shidara Settlement.\nNow where is our client...?")
  ShowMessageFace("lars_fc01",0,0,2,2)
  ShowMessage("\\n<Lars>............")
  ShowMessageFace("",0,0,2,3)
  ShowMessage("It has been a whole day since they arrived in this world.\nThey didn't know east from west, and even the currency was unfamiliar to them.")
  ShowMessageFace("",0,0,2,4)
  ShowMessage("They also needed to investigate the mystery of this incident, but food and lodging expenses were a more urgent matter.")
  ShowMessageFace("",0,0,2,5)
  ShowMessage("That is why they came to this settlement to take on a request to subdue monsters. They heard of a series of incidents which several villages had been attacked by some mysterious yoma...")
  ShowMessageFace("rovissa_fc1",0,0,2,6)
  ShowMessage("\\n<Rovissa>The huge reward for this request is appealing, but... You can't just leave these villagers in distress, can you Lars?")
  ShowMessageFace("lars_fc01",0,0,2,7)
  ShowMessage("\\n<Lars>............")
  ShowMessageFace("",0,0,2,8)
  ShowMessage("Lars nodded with a sorrowful expression.")
  ShowMessageFace("",0,0,2,9)
  ShowMessage("Based on what he read from the request on the notice board, this case has caused extensive damage. These yoma had raped all of the residents in each village, and most of their victims have been left in a coma.")
  ShowMessageFace("",0,0,2,10)
  ShowMessage("No matter how different this world might be, he could not simply overlook this. Moreover, he had a strong feeling this case might be connected to him.")
  ShowMessageFace("rovissa_fc1",0,0,2,11)
  ShowMessage("\\n<Rovissa>Our client was the elder of this settlement, right? In any case, he should be in the most remarkable house here.")
  ShowMessageFace("rovissa_fc1",0,0,2,12)
  ShowMessage("\\n<Rovissa>Should we also hear what the other residents have to say? There's still a lot we don't know about this world.")
  EndEventProcessing()
  0()
 PAGE   2
  // condition: variable 1204 >= 1
  0()



EVENT   8
 PAGE   1
  PictureDisplay(5,"80_nobissa_st01",0,0,0,0,100,100,0,0)
  PictureMove(5,null,0,0,0,0,100,100,255,0,30,true)
  ShowMessageFace("nobissa_fc1",0,0,2,1)
  ShowMessage("\\n<Novissa>............")
  ShowMessageFace("lars_fc01",0,0,2,2)
  ShowMessage("\\n<Lars>............")
  ShowMessageFace("",0,0,2,3)
  ShowMessage("This man doesn't seem like an ordinary person.\nThere's no mistaking that he's quite strong.")
  ShowMessageFace("nobissa_fc1",0,0,2,4)
  ShowMessage("\\n<Novissa>............")
  ShowMessageFace("rovissa_fc1",0,0,2,5)
  ShowMessage("\\n<Rovissa>Um, are you looking for someone...?\nTarsa...? Nope, I haven't heard that name before.")
  ShowMessageFace("rovissa_fc1",0,0,2,6)
  ShowMessage("\\n<Rovissa>By the way, we're here to eliminate some yoma, and... You look pretty capable. Why don't we fight them together?")
  ShowMessageFace("nobissa_fc1",0,0,2,7)
  ShowMessage("\\n<Novissa>............")
  ShowMessageFace("rovissa_fc1",0,0,2,8)
  ShowMessage("\\n<Rovissa>Yeah, I'm worried about your girl Tarsa too...\nBut I can't help you in that case.")
  PictureClear(5)
  Wait(30)
  205(-1,bytes(0x04,0x08,0x6f,0x3a,0x13,0x52,0x50,0x47,0x3a,0x3a,0x4d,0x6f,0x76,0x65,0x52,0x6f,0x75,0x74,0x65,0x09,0x3a,0x0c,0x40,0x72,0x65,0x70,0x65,0x61,0x74,0x46,0x3a,0x0f,0x40,0x73,0x6b,0x69,0x70,0x70,0x61,0x62,0x6c,0x65,0x46,0x3a,0x0a,0x40,0x77,0x61,0x69,0x74,0x46,0x3a,0x0a,0x40,0x6c,0x69,0x73,0x74,0x5b,0x07,0x6f,0x3a,0x15,0x52,0x50,0x47,0x3a,0x3a,0x4d,0x6f,0x76,0x65,0x43,0x6f,0x6d,0x6d,0x61,0x6e,0x64,0x07,0x3a,0x0a,0x40,0x63,0x6f,0x64,0x65,0x69,0x15,0x3a,0x10,0x40,0x70,0x61,0x72,0x61,0x6d,0x65,0x74,0x65,0x72,0x73,0x5b,0x00,0x6f,0x3b,0x0a,0x07,0x3b,0x0b,0x69,0x00,0x3b,0x0c,0x5b,0x00))
  250(bytes(0x04,0x08,0x6f,0x3a,0x0c,0x52,0x50,0x47,0x3a,0x3a,0x53,0x45,0x08,0x3a,0x0a,0x40,0x6e,0x61,0x6d,0x65,0x49,0x22,0x10,0x6d,0x6f,0x6e,0x5f,0x61,0x73,0x69,0x6f,0x74,0x6f,0x32,0x06,0x3a,0x06,0x45,0x54,0x3a,0x0b,0x40,0x70,0x69,0x74,0x63,0x68,0x69,0x69,0x3a,0x0c,0x40,0x76,0x6f,0x6c,0x75,0x6d,0x65,0x69,0x69))
  205(0,bytes(0x04,0x08,0x6f,0x3a,0x13,0x52,0x50,0x47,0x3a,0x3a,0x4d,0x6f,0x76,0x65,0x52,0x6f,0x75,0x74,0x65,0x09,0x3a,0x0c,0x40,0x72,0x65,0x70,0x65,0x61,0x74,0x46,0x3a,0x0f,0x40,0x73,0x6b,0x69,0x70,0x70,0x61,0x62,0x6c,0x65,0x46,0x3a,0x0a,0x40,0x77,0x61,0x69,0x74,0x54,0x3a,0x0a,0x40,0x6c,0x69,0x73,0x74,0x5b,0x0b,0x6f,0x3a,0x15,0x52,0x50,0x47,0x3a,0x3a,0x4d,0x6f,0x76,0x65,0x43,0x6f,0x6d,0x6d,0x61,0x6e,0x64,0x07,0x3a,0x0a,0x40,0x63,0x6f,0x64,0x65,0x69,0x2a,0x3a,0x10,0x40,0x70,0x61,0x72,0x61,0x6d,0x65,0x74,0x65,0x72,0x73,0x5b,0x00,0x6f,0x3b,0x0a,0x07,0x3b,0x0b,0x69,0x06,0x3b,0x0c,0x5b,0x00,0x6f,0x3b,0x0a,0x07,0x3b,0x0b,0x69,0x06,0x3b,0x0c,0x5b,0x00,0x6f,0x3b,0x0a,0x07,0x3b,0x0b,0x69,0x06,0x3b,0x0c,0x5b,0x00,0x6f,0x3b,0x0a,0x07,0x3b,0x0b,0x69,0x06,0x3b,0x0c,0x5b,0x00,0x6f,0x3b,0x0a,0x07,0x3b,0x0b,0x69,0x00,0x3b,0x0c,0x5b,0x00))
  205(0,bytes(0x04,0x08,0x6f,0x3a,0x13,0x52,0x50,0x47,0x3a,0x3a,0x4d,0x6f,0x76,0x65,0x52,0x6f,0x75,0x74,0x65,0x09,0x3a,0x0c,0x40,0x72,0x65,0x70,0x65,0x61,0x74,0x46,0x3a,0x0f,0x40,0x73,0x6b,0x69,0x70,0x70,0x61,0x62,0x6c,0x65,0x46,0x3a,0x0a,0x40,0x77,0x61,0x69,0x74,0x46,0x3a,0x0a,0x40,0x6c,0x69,0x73,0x74,0x5b,0x0b,0x6f,0x3a,0x15,0x52,0x50,0x47,0x3a,0x3a,0x4d,0x6f,0x76,0x65,0x43,0x6f,0x6d,0x6d,0x61,0x6e,0x64,0x07,0x3a,0x0a,0x40,0x63,0x6f,0x64,0x65,0x69,0x06,0x3a,0x10,0x40,0x70,0x61,0x72,0x61,0x6d,0x65,0x74,0x65,0x72,0x73,0x5b,0x00,0x6f,0x3b,0x0a,0x07,0x3b,0x0b,0x69,0x06,0x3b,0x0c,0x5b,0x00,0x6f,0x3b,0x0a,0x07,0x3b,0x0b,0x69,0x06,0x3b,0x0c,0x5b,0x00,0x6f,0x3b,0x0a,0x07,0x3b,0x0b,0x69,0x06,0x3b,0x0c,0x5b,0x00,0x6f,0x3b,0x0a,0x07,0x3b,0x0b,0x69,0x20,0x3b,0x0c,0x5b,0x06,0x69,0x02,0x5a,0x0b,0x6f,0x3b,0x0a,0x07,0x3b,0x0b,0x69,0x00,0x3b,0x0c,0x5b,0x00))
  ShowMessageFace("",0,0,2,9)
  ShowMessage("Novissa walks away from the spot...")
  ShowMessageFace("rovissa_fc1",0,0,2,10)
  ShowMessage("\\n<Rovissa>He seemed to be searching desperately for her...\nThis Tarsa is probably his girlfriend.")
  ShowMessageFace("rovissa_fc1",0,0,2,11)
  ShowMessage("\\n<Rovissa>If I were separated from you Lars...\nWould you be searching for me like that?")
  ShowChoices(strings("Yes","No"),0)
  IfPlayerPicksChoice(0,null)
   ShowMessageFace("rovissa_fc1",0,0,2,12)
   ShowMessage("\\n<Rovissa>Fufu, that's right...♪")
   0()
  IfPlayerPicksChoice(1,null)
   ShowMessageFace("rovissa_fc1",0,0,2,13)
   ShowMessage("\\n<Rovissa>...Hmph, fine!\nI'd just track you wherever you go!")
   0()
  404()
  EndEventProcessing()
  0()
 PAGE   2
  // condition: switch 2906 is ON
  0()



EVENT   9
 PAGE   1
  ShowMessageFace("",0,0,2,1)
  ShowMessage("\\n<Village Girl>The first place that got attacked was a small town in the Gold region. From there, villages were attacked one after another...")
  ShowMessageFace("",0,0,2,2)
  ShowMessage("\\n<Village Girl>And now they've finally reached the Yamatai region.\nThis village is also going to be attacked by the yoma...")
  0()



EVENT   10
 PAGE   1
  ShowMessageFace("",0,0,2,1)
  ShowMessage("\\n<Guard>There are only a few soldiers in this small settlement.\nThere's no way we'd be able to fend off a foreign invasion...")
  0()



EVENT   11
 PAGE   1
  ShowMessageFace("",0,0,2,1)
  ShowMessage("\\n<Villager>It's nice of you to come to a small settlement like ours.\nYou should listen to what our elder has to say.")
  0()



EVENT   12
 PAGE   1
  ShowMessageFace("",0,0,2,1)
  ShowMessage("\\n<Cow>Moooo.")
  ShowMessageFace("",0,0,2,2)
  ShowMessage("This cow looks like it's put on a lot of weight...")
  0()



EVENT   13
 PAGE   1
  ShowMessageFace("",0,0,2,1)
  ShowMessage("\\n<Monk>Everyone that was attacked by the yoma has fallen into a coma. Although their lives don't appear to be in danger, it doesn't look like they will return to consciousness.")
  ShowMessageFace("",0,0,2,2)
  ShowMessage("\\n<Monk>Why are they doing this?\nAre they just having a meal, or...")
  0()



EVENT   14
 PAGE   1
  // condition: variable 1204 >= 2
  ChangeSelfSwitch("A",0)
  ShowMessageFace("rovissa_fc1",0,0,2,1)
  ShowMessage("\\n<Rovissa>That strange exorcist must've headed to Izumo Village. We have to move on ahead of her so that we won't get robbed of fulfilling the request!")
  ShowMessageFace("lars_fc01",0,0,2,2)
  ShowMessage("\\n<Lars>............")
  ShowMessageFace("",0,0,2,3)
  ShowMessage("Following the earth's pulse was the exorcist's idea in the first place. It felt more like the two were just taking credit for it.")
  ShowMessageFace("rovissa_fc1",0,0,2,4)
  ShowMessage("\\n<Rovissa>That said...why have I materialized like this?\nIs it something to do with how this world works?")
  ShowMessageFace("",0,0,2,5)
  ShowMessage("Ever since coming into this world after being caught in that black vortex, Rovissa had materialized into her physical form without being summoned prior.")
  ShowMessageFace("lars_fc01",0,0,2,6)
  ShowMessage("\\n<Lars>............")
  ShowMessageFace("rovissa_fc1",0,0,2,7)
  ShowMessage("\\n<Rovissa>Maybe this is only a temporary thing.\nI'll probably revert once we return to our world.")
  ShowMessageFace("rovissa_fc1",0,0,2,8)
  ShowMessage("\\n<Rovissa>But fighting against someone who isn't a Nightmare... Hasn't it been a long time since you've used your sword, Lars?")
  ShowMessageFace("lars_fc01",0,0,2,9)
  ShowMessage("\\n<Lars>............")
  ShowMessageFace("",0,0,2,10)
  ShowMessage("He once used his sword techniques to defeat the Demon Lord... It has been a very long time since he fought with that power.")
  ShowMessageFace("",0,0,2,11)
  ShowMessage("The yoma going around wrecking villages should be quite strong. This is to say nothing of the fact they're in a different world, so they'll need to be prepared before challenging them...")
  EndEventProcessing()
  0()
 PAGE   2
  // condition: self-switch A is ON
  0()



EVENT   15
 PAGE   1
  ShowMessageFace("",0,0,2,1)
  ShowMessage("\\n<Villager>The crops have been growing fast these days.\nIt's been a very long time since this much fruit has grown.")
  ShowMessageFace("",0,0,2,2)
  ShowMessage("\\n<Villager>A lot of chickens have also been born with four or six legs. Still, I'm happy we have so much to eat.")
  ShowMessageFace("rovissa_fc1",0,0,2,3)
  ShowMessage("\\n<Rovissa>Is that really something to be happy about...?")
  0()



EVENT   16
 PAGE   1
  250(bytes(0x04,0x08,0x6f,0x3a,0x0c,0x52,0x50,0x47,0x3a,0x3a,0x53,0x45,0x08,0x3a,0x0a,0x40,0x6e,0x61,0x6d,0x65,0x49,0x22,0x0a,0x49,0x74,0x65,0x6d,0x31,0x06,0x3a,0x06,0x45,0x54,0x3a,0x0b,0x40,0x70,0x69,0x74,0x63,0x68,0x69,0x69,0x3a,0x0c,0x40,0x76,0x6f,0x6c,0x75,0x6d,0x65,0x69,0x55))
  ChangeSelfSwitch("A",0)
  ChangeInventory_Item(3,0,0,1)
  0()
 PAGE   2
  // condition: self-switch A is ON
  0()



EVENT   17
 PAGE   1
  250(bytes(0x04,0x08,0x6f,0x3a,0x0c,0x52,0x50,0x47,0x3a,0x3a,0x53,0x45,0x08,0x3a,0x0a,0x40,0x6e,0x61,0x6d,0x65,0x49,0x22,0x0a,0x49,0x74,0x65,0x6d,0x31,0x06,0x3a,0x06,0x45,0x54,0x3a,0x0b,0x40,0x70,0x69,0x74,0x63,0x68,0x69,0x69,0x3a,0x0c,0x40,0x76,0x6f,0x6c,0x75,0x6d,0x65,0x69,0x55))
  ChangeSelfSwitch("A",0)
  ChangeInventory_Item(5,0,0,1)
  0()
 PAGE   2
  // condition: self-switch A is ON
  0()



EVENT   18
 PAGE   1
  ShowMessageFace("slime_fc1",0,0,2,1)
  ShowMessage("\\n<Slime Girl>Boomerang♪ Boomerang♪")
  ShowMessageFace("rovissa_fc1",0,0,2,2)
  ShowMessage("\\n<Rovissa>These jiggly girls are dancing!\nThey're adorable...♪")
  ShowMessageFace("lars_fc01",0,0,2,3)
  ShowMessage("\\n<Lars>............")
  ShowMessageFace("",0,0,2,4)
  ShowMessage("The monsters in this world are completely different from the Nightmares they were familiar with. Rovissa rejects the Nightmares, but she doesn't appear to dislike these monsters.")
  0()
